sample	date	sender	cluster_name	cluster_name_3	cluster_code
SAMEA6057720	2020-09-26	partner1	CT_0096	Alpha	CT_0096.Alpha
SAMEA6057895	2020-09-26	partner3	CT_0096	Beta	CT_0096.Beta
SAMEA6058627	2020-09-26	partner3	CT_0096	Gamma	CT_0096.Gamma
