sample	date	sender	cluster_name	cluster_name_3	cluster_code
SAMEA6057675	2020-09-25	partner2	CT_0087	Alpha	CT_0087.Alpha
SAMEA6057676	2020-09-25	partner2	CT_0087	Beta	CT_0087.Beta
SAMEA6057679	2020-09-26	partner1	CT_0087	Gamma	CT_0087.Gamma
SAMEA6057683	2020-09-26	partner3	CT_0087	Delta	CT_0087.Delta
SAMEA6057687	2020-09-26	partner1	CT_0087	Epsilon	CT_0087.Epsilon
SAMEA6057688	2020-09-25	partner2	CT_0087	Zeta	CT_0087.Zeta
SAMEA6057696	2020-09-26	partner1	CT_0087	Eta	CT_0087.Eta
SAMEA6057708	2020-09-26	partner3	CT_0087	Gamma	CT_0087.Gamma
SAMEA6057709	2020-09-25	partner2	CT_0087	Theta	CT_0087.Theta
SAMEA6057712	2020-09-26	partner1	CT_0087	Iota	CT_0087.Iota
SAMEA6057811	2020-09-26	partner1	CT_0087	Eta	CT_0087.Eta
