sample	cluster_name_3
SAMEA6057675	Alpha
SAMEA6057676	Beta
SAMEA6057679	Gamma
SAMEA6057683	Delta
SAMEA6057687	Epsilon
SAMEA6057688	Zeta
SAMEA6057696	Eta
SAMEA6057708	Gamma
SAMEA6057709	Theta
SAMEA6057712	Iota
SAMEA6057811	Eta
