sample	date	sender	cluster_name	cluster_name_3	cluster_code
SAMEA6057583	2020-09-26	partner1	CT_0070	Alpha	CT_0070.Alpha
SAMEA6058250	2020-09-26	partner1	CT_0070	Beta	CT_0070.Beta
SAMEA6058277	2020-09-25	partner2	CT_0070	Alpha	CT_0070.Alpha
