sample	date	sender	cluster_name	cluster_name_3	cluster_code
SAMEA6057444	2020-09-26	partner1	CT_0036	Alpha	CT_0036.Alpha
SAMEA6057466	2020-09-26	partner3	CT_0036	Beta	CT_0036.Beta
SAMEA6057471	2020-09-25	partner2	CT_0036	Alpha	CT_0036.Alpha
SAMEA6057478	2020-09-26	partner3	CT_0036	Alpha	CT_0036.Alpha
SAMEA6057543	2020-09-26	partner1	CT_0036	Alpha	CT_0036.Alpha
SAMEA6057580	2020-09-25	partner2	CT_0036	Alpha	CT_0036.Alpha
SAMEA6057599	2020-09-26	partner3	CT_0036	Gamma	CT_0036.Gamma
SAMEA6057618	2020-09-26	partner3	CT_0036	Alpha	CT_0036.Alpha
SAMEA6057639	2020-09-26	partner1	CT_0036	Alpha	CT_0036.Alpha
SAMEA6057643	2020-09-26	partner1	CT_0036	Alpha	CT_0036.Alpha
SAMEA6057659	2020-09-26	partner3	CT_0036	Alpha	CT_0036.Alpha
SAMEA6057670	2020-09-26	partner1	CT_0036	Alpha	CT_0036.Alpha
SAMEA6057677	2020-09-25	partner2	CT_0036	Alpha	CT_0036.Alpha
SAMEA6057716	2020-09-25	partner2	CT_0036	Alpha	CT_0036.Alpha
SAMEA6057731	2020-09-26	partner3	CT_0036	Alpha	CT_0036.Alpha
SAMEA6057739	2020-09-25	partner2	CT_0036	Alpha	CT_0036.Alpha
SAMEA6057744	2020-09-25	partner2	CT_0036	Alpha	CT_0036.Alpha
SAMEA6057754	2020-09-26	partner3	CT_0036	Delta	CT_0036.Delta
SAMEA6057785	2020-09-26	partner1	CT_0036	Alpha	CT_0036.Alpha
SAMEA6057799	2020-09-25	partner2	CT_0036	Alpha	CT_0036.Alpha
SAMEA6057813	2020-09-26	partner1	CT_0036	Alpha	CT_0036.Alpha
SAMEA6057826	2020-09-25	partner2	CT_0036	Alpha	CT_0036.Alpha
SAMEA6057896	2020-09-26	partner1	CT_0036	Alpha	CT_0036.Alpha
SAMEA6057905	2020-09-26	partner1	CT_0036	Alpha	CT_0036.Alpha
SAMEA6057906	2020-09-26	partner3	CT_0036	Alpha	CT_0036.Alpha
SAMEA6057911	2020-09-26	partner3	CT_0036	Alpha	CT_0036.Alpha
SAMEA6057920	2020-09-26	partner3	CT_0036	Alpha	CT_0036.Alpha
SAMEA6057925	2020-09-26	partner3	CT_0036	Epsilon	CT_0036.Epsilon
SAMEA6057936	2020-09-26	partner3	CT_0036	Alpha	CT_0036.Alpha
SAMEA6057940	2020-09-26	partner1	CT_0036	Alpha	CT_0036.Alpha
SAMEA6057952	2020-09-25	partner2	CT_0036	Alpha	CT_0036.Alpha
SAMEA6058008	2020-09-26	partner3	CT_0036	Zeta	CT_0036.Zeta
SAMEA6058023	2020-09-26	partner3	CT_0036	Alpha	CT_0036.Alpha
SAMEA6058048	2020-09-26	partner3	CT_0036	Alpha	CT_0036.Alpha
SAMEA6058074	2020-09-26	partner1	CT_0036	Alpha	CT_0036.Alpha
SAMEA6058106	2020-09-25	partner2	CT_0036	Alpha	CT_0036.Alpha
SAMEA6058180	2020-09-26	partner3	CT_0036	Alpha	CT_0036.Alpha
SAMEA6058221	2020-09-26	partner3	CT_0036	Alpha	CT_0036.Alpha
SAMEA6058229	2020-09-25	partner2	CT_0036	Alpha	CT_0036.Alpha
SAMEA6058261	2020-09-25	partner2	CT_0036	Alpha	CT_0036.Alpha
SAMEA6058301	2020-09-26	partner3	CT_0036	Alpha	CT_0036.Alpha
SAMEA6058428	2020-09-25	partner2	CT_0036	Alpha	CT_0036.Alpha
SAMEA6058439	2020-09-25	partner2	CT_0036	Eta	CT_0036.Eta
SAMEA6058482	2020-09-26	partner3	CT_0036	Alpha	CT_0036.Alpha
SAMEA6058492	2020-09-25	partner2	CT_0036	Alpha	CT_0036.Alpha
SAMEA6058518	2020-09-25	partner2	CT_0036	Alpha	CT_0036.Alpha
SAMEA6058526	2020-09-26	partner3	CT_0036	Alpha	CT_0036.Alpha
SAMEA6058533	2020-09-25	partner2	CT_0036	Alpha	CT_0036.Alpha
SAMEA6058536	2020-09-26	partner1	CT_0036	Alpha	CT_0036.Alpha
SAMEA6058588	2020-09-26	partner1	CT_0036	Alpha	CT_0036.Alpha
SAMEA6058601	2020-09-25	partner2	CT_0036	Alpha	CT_0036.Alpha
SAMEA6058605	2020-09-25	partner2	CT_0036	Alpha	CT_0036.Alpha
SAMEA6058614	2020-09-26	partner3	CT_0036	Alpha	CT_0036.Alpha
SAMEA6058617	2020-09-26	partner1	CT_0036	Alpha	CT_0036.Alpha
SAMEA6058622	2020-09-25	partner2	CT_0036	Alpha	CT_0036.Alpha
