	SAMEA6058008	SAMEA6058439	SAMEA6057466	SAMEA6057925	SAMEA6058622	SAMEA6058518	SAMEA6058601	SAMEA6057936	SAMEA6058617	SAMEA6058614	SAMEA6058526	SAMEA6058261	SAMEA6058106	SAMEA6058074	SAMEA6058023	SAMEA6057905	SAMEA6057906	SAMEA6057813	SAMEA6057478	SAMEA6058588	SAMEA6057731	SAMEA6057952	SAMEA6057471	SAMEA6058533	SAMEA6058229	SAMEA6058221	SAMEA6057444	SAMEA6058605	SAMEA6058428	SAMEA6058301	SAMEA6058180	SAMEA6057920	SAMEA6057785	SAMEA6057659	SAMEA6057744	SAMEA6058536	SAMEA6057799	SAMEA6057670	SAMEA6058482	SAMEA6057543	SAMEA6057716	SAMEA6057643	SAMEA6058492	SAMEA6057896	SAMEA6057677	SAMEA6057739	SAMEA6057940	SAMEA6057911	SAMEA6058048	SAMEA6057639	SAMEA6057826	SAMEA6057580	SAMEA6057618	SAMEA6057599	SAMEA6057754
SAMEA6058008	0	13	11	13	12	10	9	8	8	8	8	8	8	8	8	7	6	8	8	8	8	8	8	8	8	8	8	7	7	7	7	7	7	7	7	9	9	9	9	9	9	9	9	8	9	9	11	9	8	4	5	8	8	11	12
SAMEA6058439	13	0	7	7	10	8	7	9	7	7	7	7	7	7	7	7	7	7	6	5	5	5	7	6	6	6	6	6	6	6	6	6	6	6	6	4	6	6	5	5	5	7	6	8	8	8	9	9	8	7	8	9	8	8	10
SAMEA6057466	11	7	0	6	8	6	5	7	5	5	5	5	5	5	5	5	5	5	5	5	5	5	5	4	4	4	5	4	4	4	4	4	4	4	4	4	6	6	5	6	5	7	6	6	6	6	7	7	6	5	6	7	6	7	8
SAMEA6057925	13	7	6	0	9	8	7	9	7	7	7	7	7	7	7	7	7	7	6	5	5	5	7	6	5	6	6	6	6	6	6	6	6	6	6	4	6	6	5	5	5	7	6	8	8	8	9	9	8	7	8	9	8	6	8
SAMEA6058622	12	10	8	9	0	6	5	8	6	6	6	6	6	6	6	6	6	6	5	6	6	6	6	4	5	5	4	5	5	5	5	5	5	5	5	7	7	7	6	3	6	8	7	7	7	7	8	8	7	6	7	8	7	7	8
SAMEA6058518	10	8	6	8	6	0	3	6	4	4	4	4	4	4	4	4	4	4	3	4	4	4	4	3	3	3	2	3	3	3	3	3	3	3	3	5	5	5	4	3	4	6	6	5	5	5	6	6	5	4	5	6	5	6	7
SAMEA6058601	9	7	5	7	5	3	0	5	3	3	3	3	3	3	3	3	3	3	2	3	3	3	3	2	2	2	1	2	2	2	2	2	2	2	2	4	4	4	3	2	3	5	5	4	4	4	5	5	4	3	4	5	4	5	6
SAMEA6057936	8	9	7	9	8	6	5	0	4	4	4	4	4	3	4	4	3	4	4	4	4	4	4	4	4	4	4	3	3	3	3	3	3	3	3	5	5	5	5	5	5	5	5	4	5	5	5	6	4	3	4	5	4	7	8
SAMEA6058617	8	7	5	7	6	4	3	4	0	2	2	2	2	2	2	2	2	2	2	2	2	2	2	2	2	2	2	1	1	1	1	1	1	1	1	3	3	3	3	3	3	4	3	3	3	3	4	4	3	2	3	4	3	5	6
SAMEA6058614	8	7	5	7	6	4	3	4	2	0	2	2	2	2	2	2	2	2	2	2	2	2	2	2	2	2	2	1	1	1	1	1	1	1	1	3	3	3	3	3	3	4	3	3	3	3	4	4	3	2	3	4	3	5	6
SAMEA6058526	8	7	5	7	6	4	3	4	2	2	0	2	2	2	2	2	2	2	2	2	2	2	2	2	2	2	2	1	1	1	1	1	1	1	1	3	3	3	3	3	3	4	3	3	3	3	4	4	3	2	3	4	3	5	6
SAMEA6058261	8	7	5	7	6	4	3	4	2	2	2	0	2	2	2	2	2	2	2	2	2	2	2	2	2	2	2	1	1	1	1	1	1	1	1	3	3	3	3	3	3	4	4	3	3	3	4	4	3	2	3	4	3	5	6
SAMEA6058106	8	7	5	7	6	4	3	4	2	2	2	2	0	2	2	2	2	2	2	2	2	2	2	2	2	2	2	1	1	1	1	1	1	1	1	3	3	3	3	3	3	4	4	3	3	3	4	4	3	2	3	4	3	5	6
SAMEA6058074	8	7	5	7	6	4	3	3	2	2	2	2	2	0	2	1	2	2	2	2	2	2	2	2	2	2	2	1	1	1	1	1	1	1	1	3	3	3	3	3	3	4	3	3	3	3	4	3	3	2	2	4	3	5	6
SAMEA6058023	8	7	5	7	6	4	3	4	2	2	2	2	2	2	0	2	2	2	2	2	2	2	2	2	2	2	2	1	1	1	1	1	1	1	1	3	3	3	3	3	3	4	3	3	3	3	4	4	3	2	3	4	3	5	6
SAMEA6057905	7	7	5	7	6	4	3	4	2	2	2	2	2	1	2	0	1	2	2	2	2	2	2	2	2	2	2	1	1	1	1	1	1	1	1	3	3	3	3	3	3	3	3	2	3	3	3	4	2	1	2	3	2	5	6
SAMEA6057906	6	7	5	7	6	4	3	3	2	2	2	2	2	2	2	1	0	2	2	2	2	2	2	2	2	2	2	1	1	1	1	1	1	1	1	3	3	2	3	3	3	4	3	3	3	3	4	4	2	2	3	3	2	5	6
SAMEA6057813	8	7	5	7	6	4	3	4	2	2	2	2	2	2	2	2	2	0	2	2	2	2	2	2	2	2	2	1	1	1	1	1	1	1	1	3	3	3	3	3	3	4	3	3	3	3	4	4	3	2	3	4	3	5	6
SAMEA6057478	8	6	5	6	5	3	2	4	2	2	2	2	2	2	2	2	2	2	0	1	1	1	2	2	2	2	2	1	1	1	1	1	1	1	1	2	2	2	2	2	2	3	2	3	3	3	4	4	3	2	3	4	3	4	6
SAMEA6058588	8	5	5	5	6	4	3	4	2	2	2	2	2	2	2	2	2	2	1	0	0	0	2	2	2	2	2	1	1	1	1	1	1	1	1	1	1	1	1	1	1	2	1	3	3	3	4	4	3	2	3	4	3	4	6
SAMEA6057731	8	5	5	5	6	4	3	4	2	2	2	2	2	2	2	2	2	2	1	0	0	0	2	2	2	2	2	1	1	1	1	1	1	1	1	1	1	1	1	1	1	2	1	3	3	3	4	4	3	2	3	4	3	4	6
SAMEA6057952	8	5	5	5	6	4	3	4	2	2	2	2	2	2	2	2	2	2	1	0	0	0	2	2	2	2	2	1	1	1	1	1	1	1	1	1	1	1	1	1	1	2	2	3	3	3	4	4	3	2	3	4	3	4	6
SAMEA6057471	8	7	5	7	6	4	3	4	2	2	2	2	2	2	2	2	2	2	2	2	2	2	0	2	2	2	2	1	1	1	1	1	1	1	1	3	3	3	3	3	3	4	4	3	3	3	4	4	3	2	3	4	3	5	6
SAMEA6058533	8	6	4	6	4	3	2	4	2	2	2	2	2	2	2	2	2	2	2	2	2	2	2	0	1	1	1	1	1	1	1	1	1	1	1	3	3	3	2	2	2	4	4	3	3	3	4	4	3	2	3	4	3	4	5
SAMEA6058229	8	6	4	5	5	3	2	4	2	2	2	2	2	2	2	2	2	2	2	2	2	2	2	1	0	1	1	1	1	1	1	1	1	1	1	3	3	3	2	2	2	4	4	3	3	3	4	4	3	2	3	4	3	4	5
SAMEA6058221	8	6	4	6	5	3	2	4	2	2	2	2	2	2	2	2	2	2	2	2	2	2	2	1	1	0	1	1	1	1	1	1	1	1	1	3	3	3	2	2	2	4	3	3	3	3	4	4	3	2	3	4	3	4	5
SAMEA6057444	8	6	5	6	4	2	1	4	2	2	2	2	2	2	2	2	2	2	2	2	2	2	2	1	1	1	0	1	1	1	1	1	1	1	1	3	3	3	2	3	2	4	3	3	3	3	4	4	3	2	3	4	3	4	5
SAMEA6058605	7	6	4	6	5	3	2	3	1	1	1	1	1	1	1	1	1	1	1	1	1	1	1	1	1	1	1	0	0	0	0	0	0	0	0	2	2	2	2	2	2	3	3	2	2	2	3	3	2	1	2	3	2	4	5
SAMEA6058428	7	6	4	6	5	3	2	3	1	1	1	1	1	1	1	1	1	1	1	1	1	1	1	1	1	1	1	0	0	0	0	0	0	0	0	2	2	2	2	2	2	3	3	2	2	2	3	3	2	1	2	3	2	4	4
SAMEA6058301	7	6	4	6	5	3	2	3	1	1	1	1	1	1	1	1	1	1	1	1	1	1	1	1	1	1	1	0	0	0	0	0	0	0	0	2	2	2	2	2	2	3	2	2	2	2	3	3	2	1	2	3	2	4	5
SAMEA6058180	7	6	4	6	5	3	2	3	1	1	1	1	1	1	1	1	1	1	1	1	1	1	1	1	1	1	1	0	0	0	0	0	0	0	0	2	2	2	2	2	2	3	2	2	2	2	3	3	2	1	2	3	2	4	5
SAMEA6057920	7	6	4	6	5	3	2	3	1	1	1	1	1	1	1	1	1	1	1	1	1	1	1	1	1	1	1	0	0	0	0	0	0	0	0	2	2	2	2	2	2	3	2	2	2	2	3	3	2	1	2	3	2	4	5
SAMEA6057785	7	6	4	6	5	3	2	3	1	1	1	1	1	1	1	1	1	1	1	1	1	1	1	1	1	1	1	0	0	0	0	0	0	0	0	2	2	2	2	2	2	3	2	2	2	2	3	3	2	1	2	3	2	4	5
SAMEA6057659	7	6	4	6	5	3	2	3	1	1	1	1	1	1	1	1	1	1	1	1	1	1	1	1	1	1	1	0	0	0	0	0	0	0	0	2	2	2	2	2	2	3	2	2	2	2	3	3	2	1	2	3	2	4	5
SAMEA6057744	7	6	4	6	5	3	2	3	1	1	1	1	1	1	1	1	1	1	1	1	1	1	1	1	1	1	1	0	0	0	0	0	0	0	0	2	2	2	2	2	2	3	3	2	2	2	3	3	2	1	2	3	2	4	5
SAMEA6058536	9	4	4	4	7	5	4	5	3	3	3	3	3	3	3	3	3	3	2	1	1	1	3	3	3	3	3	2	2	2	2	2	2	2	2	0	2	2	2	2	2	3	2	4	4	4	5	5	4	3	4	5	4	5	7
SAMEA6057799	9	6	6	6	7	5	4	5	3	3	3	3	3	3	3	3	3	3	2	1	1	1	3	3	3	3	3	2	2	2	2	2	2	2	2	2	0	2	2	2	2	3	3	4	4	4	5	5	3	3	4	5	4	5	7
SAMEA6057670	9	6	6	6	7	5	4	5	3	3	3	3	3	3	3	3	2	3	2	1	1	1	3	3	3	3	3	2	2	2	2	2	2	2	2	2	2	0	2	2	2	3	2	4	4	4	5	4	4	3	4	4	4	5	7
SAMEA6058482	9	5	5	5	6	4	3	5	3	3	3	3	3	3	3	3	3	3	2	1	1	1	3	2	2	2	2	2	2	2	2	2	2	2	2	2	2	2	0	1	1	3	2	4	4	4	5	5	4	3	4	5	4	4	6
SAMEA6057543	9	5	6	5	3	3	2	5	3	3	3	3	3	3	3	3	3	3	2	1	1	1	3	2	2	2	3	2	2	2	2	2	2	2	2	2	2	2	1	0	1	3	2	4	4	4	5	5	4	3	4	5	4	4	6
SAMEA6057716	9	5	5	5	6	4	3	5	3	3	3	3	3	3	3	3	3	3	2	1	1	1	3	2	2	2	2	2	2	2	2	2	2	2	2	2	2	2	1	1	0	3	3	4	4	4	5	5	4	3	4	5	4	4	6
SAMEA6057643	9	7	7	7	8	6	5	5	4	4	4	4	4	4	4	3	4	4	3	2	2	2	4	4	4	4	4	3	3	3	3	3	3	3	3	3	3	3	3	3	3	0	3	5	5	5	6	6	4	4	5	6	4	6	8
SAMEA6058492	9	6	6	6	7	6	5	5	3	3	3	4	4	3	3	3	3	3	2	1	1	2	4	4	4	3	3	3	3	2	2	2	2	2	3	2	3	2	2	2	3	3	0	4	5	5	5	5	4	3	5	6	4	5	7
SAMEA6057896	8	8	6	8	7	5	4	4	3	3	3	3	3	3	3	2	3	3	3	3	3	3	3	3	3	3	3	2	2	2	2	2	2	2	2	4	4	4	4	4	4	5	4	0	4	4	5	5	4	3	4	5	4	6	7
SAMEA6057677	9	8	6	8	7	5	4	5	3	3	3	3	3	3	3	3	3	3	3	3	3	3	3	3	3	3	3	2	2	2	2	2	2	2	2	4	4	4	4	4	4	5	5	4	0	4	5	5	4	3	4	5	4	6	7
SAMEA6057739	9	8	6	8	7	5	4	5	3	3	3	3	3	3	3	3	3	3	3	3	3	3	3	3	3	3	3	2	2	2	2	2	2	2	2	4	4	4	4	4	4	5	5	4	4	0	5	5	4	3	4	5	4	6	7
SAMEA6057940	11	9	7	9	8	6	5	5	4	4	4	4	4	4	4	3	4	4	4	4	4	4	4	4	4	4	4	3	3	3	3	3	3	3	3	5	5	5	5	5	5	6	5	5	5	5	0	5	4	3	4	5	4	7	8
SAMEA6057911	9	9	7	9	8	6	5	6	4	4	4	4	4	3	4	4	4	4	4	4	4	4	4	4	4	4	4	3	3	3	3	3	3	3	3	5	5	4	5	5	5	6	5	5	5	5	5	0	4	2	4	5	5	7	8
SAMEA6058048	8	8	6	8	7	5	4	4	3	3	3	3	3	3	3	2	2	3	3	3	3	3	3	3	3	3	3	2	2	2	2	2	2	2	2	4	3	4	4	4	4	4	4	4	4	4	4	4	0	2	3	3	3	6	7
SAMEA6057639	4	7	5	7	6	4	3	3	2	2	2	2	2	2	2	1	2	2	2	2	2	2	2	2	2	2	2	1	1	1	1	1	1	1	1	3	3	3	3	3	3	4	3	3	3	3	3	2	2	0	0	3	2	5	6
SAMEA6057826	5	8	6	8	7	5	4	4	3	3	3	3	3	2	3	2	3	3	3	3	3	3	3	3	3	3	3	2	2	2	2	2	2	2	2	4	4	4	4	4	4	5	5	4	4	4	4	4	3	0	0	3	3	6	7
SAMEA6057580	8	9	7	9	8	6	5	5	4	4	4	4	4	4	4	3	3	4	4	4	4	4	4	4	4	4	4	3	3	3	3	3	3	3	3	5	5	4	5	5	5	6	6	5	5	5	5	5	3	3	3	0	3	7	8
SAMEA6057618	8	8	6	8	7	5	4	4	3	3	3	3	3	3	3	2	2	3	3	3	3	3	3	3	3	3	3	2	2	2	2	2	2	2	2	4	4	4	4	4	4	4	4	4	4	4	4	5	3	2	3	3	0	6	7
SAMEA6057599	11	8	7	6	7	6	5	7	5	5	5	5	5	5	5	5	5	5	4	4	4	4	5	4	4	4	4	4	4	4	4	4	4	4	4	5	5	5	4	4	4	6	5	6	6	6	7	7	6	5	6	7	6	0	6
SAMEA6057754	12	10	8	8	8	7	6	8	6	6	6	6	6	6	6	6	6	6	6	6	6	6	6	5	5	5	5	5	4	5	5	5	5	5	5	7	7	7	6	6	6	8	7	7	7	7	8	8	7	6	7	8	7	6	0
