sample	cluster_name_3
SAMEA6057439	Alpha
SAMEA6057450	Beta
SAMEA6057549	Gamma
SAMEA6057614	Delta
SAMEA6057713	Epsilon
SAMEA6057771	Delta
SAMEA6057801	Zeta
SAMEA6057810	Eta
SAMEA6057817	Epsilon
SAMEA6057986	Theta
SAMEA6057989	Alpha
SAMEA6058122	Iota
SAMEA6058156	Kappa
SAMEA6058273	Lambda
SAMEA6058478	Delta
