	SAMEA6057968	SAMEA6058459	SAMEA6057922	SAMEA6057913	SAMEA6058095	SAMEA6057454	SAMEA6057830	SAMEA6057776	SAMEA6057657	SAMEA6057835
SAMEA6057968	0	0	8	7	7	8	7	7	5	6
SAMEA6058459	0	0	8	7	7	8	7	7	5	6
SAMEA6057922	8	8	0	1	1	6	5	5	3	4
SAMEA6057913	7	7	1	0	0	5	4	4	2	3
SAMEA6058095	7	7	1	0	0	5	4	4	2	3
SAMEA6057454	8	8	6	5	5	0	5	5	3	4
SAMEA6057830	7	7	5	4	4	5	0	4	2	3
SAMEA6057776	7	7	5	4	4	5	4	0	2	3
SAMEA6057657	5	5	3	2	2	3	2	2	0	1
SAMEA6057835	6	6	4	3	3	4	3	3	1	0
