sample	date	sender	cluster_name	cluster_name_3	cluster_code
SAMEA6057561	2020-09-26	partner1	CT_0067	Alpha	CT_0067.Alpha
SAMEA6057630	2020-09-26	partner3	CT_0067	Beta	CT_0067.Beta
SAMEA6057793	2020-09-26	partner1	CT_0067	Gamma	CT_0067.Gamma
SAMEA6057973	2020-09-26	partner3	CT_0067	Delta	CT_0067.Delta
SAMEA6058045	2020-09-26	partner1	CT_0067	Epsilon	CT_0067.Epsilon
SAMEA6058174	2020-09-25	partner2	CT_0067	Beta	CT_0067.Beta
SAMEA6058216	2020-09-26	partner3	CT_0067	Zeta	CT_0067.Zeta
SAMEA6058218	2020-09-25	partner2	CT_0067	Zeta	CT_0067.Zeta
SAMEA6058239	2020-09-26	partner3	CT_0067	Zeta	CT_0067.Zeta
SAMEA6058249	2020-09-26	partner3	CT_0067	Eta	CT_0067.Eta
SAMEA6058256	2020-09-26	partner3	CT_0067	Zeta	CT_0067.Zeta
SAMEA6058264	2020-09-26	partner1	CT_0067	Epsilon	CT_0067.Epsilon
SAMEA6058304	2020-09-25	partner2	CT_0067	Theta	CT_0067.Theta
SAMEA6058376	2020-09-26	partner3	CT_0067	Zeta	CT_0067.Zeta
SAMEA6058474	2020-09-25	partner2	CT_0067	Iota	CT_0067.Iota
