sample	date	sender	cluster_name	cluster_name_3	cluster_code
SAMEA6058365	2020-09-26	partner3	CT_0159	Alpha	CT_0159.Alpha
SAMEA6058469	2020-09-26	partner3	CT_0159	Beta	CT_0159.Beta
SAMEA6058496	2020-09-26	partner1	CT_0159	Beta	CT_0159.Beta
