sample	EXC	INF	LNF	PLOT	NIPH	ALM	ASM
SAMEA6058036	2932	1	46	2	7	8	4
SAMEA6058276	2934	1	45	0	7	7	6
SAMEA6058328	2931	6	44	1	8	7	3
SAMEA6058485	2934	2	45	0	8	7	4
SAMEA6057440	2937	3	42	1	7	7	3
SAMEA6057464	2933	4	44	0	7	7	5
SAMEA6057463	2936	4	41	1	7	7	4
SAMEA6057647	2925	14	41	3	7	7	3
SAMEA6057540	2916	16	47	2	7	9	3
SAMEA6058552	2941	4	41	0	4	7	3
SAMEA6057774	2894	46	41	0	7	9	3
SAMEA6057879	2930	2	46	2	8	8	4
SAMEA6058077	2914	11	51	3	8	7	6
SAMEA6057515	2925	13	43	0	6	8	5
SAMEA6057504	2939	1	43	0	7	7	3
SAMEA6058118	2934	0	46	1	8	7	4
SAMEA6058334	2922	9	49	2	6	8	4
SAMEA6058298	2923	12	46	2	6	8	3
SAMEA6058413	2927	0	54	1	7	7	4
SAMEA6057534	2895	16	61	2	5	9	12
SAMEA6058611	2856	16	88	1	5	8	26
SAMEA6057436	2930	5	45	0	8	7	5
SAMEA6058629	2923	10	52	0	5	7	3
SAMEA6057459	2930	1	51	2	5	8	3
SAMEA6057550	2930	3	46	1	8	7	5
SAMEA6057522	2611	312	57	2	5	8	5
SAMEA6058116	2940	5	40	0	5	8	2
SAMEA6058170	2637	252	67	6	7	8	23
SAMEA6058217	2888	12	73	9	6	8	4
SAMEA6058347	2929	1	48	4	8	8	2
SAMEA6057812	2918	11	54	0	6	8	3
SAMEA6058029	2931	2	50	0	6	7	4
SAMEA6058250	2924	5	49	4	6	8	4
SAMEA6058277	2928	3	50	2	6	8	3
SAMEA6058110	2926	8	47	1	5	8	5
SAMEA6058432	2924	14	43	0	7	8	4
SAMEA6058464	2932	5	44	1	6	8	4
SAMEA6058097	2902	7	62	2	7	9	11
SAMEA6058205	2934	2	45	0	9	7	3
SAMEA6058293	2592	330	60	0	3	8	7
SAMEA6058369	2896	11	52	1	7	8	25
SAMEA6058444	2921	19	43	0	6	8	3
SAMEA6058475	2896	14	62	2	5	9	12
SAMEA6058476	2934	3	45	0	5	8	5
SAMEA6058543	2923	9	52	0	6	7	3
SAMEA6058542	2875	27	57	0	7	8	26
SAMEA6057554	2935	3	43	0	8	8	3
SAMEA6057583	2924	13	45	2	5	8	3
SAMEA6057433	2892	11	54	0	6	8	29
SAMEA6057505	2905	10	60	2	4	9	10
SAMEA6057506	2940	0	43	0	6	8	3
SAMEA6058594	2922	5	56	1	5	7	4
SAMEA6057443	2875	6	99	1	6	9	4
SAMEA6057509	2924	12	44	2	6	8	4
SAMEA6057555	2938	2	43	0	6	8	3
SAMEA6058612	2919	2	58	4	5	8	4
SAMEA6057652	2934	6	43	0	6	8	3
SAMEA6057729	2935	3	45	0	6	8	3
SAMEA6057732	2883	4	83	4	8	9	9
SAMEA6057539	2939	1	43	0	6	8	3
SAMEA6057547	2936	1	46	1	5	8	3
SAMEA6057565	2876	30	54	2	7	8	23
SAMEA6058076	2931	8	43	1	6	8	3
SAMEA6057795	2896	13	52	0	6	8	25
SAMEA6058010	2918	5	56	5	5	7	4
SAMEA6057889	2924	11	46	1	8	7	3
SAMEA6058204	2936	2	44	0	9	7	2
SAMEA6057476	2424	429	129	0	8	7	3
SAMEA6058285	2930	1	48	1	8	8	4
SAMEA6058329	2935	6	43	0	5	8	3
SAMEA6058071	2925	3	54	3	5	7	3
SAMEA6057465	2903	29	46	3	7	8	4
SAMEA6058291	2864	18	83	8	6	9	12
SAMEA6057502	2938	2	44	0	5	8	3
SAMEA6058394	2879	14	68	2	6	9	22
SAMEA6057566	2918	10	50	6	5	8	3
SAMEA6058362	2907	21	55	0	6	7	4
SAMEA6058481	2923	9	51	2	5	7	3
SAMEA6058419	2916	5	61	1	6	7	4
SAMEA6058335	2922	10	50	1	7	7	3
SAMEA6058360	2935	2	45	2	5	8	3
SAMEA6058392	2858	29	72	3	7	8	23
SAMEA6058399	2932	5	45	2	5	8	3
SAMEA6057434	2915	16	48	4	6	8	3
SAMEA6058490	2930	9	44	1	5	8	3
SAMEA6058540	2910	23	51	0	5	7	4
SAMEA6058330	2665	266	53	0	5	7	4
SAMEA6058443	2866	24	76	8	7	9	10
SAMEA6058427	2912	18	51	4	5	7	3
SAMEA6058630	2685	245	51	0	5	9	5
SAMEA6058592	2854	36	63	4	9	10	24
SAMEA6057437	2923	9	50	3	5	7	3
SAMEA6057453	2891	17	65	2	5	9	11
SAMEA6058616	2923	3	56	2	5	7	4
SAMEA6057485	2896	9	52	3	6	9	25
SAMEA6057536	2928	3	53	0	6	7	3
SAMEA6057598	2919	11	51	0	5	9	5
SAMEA6057575	2923	3	57	1	6	7	3
SAMEA6057499	2904	11	59	8	6	8	4
SAMEA6057514	2939	0	44	1	5	8	3
SAMEA6058461	2941	0	41	0	7	8	3
SAMEA6057525	2944	2	40	0	4	7	3
SAMEA6057557	2935	0	45	0	8	7	5
SAMEA6057587	2933	2	45	1	9	8	2
SAMEA6057589	2926	8	45	0	6	9	6
SAMEA6057562	2935	9	40	0	6	7	3
SAMEA6057524	2902	16	57	1	5	9	10
SAMEA6058590	2946	0	40	0	4	7	3
SAMEA6057478	2936	1	42	0	7	7	7
SAMEA6057546	2912	16	52	0	5	10	5
SAMEA6057574	2921	18	43	1	5	9	3
SAMEA6057628	2907	8	71	0	4	7	3
SAMEA6057530	2889	48	43	0	8	9	3
SAMEA6057760	2927	8	49	0	5	7	4
SAMEA6057518	2935	4	43	0	5	8	5
SAMEA6057538	2846	35	73	7	7	8	24
SAMEA6057553	2912	14	58	1	5	7	3
SAMEA6058123	2936	4	42	0	6	8	4
SAMEA6058007	2878	24	68	4	7	9	10
SAMEA6057956	2931	4	50	0	5	7	3
SAMEA6057975	2934	2	44	0	6	8	6
SAMEA6057697	2897	37	45	0	6	8	7
SAMEA6058258	2913	16	54	1	6	7	3
SAMEA6058302	2867	22	78	7	6	9	11
SAMEA6058352	2929	6	49	0	5	7	4
SAMEA6058361	2932	7	43	1	5	8	4
SAMEA6057477	2938	0	45	0	6	8	3
SAMEA6058129	2922	7	54	1	6	7	3
SAMEA6058075	2888	22	60	3	6	11	10
SAMEA5882642	2932	4	44	0	6	8	6
SAMEA6058147	2912	2	60	2	5	9	10
SAMEA6058316	2918	6	55	3	7	8	3
SAMEA6057494	2939	1	42	1	7	8	2
SAMEA6057556	2909	3	61	2	5	9	11
SAMEA5882644	2936	3	43	0	7	7	4
SAMEA6058167	2901	8	64	2	5	9	11
SAMEA6058265	2929	1	52	1	6	8	3
SAMEA6058324	2890	3	64	4	6	9	24
SAMEA6058348	2939	0	44	0	6	8	3
SAMEA6057449	2893	16	62	4	5	9	11
SAMEA6058346	2891	5	66	0	6	9	23
SAMEA6057424	2926	14	43	0	6	8	3
SAMEA6058437	2935	5	41	0	8	7	4
SAMEA6058161	2896	16	60	2	5	9	12
SAMEA6058149	2929	5	51	0	5	7	3
SAMEA6057740	2939	3	42	0	5	8	3
SAMEA6058263	2920	12	51	1	6	8	2
SAMEA6058266	2918	12	52	1	6	7	4
SAMEA6058201	2921	11	47	1	8	8	4
SAMEA6057559	2577	349	54	0	6	9	5
SAMEA6057602	2893	13	65	1	9	9	10
SAMEA6057726	2902	10	61	2	5	9	11
SAMEA6057764	2688	250	42	2	7	8	3
SAMEA6057837	2908	31	42	1	7	7	4
SAMEA6057448	2945	1	40	0	4	7	3
SAMEA6057984	2930	6	49	0	5	7	3
SAMEA6057999	2922	12	51	0	5	7	3
SAMEA6057957	2925	11	49	0	5	7	3
SAMEA6057965	2933	3	49	0	5	7	3
SAMEA6058011	2914	19	50	1	6	7	3
SAMEA6058021	2914	19	52	0	5	7	3
SAMEA6057595	2906	24	47	3	6	9	5
SAMEA6057886	2914	0	60	2	5	9	10
SAMEA6057941	2935	2	42	3	7	7	4
SAMEA6057567	2869	11	72	0	10	8	30
SAMEA6058189	2901	10	61	2	6	9	11
SAMEA6058517	2915	2	64	0	7	7	5
SAMEA6058619	2932	1	48	0	7	7	5
SAMEA6057592	2944	1	40	0	4	7	4
SAMEA6058257	2918	11	54	2	5	7	3
SAMEA6058551	2879	3	71	0	10	8	29
SAMEA6058072	2943	0	40	0	7	8	2
SAMEA6058471	2941	3	42	0	4	7	3
SAMEA6057981	2901	9	63	2	5	9	11
SAMEA6058020	2933	7	42	1	6	8	3
SAMEA6058080	2893	19	61	0	7	9	11
SAMEA6057769	2937	5	40	0	7	8	3
SAMEA6058314	2925	5	53	1	6	7	3
SAMEA6058240	2919	13	50	1	6	7	4
SAMEA6058060	2935	0	50	0	5	7	3
SAMEA6057818	2897	9	53	0	7	8	26
SAMEA6057919	2945	1	40	0	4	7	3
SAMEA6057949	2945	0	40	0	5	7	3
SAMEA6057689	2935	2	44	1	6	8	4
SAMEA6058451	2941	4	41	0	4	7	3
SAMEA6057563	2935	4	44	0	5	8	4
SAMEA6058135	2929	3	46	1	8	7	6
SAMEA6058457	2941	3	41	1	4	7	3
SAMEA6058238	2903	6	51	0	7	8	25
SAMEA6057890	2920	13	48	2	5	8	4
SAMEA6058054	2919	15	50	0	5	7	4
SAMEA6058138	2934	0	50	0	5	7	4
SAMEA6058596	2881	1	71	0	10	8	29
SAMEA6058332	2888	25	60	2	5	9	11
SAMEA6058355	2899	3	70	5	4	9	10
SAMEA6058215	2746	163	65	0	7	9	10
SAMEA6058224	2908	2	62	2	5	9	12
SAMEA6057722	2904	7	62	1	7	9	10
SAMEA6057650	2921	19	42	0	7	8	3
SAMEA6057711	2891	9	57	3	7	8	25
SAMEA6057784	2897	16	60	3	5	9	10
SAMEA6058509	2695	243	41	0	8	8	5
SAMEA6057651	2936	3	44	0	5	8	4
SAMEA6057426	2944	1	40	1	4	7	3
SAMEA6058315	2866	10	71	0	11	9	33
SAMEA6057588	2936	6	41	0	7	8	2
SAMEA6057446	2869	5	74	1	10	8	33
SAMEA6058613	2603	270	74	2	10	8	33
SAMEA6057903	2477	443	53	0	11	10	6
SAMEA6057558	2779	128	66	4	4	9	10
SAMEA6057586	2479	440	54	0	12	9	6
SAMEA6058625	2707	233	44	0	6	7	3
SAMEA6058269	2926	1	59	0	4	7	3
SAMEA6058416	2946	0	40	0	4	7	3
SAMEA6058557	2943	2	40	1	4	7	3
SAMEA6057943	2901	5	67	0	7	9	11
SAMEA6058574	2944	1	40	1	4	7	3
SAMEA6058086	2923	19	41	0	6	7	4
SAMEA6058356	2844	99	40	0	6	8	3
SAMEA6057751	2907	6	49	0	6	8	24
SAMEA6058467	2920	20	42	0	5	8	5
SAMEA6057908	2918	17	49	0	6	7	3
SAMEA6058085	2927	8	43	5	5	8	4
SAMEA6057961	2869	44	61	2	5	9	10
SAMEA6058127	2898	11	51	1	6	8	25
SAMEA6058622	2933	4	43	0	7	7	6
SAMEA6058136	2898	34	51	1	6	8	2
SAMEA6058267	2934	0	49	0	7	7	3
SAMEA6057582	2931	7	44	2	5	8	3
SAMEA6058371	2917	13	50	2	5	8	5
SAMEA6058406	2861	50	61	3	6	9	10
SAMEA6057714	2903	5	71	2	7	8	4
SAMEA6058067	2894	16	61	4	6	9	10
SAMEA6058160	2931	1	51	0	7	7	3
SAMEA6058158	2927	8	46	2	6	7	4
SAMEA6057672	2932	0	50	1	7	7	3
SAMEA6058162	2876	6	71	0	11	8	28
SAMEA6058604	2875	8	71	0	10	8	28
SAMEA6057544	2877	5	72	0	10	8	28
SAMEA6057734	2929	9	43	2	6	8	3
SAMEA6057597	2913	23	49	0	5	7	3
SAMEA6057815	2888	13	70	4	6	9	10
SAMEA6057572	2916	3	61	0	7	7	6
SAMEA6057430	2934	1	43	1	8	7	6
SAMEA6058078	2941	5	40	0	4	7	3
SAMEA6057858	2911	1	49	1	6	8	24
SAMEA6058495	2930	7	44	0	8	7	4
SAMEA6058009	2931	4	44	0	6	9	6
SAMEA6057948	2946	0	40	0	4	7	3
SAMEA6057914	2905	8	50	0	6	8	23
SAMEA6058159	2902	33	50	0	5	7	3
SAMEA6058197	2899	10	64	3	5	9	10
SAMEA6058120	2919	5	51	3	8	8	6
SAMEA6058532	2928	12	42	0	6	7	5
SAMEA6058059	2946	0	40	0	4	7	3
SAMEA6057789	2898	11	62	3	7	9	10
SAMEA6057901	2945	0	41	0	4	7	3
SAMEA6057468	2942	0	41	1	6	7	3
SAMEA6057666	2936	2	44	1	6	8	3
SAMEA6058084	2931	8	41	0	7	9	4
SAMEA6057490	2943	2	41	0	4	7	3
SAMEA6057947	2933	0	50	0	7	7	3
SAMEA6057974	2930	1	51	1	7	7	3
SAMEA6058043	2872	34	53	0	10	8	23
SAMEA6058064	2929	6	50	0	5	7	3
SAMEA6058171	2912	2	63	3	8	7	5
SAMEA6058109	2930	5	42	5	7	8	3
SAMEA6057765	2937	0	45	1	6	8	3
SAMEA6057820	2714	225	42	0	8	7	4
SAMEA6058053	2920	15	50	0	5	7	3
SAMEA6058033	2926	3	49	3	8	8	3
SAMEA6057964	2914	20	49	0	7	7	3
SAMEA6058137	2935	0	50	0	4	7	4
SAMEA6057884	2934	2	45	2	6	8	3
SAMEA6058351	2906	27	48	1	8	8	2
SAMEA6058414	2911	21	51	0	5	7	5
SAMEA6058409	2898	16	60	2	5	9	10
SAMEA6057925	2935	2	42	0	8	7	6
SAMEA6058492	2876	1	102	0	7	7	7
SAMEA6058439	2934	4	42	0	7	7	6
SAMEA6058536	2934	1	44	0	7	7	7
SAMEA6057678	2908	3	51	0	6	8	24
SAMEA6058194	2926	9	50	0	5	7	3
SAMEA6057644	2938	2	42	1	7	7	3
SAMEA6057742	2932	2	51	0	5	7	3
SAMEA6057488	2926	7	50	1	5	7	4
SAMEA6057814	2892	22	60	2	5	9	10
SAMEA6057885	2930	4	50	1	5	7	3
SAMEA6057821	2935	7	41	0	5	8	4
SAMEA6057946	2922	7	47	2	8	9	5
SAMEA6057864	2900	10	61	3	5	10	11
SAMEA6057900	2930	5	48	0	7	8	2
SAMEA6058019	2747	186	46	3	8	7	3
SAMEA6057915	2932	4	49	0	5	7	3
SAMEA6057973	2932	2	44	0	8	7	7
SAMEA6057993	2926	9	50	0	5	7	3
SAMEA6058230	2939	0	42	0	8	7	4
SAMEA6057758	2929	9	42	0	8	8	4
SAMEA6057788	2867	41	64	1	8	9	10
SAMEA6057641	2936	2	42	0	8	7	5
SAMEA6057902	2888	25	57	4	11	10	5
SAMEA6058121	2935	2	43	3	7	8	2
SAMEA6058193	2931	4	43	2	8	7	5
SAMEA6058428	2936	0	43	0	8	7	6
SAMEA6057700	2926	4	45	1	7	10	7
SAMEA6057507	2858	19	71	0	11	8	33
SAMEA6058151	2946	0	40	0	4	7	3
SAMEA6057754	2934	4	42	0	7	7	6
SAMEA6058422	2869	11	71	1	10	8	30
SAMEA6058597	2945	1	40	0	4	7	3
SAMEA6058227	2932	10	40	0	7	8	3
SAMEA6057909	2881	1	71	0	10	8	29
SAMEA6058306	2934	6	41	0	7	9	3
SAMEA6058333	2942	1	40	0	7	8	2
SAMEA6057633	2876	7	71	0	10	8	28
SAMEA6057839	2933	6	41	0	7	10	3
SAMEA6057899	2936	1	42	0	7	8	6
SAMEA6057847	2937	1	41	0	7	8	6
SAMEA6057802	2903	31	45	0	7	8	6
SAMEA6057972	2926	14	41	0	7	9	3
SAMEA6058034	2938	3	43	0	6	7	3
SAMEA6058004	2889	24	59	2	5	10	11
SAMEA6057971	2913	24	42	0	7	8	6
SAMEA6058044	2925	13	43	1	7	8	3
SAMEA6058047	2945	0	41	0	4	7	3
SAMEA6057955	2942	1	40	0	7	8	2
SAMEA6057983	2896	10	50	0	7	8	29
SAMEA6058173	2943	1	41	1	4	7	3
SAMEA6058105	2928	10	42	0	8	8	4
SAMEA6057653	2925	4	54	0	7	6	4
SAMEA6058182	2936	6	42	0	6	8	2
SAMEA6058115	2902	35	44	0	8	8	3
SAMEA6058208	2938	2	44	0	6	7	3
SAMEA6058207	2930	11	40	0	8	8	3
SAMEA6058255	2911	30	42	0	7	8	2
SAMEA6058292	2938	3	41	0	7	8	3
SAMEA6058313	2937	2	43	1	7	8	2
SAMEA6058391	2761	173	47	2	7	7	3
SAMEA6058262	2912	0	50	0	6	9	23
SAMEA6058128	2933	3	43	0	8	7	6
SAMEA6058518	2935	3	42	0	7	7	6
SAMEA6057859	2752	131	71	0	9	10	27
SAMEA6058559	2874	6	72	1	10	8	29
SAMEA6057445	2881	1	72	0	10	8	28
SAMEA6057745	2931	4	44	0	6	9	6
SAMEA6057753	2934	1	44	0	6	9	6
SAMEA6057752	2934	1	43	0	6	9	7
SAMEA6057811	2941	0	41	0	7	8	3
SAMEA6057676	2937	4	41	1	7	8	2
SAMEA6057679	2940	0	42	0	8	8	2
SAMEA6057688	2933	4	45	1	7	8	2
SAMEA6057675	2936	4	41	1	8	8	2
SAMEA6057683	2931	7	43	2	7	8	2
SAMEA6057687	2930	5	47	1	7	8	2
SAMEA6057705	2918	22	44	1	5	8	2
SAMEA6057709	2930	4	45	3	8	8	2
SAMEA6057713	2926	5	46	1	6	9	7
SAMEA6057682	2928	11	44	0	7	8	2
SAMEA6057696	2931	3	46	1	8	8	3
SAMEA6057699	2923	2	52	2	6	9	6
SAMEA6057704	2911	27	44	1	6	8	3
SAMEA6057708	2926	13	42	0	9	8	2
SAMEA6057712	2932	6	42	2	8	8	2
SAMEA6057724	2773	169	42	0	6	7	3
SAMEA6057741	2731	212	41	0	5	7	4
SAMEA6058402	2689	243	50	0	7	7	4
SAMEA6057761	2881	1	71	0	10	8	29
SAMEA6057805	2894	17	60	3	5	10	11
SAMEA6057759	2931	2	45	1	6	9	6
SAMEA6058345	2898	15	60	2	6	9	10
SAMEA6057838	2879	34	49	0	6	8	24
SAMEA6058055	2878	5	71	0	10	8	28
SAMEA6058037	2945	0	41	0	4	7	3
SAMEA6057883	2927	5	45	2	8	7	6
SAMEA6058575	2909	2	72	0	6	7	4
SAMEA6058146	2897	15	61	2	5	9	11
SAMEA6058600	2941	2	41	0	5	7	4
SAMEA6058593	2938	3	43	0	5	7	4
SAMEA6057498	2940	1	42	1	5	7	4
SAMEA6058035	2944	0	40	0	5	7	4
SAMEA6058046	2934	1	45	3	7	8	2
SAMEA6058576	2893	16	62	4	5	9	11
SAMEA6057458	2902	42	40	0	6	7	3
SAMEA6058237	2893	19	50	0	6	9	23
SAMEA6058624	2939	0	42	0	8	7	4
SAMEA6057756	2935	2	43	0	8	7	5
SAMEA6058566	2892	3	85	0	7	7	6
SAMEA6058065	2938	2	42	0	7	7	4
SAMEA6058321	2933	5	41	0	8	7	6
SAMEA6058435	2920	16	42	0	7	7	8
SAMEA6057535	2925	6	46	0	7	9	7
SAMEA6057634	2932	0	46	0	7	9	6
SAMEA6057876	2888	17	66	1	9	9	10
SAMEA6057778	2939	5	40	0	6	7	3
SAMEA6057907	2938	4	40	1	7	7	3
SAMEA6057807	2936	2	43	0	6	8	5
SAMEA6057819	2941	0	42	1	5	7	4
SAMEA6058087	2930	0	51	0	9	8	2
SAMEA6058139	2592	338	50	0	7	10	3
SAMEA6057569	2913	27	41	0	7	7	5
SAMEA6057599	2934	4	42	0	7	7	6
SAMEA6057933	2820	123	39	0	6	8	4
SAMEA6057527	2903	15	56	1	8	8	9
SAMEA6057590	2937	1	42	0	8	7	5
SAMEA6058453	2935	5	42	0	7	7	4
SAMEA6058550	2939	1	42	0	7	7	4
SAMEA6057532	2939	1	42	0	7	7	4
SAMEA6058045	2934	2	41	0	8	7	8
SAMEA6057680	2939	4	41	0	6	7	3
SAMEA6058239	2933	2	42	0	8	7	8
SAMEA6058192	2922	5	51	4	8	7	3
SAMEA6058216	2935	1	41	0	8	7	8
SAMEA6058249	2931	4	41	0	8	7	9
SAMEA6058256	2931	1	44	1	8	7	8
SAMEA6058264	2937	0	41	0	8	7	7
SAMEA6058307	2939	0	41	0	7	7	6
SAMEA6058191	2936	8	40	0	6	8	2
SAMEA6058412	2924	4	49	0	7	8	8
SAMEA6058254	2904	6	50	1	6	8	25
SAMEA6057497	2923	16	41	0	7	7	6
SAMEA6058340	2938	0	43	0	7	7	5
SAMEA6058359	2938	1	42	0	7	7	5
SAMEA6058370	2935	4	42	0	7	7	5
SAMEA6058377	2938	1	42	0	7	7	5
SAMEA6058480	2939	0	42	0	7	7	5
SAMEA6057543	2936	0	43	1	7	6	7
SAMEA6058357	2932	6	42	0	8	7	5
SAMEA6057591	2938	3	41	0	7	7	4
SAMEA6058511	2932	9	41	0	7	7	4
SAMEA6058098	2938	3	42	0	7	7	3
SAMEA6057924	2911	0	61	2	9	8	9
SAMEA6058131	2744	197	41	0	7	9	2
SAMEA6057466	2934	3	42	1	7	7	6
SAMEA6057481	2940	0	41	0	7	7	5
SAMEA6058386	2930	4	46	2	8	7	3
SAMEA6058390	2939	1	41	0	8	7	4
SAMEA6057871	2463	377	136	0	5	11	8
SAMEA6058145	2901	6	63	3	5	10	12
SAMEA6058164	2917	5	41	0	27	8	2
SAMEA6058242	2934	5	42	0	7	7	5
SAMEA6058282	1955	965	42	1	27	8	2
SAMEA6058226	2944	0	40	0	6	8	2
SAMEA6058236	2940	4	40	0	6	8	2
SAMEA6057618	2931	1	48	0	7	7	6
SAMEA6057623	2908	5	63	5	6	7	6
SAMEA6057627	2918	4	56	2	7	7	6
SAMEA6057626	2911	3	61	4	8	7	6
SAMEA6057640	2915	7	55	4	8	7	4
SAMEA6057695	2892	40	47	1	8	7	5
SAMEA6057639	2924	0	53	2	8	7	6
SAMEA6057643	2929	2	49	0	7	7	6
SAMEA6057656	2934	2	44	1	7	7	5
SAMEA6057658	2928	9	41	1	7	7	7
SAMEA6057661	2918	23	41	0	8	7	3
SAMEA6057671	2920	13	41	3	8	7	8
SAMEA6057655	2920	18	43	1	7	7	4
SAMEA6057665	2940	1	41	0	8	7	3
SAMEA6057670	2937	1	42	0	7	7	6
SAMEA6057674	2942	0	40	1	7	7	3
SAMEA6057686	2943	0	40	0	7	7	3
SAMEA6057739	2936	2	42	0	7	7	6
SAMEA6057744	2938	0	42	0	7	7	6
SAMEA6057677	2936	2	42	0	7	7	6
SAMEA6057496	2908	31	42	0	8	7	4
SAMEA6057681	2904	17	52	3	7	8	9
SAMEA6057685	2925	0	51	0	7	8	9
SAMEA6057852	2901	36	44	0	8	9	2
SAMEA6057657	2941	0	42	0	6	8	3
SAMEA6057723	2906	11	59	5	7	8	4
SAMEA6057707	2921	8	49	1	8	7	6
SAMEA6057733	2943	0	40	0	7	7	3
SAMEA6057827	2702	236	42	1	6	7	6
SAMEA6057835	2920	1	58	4	6	8	3
SAMEA6057846	2930	4	46	1	7	7	5
SAMEA6057703	2943	0	40	0	7	7	3
SAMEA6057715	2927	7	47	0	6	9	4
SAMEA6057738	2928	14	42	0	6	7	3
SAMEA6057728	2939	0	42	0	7	7	5
SAMEA6057757	2908	21	51	1	8	7	4
SAMEA6057763	2929	9	41	1	8	7	5
SAMEA6057719	2937	4	41	0	7	8	3
SAMEA6057768	2926	5	46	2	7	7	7
SAMEA6057793	2891	5	77	7	6	7	7
SAMEA6057800	2931	12	40	0	7	7	3
SAMEA6057794	2883	9	76	10	6	9	7
SAMEA6057801	2921	3	50	5	6	9	6
SAMEA6057810	2927	1	48	3	6	9	6
SAMEA6057817	2926	1	52	0	6	9	6
SAMEA6057857	2928	2	51	1	7	7	4
SAMEA6057867	2644	296	43	0	6	7	4
SAMEA6057878	2942	0	41	0	7	7	3
SAMEA6057906	2918	1	58	2	8	7	6
SAMEA6057874	2917	3	42	1	27	8	2
SAMEA6057702	2877	33	61	3	5	9	12
SAMEA6057777	2939	0	41	0	8	7	5
SAMEA6057809	2863	28	73	5	12	8	11
SAMEA6057660	2929	12	41	0	7	7	4
SAMEA6057570	2921	5	50	0	8	8	8
SAMEA6057894	2939	3	41	0	6	8	3
SAMEA6057750	2929	3	47	2	8	9	2
SAMEA6057792	2915	12	52	0	6	9	6
SAMEA6057830	2940	0	43	0	6	8	3
SAMEA6057808	2911	7	59	4	7	7	5
SAMEA6057836	2939	0	41	0	8	7	5
SAMEA6057845	2941	3	40	0	6	8	2
SAMEA6057877	2931	6	43	1	8	8	3
SAMEA6057898	2939	0	40	0	8	9	4
SAMEA6058008	2915	6	54	5	7	7	6
SAMEA6057912	2933	3	43	0	6	9	6
SAMEA6057923	2934	2	43	0	6	9	6
SAMEA6057932	2920	7	51	0	6	9	7
SAMEA6057897	2920	11	45	1	7	9	7
SAMEA6057913	2939	2	42	0	6	8	3
SAMEA6057922	2939	1	42	1	6	8	3
SAMEA6057931	2938	1	41	0	8	9	3
SAMEA6057939	2908	31	41	0	8	9	3
SAMEA6058018	2931	4	45	3	6	7	4
SAMEA6058042	2931	8	43	1	7	7	3
SAMEA6058041	2906	25	51	2	6	7	3
SAMEA6058083	2941	0	42	0	7	7	3
SAMEA6058070	2918	3	58	4	7	7	3
SAMEA6057866	2936	0	44	2	8	7	3
SAMEA6057882	2900	18	55	7	9	7	4
SAMEA6057940	2920	3	55	2	7	7	6
SAMEA6057580	2923	3	51	2	8	7	6
SAMEA6058126	2936	1	42	0	7	9	5
SAMEA6058096	2930	11	42	0	7	8	2
SAMEA6057992	2929	6	44	0	6	9	6
SAMEA6057632	2934	5	41	0	8	7	5
SAMEA6057823	2925	14	42	0	7	7	5
SAMEA6057791	2940	1	41	0	8	7	3
SAMEA6058235	2736	204	42	0	5	8	5
SAMEA6057982	2931	2	44	2	6	9	6
SAMEA6058082	2924	10	44	2	7	9	4
SAMEA6058095	2941	0	42	0	6	8	3
SAMEA6058104	2916	1	62	5	5	7	4
SAMEA6058119	2936	1	47	0	6	8	2
SAMEA6058103	2924	2	50	3	6	9	6
SAMEA6058169	2874	50	55	3	6	7	5
SAMEA6058200	2906	12	58	4	7	7	6
SAMEA6057826	2924	1	54	0	8	7	6
SAMEA6058214	2925	12	45	1	6	8	3
SAMEA6058253	2925	3	53	1	6	7	5
SAMEA6057664	2918	6	55	4	6	7	4
SAMEA6057698	2939	2	40	0	8	8	3
SAMEA6057748	2937	2	42	0	7	8	4
SAMEA6057727	2907	15	52	4	8	7	7
SAMEA6057731	2938	0	42	0	7	7	6
SAMEA6057749	2933	4	45	0	7	7	4
SAMEA6057785	2925	13	42	0	7	7	6
SAMEA6057799	2936	1	42	1	7	7	6
SAMEA6058514	2869	5	74	0	10	8	34
SAMEA6057834	2929	11	42	1	6	7	4
SAMEA6058344	2938	1	43	0	7	7	4
SAMEA6057737	2937	1	44	0	7	7	4
SAMEA6057798	2919	8	52	3	7	8	3
SAMEA6057833	2933	4	43	1	7	7	5
SAMEA6057844	2939	2	40	3	6	7	3
SAMEA6057856	2940	2	42	0	6	7	3
SAMEA6057865	2944	0	40	0	6	7	3
SAMEA6057905	2937	1	42	0	7	7	6
SAMEA6057911	2930	3	47	0	7	7	6
SAMEA6057938	2929	9	42	0	6	9	5
SAMEA6057962	2912	27	42	0	7	7	5
SAMEA6057998	2918	17	44	0	6	9	6
SAMEA6058006	2937	1	43	2	7	7	3
SAMEA6057963	2935	1	45	2	7	7	3
SAMEA6058017	2920	18	44	0	6	9	3
SAMEA6058032	2938	3	41	1	7	8	2
SAMEA6058040	2928	6	47	1	6	9	3
SAMEA6058057	2916	5	51	4	6	9	9
SAMEA6057806	2937	1	44	1	7	8	2
SAMEA6057816	2937	4	41	1	7	8	2
SAMEA6057825	2937	1	44	0	8	8	2
SAMEA6057832	2940	0	40	0	7	8	5
SAMEA6057855	2940	1	41	0	8	8	2
SAMEA6057673	2935	2	45	2	6	8	2
SAMEA6057896	2931	2	45	2	7	7	6
SAMEA6057625	2941	2	40	0	7	7	3
SAMEA6057921	2927	5	47	0	6	9	6
SAMEA6058052	2836	96	44	3	6	8	7
SAMEA6058056	2931	3	44	1	6	9	6
SAMEA6057573	2935	5	42	0	6	9	3
SAMEA6057895	2933	5	42	0	6	9	5
SAMEA6057970	2944	1	40	0	5	7	3
SAMEA6058051	2938	0	41	1	8	8	4
SAMEA6058016	2937	0	45	1	6	8	3
SAMEA6058062	2931	3	44	1	6	9	6
SAMEA6058074	2933	1	44	2	7	7	6
SAMEA6058094	2679	261	43	1	6	7	3
SAMEA6058108	2927	15	41	0	7	8	2
SAMEA6057891	2713	228	43	0	7	7	2
SAMEA6058005	2907	34	40	0	7	8	4
SAMEA6057571	2581	346	51	1	3	13	5
SAMEA6057991	2938	0	43	0	7	7	5
SAMEA6058031	2933	5	42	0	8	9	3
SAMEA6058424	2928	3	45	2	8	7	7
SAMEA6058418	2930	3	44	1	8	7	7
SAMEA6058102	2930	5	44	2	6	9	4
SAMEA6058081	2940	1	43	0	5	8	3
SAMEA6057985	2917	0	57	2	8	8	8
SAMEA6058157	2923	2	56	3	6	7	3
SAMEA6058190	2932	7	43	0	5	8	5
SAMEA6058148	2917	18	44	2	7	8	4
SAMEA6058181	2935	4	43	0	6	7	5
SAMEA6058460	2634	308	39	0	8	8	3
SAMEA6058206	2938	1	44	1	5	8	3
SAMEA6058199	2936	7	41	0	5	7	4
SAMEA6058030	2922	16	42	0	7	9	4
SAMEA6058069	2930	1	45	3	7	7	7
SAMEA6057552	2941	1	40	0	7	7	4
SAMEA6058063	2922	11	46	2	7	7	5
SAMEA6058093	2944	0	40	0	6	7	3
SAMEA6058101	2938	1	43	0	6	8	4
SAMEA6058113	2940	0	42	1	8	7	2
SAMEA6058124	2933	7	42	1	5	7	5
SAMEA6058144	2939	1	44	0	6	7	3
SAMEA6058156	2930	5	44	0	6	9	6
SAMEA6058112	2935	5	41	2	7	7	3
SAMEA6058117	2938	0	44	1	8	7	2
SAMEA6058133	2941	0	42	0	8	7	2
SAMEA6058143	2932	9	42	0	8	7	2
SAMEA6058155	2763	179	40	1	6	8	3
SAMEA6058180	2938	0	42	0	7	7	6
SAMEA6058212	2937	2	42	0	6	8	5
SAMEA6058225	2937	3	41	0	6	8	5
SAMEA6058166	2897	11	64	4	5	9	10
SAMEA6058213	2926	5	49	2	7	8	3
SAMEA6058125	2905	33	41	0	8	7	6
SAMEA6058114	2935	4	42	0	7	7	5
SAMEA6057790	2936	4	42	0	6	9	3
SAMEA6058165	2941	0	40	0	8	7	4
SAMEA6058179	2731	211	39	0	7	8	4
SAMEA6058248	2940	0	41	0	7	8	4
SAMEA6058261	2937	1	42	0	7	7	6
SAMEA6058275	2941	0	41	0	8	7	3
SAMEA6058290	2945	0	40	0	5	8	2
SAMEA6058297	2938	5	40	0	7	7	3
SAMEA6058301	2938	0	42	0	7	7	6
SAMEA6058312	2940	4	41	0	5	7	3
SAMEA6057743	2941	3	41	0	5	7	3
SAMEA6058134	2941	0	41	0	7	7	4
SAMEA6058132	1862	1042	48	0	30	9	9
SAMEA6058154	2698	242	42	1	7	6	4
SAMEA6058211	2939	1	42	0	7	8	3
SAMEA6058188	2934	3	42	0	8	7	6
SAMEA6058198	2935	9	40	0	5	8	3
SAMEA6058210	2902	40	41	0	7	7	3
SAMEA6058223	2690	224	57	0	4	8	17
SAMEA6058398	2935	3	42	1	7	7	5
SAMEA6058395	2921	3	52	4	7	7	6
SAMEA6058284	2931	5	44	0	6	9	5
SAMEA6058296	2926	10	43	0	6	9	6
SAMEA6058300	2942	0	41	0	7	7	3
SAMEA6058305	2923	15	45	0	7	7	3
SAMEA6058309	2938	1	42	0	7	7	5
SAMEA6058311	2941	0	42	0	7	7	3
SAMEA6058323	2941	1	41	0	7	7	3
SAMEA6058338	2939	0	42	0	7	7	5
SAMEA6058339	2939	2	41	0	6	8	4
SAMEA6058322	2937	0	42	1	7	7	6
SAMEA6058327	2921	15	42	0	8	9	5
SAMEA6057452	2924	18	41	0	5	7	5
SAMEA6057842	2914	14	49	6	5	8	4
SAMEA6057854	2918	5	51	9	5	7	5
SAMEA6057693	2916	24	41	0	7	7	5
SAMEA6057904	2905	19	57	3	6	8	2
SAMEA6057863	2937	3	42	0	7	7	4
SAMEA6057920	2938	0	42	0	7	7	6
SAMEA6057929	2931	10	41	0	7	7	4
SAMEA6057773	2938	0	42	0	8	7	5
SAMEA6057824	2939	0	42	0	7	7	5
SAMEA6057862	2938	1	42	0	7	7	5
SAMEA6058433	2929	5	44	2	8	7	5
SAMEA6058530	2928	2	50	1	7	7	5
SAMEA6057831	2723	220	41	0	6	7	3
SAMEA6057843	2943	0	41	0	6	7	3
SAMEA6057881	2912	20	48	1	7	9	3
SAMEA6057945	2929	4	45	3	7	7	5
SAMEA6057990	2941	0	42	0	8	7	2
SAMEA6057996	2941	0	42	0	8	7	2
SAMEA6058015	2942	1	42	0	6	7	2
SAMEA6058028	2940	1	41	0	8	8	2
SAMEA6058050	2944	0	40	0	6	7	3
SAMEA6057989	2932	3	43	0	6	9	7
SAMEA6058002	2941	0	42	0	8	7	2
SAMEA6058027	2944	0	40	0	6	7	3
SAMEA6058039	2939	3	40	0	7	8	3
SAMEA6057813	2936	1	42	0	8	7	6
SAMEA6057853	2927	6	44	1	6	9	7
SAMEA6057888	2935	5	42	0	7	7	4
SAMEA6057841	2939	1	42	1	7	8	2
SAMEA6057861	2930	11	42	0	6	8	3
SAMEA6057875	2910	10	55	3	9	7	6
SAMEA6057930	2899	9	65	8	7	7	5
SAMEA6057937	2931	0	49	1	7	7	5
SAMEA6057944	2936	1	44	0	7	7	5
SAMEA6057439	2935	0	43	0	6	9	7
SAMEA6057638	2913	20	46	0	5	9	7
SAMEA6057988	2885	25	62	7	8	7	6
SAMEA6057804	2943	0	40	0	6	8	3
SAMEA6058092	2927	10	42	0	8	7	6
SAMEA6057880	2934	6	42	0	7	8	3
SAMEA6057873	2936	0	44	0	5	9	6
SAMEA6057936	2933	3	44	0	7	7	6
SAMEA6057928	2934	0	43	2	8	7	6
SAMEA6057935	2936	0	43	2	7	7	5
SAMEA6057954	2937	0	43	1	7	7	5
SAMEA6057979	2941	0	39	0	8	8	4
SAMEA6057953	2937	2	42	0	8	7	4
SAMEA6057977	2825	116	40	0	8	8	3
SAMEA6057960	2941	0	40	0	8	7	4
SAMEA6057969	2933	4	42	2	7	7	5
SAMEA6058026	2906	31	42	0	7	7	7
SAMEA6057980	2930	10	42	0	7	7	4
SAMEA6058049	2940	0	42	0	7	7	4
SAMEA6057694	2939	1	41	0	7	7	5
SAMEA6058068	2929	7	43	2	7	7	5
SAMEA6058606	2939	0	41	0	8	7	5
SAMEA6058599	2939	0	41	0	8	7	5
SAMEA6058091	2943	0	41	0	7	7	2
SAMEA6058090	2940	0	42	0	7	8	3
SAMEA6058178	2937	3	43	0	6	8	3
SAMEA6057997	2933	6	41	0	8	7	5
SAMEA6058003	2933	6	41	0	8	7	5
SAMEA6058014	2929	6	46	0	7	7	5
SAMEA6058420	2939	0	42	0	7	7	5
SAMEA6057968	2940	0	42	0	6	8	4
SAMEA6058623	2941	2	40	0	7	8	2
SAMEA6058048	2930	2	47	1	7	7	6
SAMEA6058587	2930	10	41	0	7	9	3
SAMEA6057887	2941	0	42	0	7	7	3
SAMEA6058142	2942	0	41	0	7	7	3
SAMEA6058423	2941	0	41	0	8	8	2
SAMEA6058500	2942	0	41	0	7	7	3
SAMEA6058445	2941	0	42	0	7	7	3
SAMEA6058541	2941	0	41	0	8	8	2
SAMEA6057428	2940	1	41	0	8	8	2
SAMEA6057523	2927	11	42	0	5	8	7
SAMEA6057620	2940	1	41	0	8	8	2
SAMEA6057747	2940	1	41	0	8	8	2
SAMEA6058001	2942	1	40	0	7	8	2
SAMEA6058281	2938	2	43	0	6	8	3
SAMEA6058421	2941	0	40	0	8	8	3
SAMEA6058520	2935	6	40	0	8	8	3
SAMEA6058468	2919	18	42	0	6	9	6
SAMEA6058567	2940	1	41	0	8	8	2
SAMEA6057451	2941	0	41	0	8	8	2
SAMEA6057542	2944	0	40	0	6	7	3
SAMEA6057649	2939	4	40	0	7	8	2
SAMEA6057797	2944	0	40	0	6	7	3
SAMEA6058066	2938	2	42	0	8	7	3
SAMEA6058442	2938	1	42	0	7	7	5
SAMEA6058494	2939	0	42	0	7	7	5
SAMEA6058591	2939	0	42	0	7	7	5
SAMEA6057516	2909	27	44	0	8	8	4
SAMEA6058577	2930	12	40	1	7	8	2
SAMEA6057462	2925	14	41	0	7	7	6
SAMEA6058459	2935	5	42	0	6	8	4
SAMEA6058247	2922	18	42	0	7	7	4
SAMEA6058260	2940	0	42	1	7	7	3
SAMEA6058274	2933	2	47	1	7	7	3
SAMEA6058283	2940	1	42	0	7	7	3
SAMEA6058299	2934	0	43	0	9	7	7
SAMEA6057484	2926	1	50	0	7	8	8
SAMEA6057684	2925	2	50	0	7	8	8
SAMEA6058376	2936	0	41	0	8	7	8
SAMEA6058426	2936	0	44	0	8	8	4
SAMEA6057952	2938	0	42	0	7	7	6
SAMEA6058222	2910	15	50	0	7	8	10
SAMEA6058498	2939	0	42	0	7	7	5
SAMEA6057594	2935	3	42	0	8	7	5
SAMEA6057926	2934	2	43	0	6	9	6
SAMEA6057442	2940	0	42	0	7	7	4
SAMEA6057783	2935	2	42	0	8	7	6
SAMEA6058582	2930	2	44	1	9	7	7
SAMEA6058578	2934	0	42	1	9	7	7
SAMEA6057487	2938	0	42	0	7	7	6
SAMEA6057692	2938	0	42	0	7	9	4
SAMEA6058607	2932	6	42	0	7	7	6
SAMEA6058479	2930	5	43	0	10	9	3
SAMEA6058526	2937	1	42	0	7	7	6
SAMEA6057529	2943	0	39	0	5	9	4
SAMEA6058448	2941	0	42	0	7	7	3
SAMEA6058545	2937	3	41	0	7	7	5
SAMEA6057564	2925	11	43	0	6	9	6
SAMEA6058287	2931	8	42	0	7	7	5
SAMEA6058417	2914	24	43	0	6	9	4
SAMEA6058620	2925	17	41	0	7	7	3
SAMEA6058538	2939	0	41	0	8	7	5
SAMEA6058586	2934	6	41	0	8	7	4
SAMEA6058558	2942	0	41	0	7	7	3
SAMEA6057441	2936	5	42	0	7	7	3
SAMEA6058609	2942	0	41	0	7	7	3
SAMEA6058176	2929	15	40	0	6	8	2
SAMEA6058385	2923	17	41	1	8	8	2
SAMEA6058484	2924	2	50	0	7	8	9
SAMEA6057470	2940	0	42	0	7	7	4
SAMEA6058408	2940	1	41	0	8	8	2
SAMEA6058506	2938	2	43	0	6	8	3
SAMEA6058610	2941	0	41	0	8	8	2
SAMEA6057493	2940	1	41	0	8	8	2
SAMEA6057579	2935	8	41	0	5	7	4
SAMEA6057910	2941	0	41	0	8	8	2
SAMEA6058177	2941	0	41	0	8	8	2
SAMEA6058384	2743	197	41	0	7	7	5
SAMEA6058483	2941	0	42	0	8	7	2
SAMEA6058529	2908	19	52	0	10	8	3
SAMEA6058628	2930	1	52	0	6	7	4
SAMEA6057513	2944	0	40	0	6	7	3
SAMEA6057725	2940	4	40	0	6	7	3
SAMEA6057967	2903	37	42	0	6	8	4
SAMEA6058246	2941	0	42	0	8	7	2
SAMEA6058505	2940	4	41	0	6	7	2
SAMEA6057435	2931	5	43	0	6	9	6
SAMEA6057533	2941	2	41	0	5	7	4
SAMEA6057631	2943	0	41	0	6	7	3
SAMEA6058389	2917	18	49	0	6	7	3
SAMEA6058436	2923	23	40	0	4	7	3
SAMEA6057456	2930	12	42	0	5	7	4
SAMEA6058326	2932	9	43	0	5	8	3
SAMEA6057561	2932	4	41	0	8	7	8
SAMEA6058621	2934	3	42	0	8	7	6
SAMEA6057927	2930	9	43	0	7	7	4
SAMEA6057512	2925	17	41	0	7	8	2
SAMEA6058234	2944	1	40	0	5	7	3
SAMEA6057942	2945	0	40	0	5	7	3
SAMEA6058570	2932	4	42	0	8	7	7
SAMEA6057976	2932	8	41	0	8	8	3
SAMEA6057501	2928	16	40	0	6	8	2
SAMEA6057787	2939	2	41	0	7	7	4
SAMEA6057420	2935	0	42	0	9	7	7
SAMEA6057473	2930	14	41	0	5	7	3
SAMEA6057492	2892	43	44	0	10	8	3
SAMEA6058245	2936	7	42	0	6	7	2
SAMEA6058405	2941	0	42	0	8	7	2
SAMEA6058504	2766	177	41	0	4	8	4
SAMEA6058458	2938	2	42	0	6	7	5
SAMEA6057966	2943	1	40	0	6	7	3
SAMEA6057978	2913	23	49	0	5	7	3
SAMEA6057987	2931	0	52	0	6	7	4
SAMEA6058549	2912	11	51	0	7	8	11
SAMEA6057601	2927	14	41	0	7	7	4
SAMEA6058499	2926	1	50	0	7	8	8
SAMEA6058186	2939	2	41	1	7	7	3
SAMEA6058196	2932	7	42	0	7	7	5
SAMEA6058411	2711	232	40	0	5	8	4
SAMEA6058375	2935	1	43	0	8	7	6
SAMEA6058523	2865	64	48	0	9	7	7
SAMEA6058221	2937	1	42	0	7	7	6
SAMEA6058546	2939	0	42	0	7	7	5
SAMEA6057528	2924	3	49	0	7	8	9
SAMEA6058289	2918	22	41	0	8	7	4
SAMEA6057455	2920	7	49	0	7	8	9
SAMEA6057545	2926	14	41	0	8	7	4
SAMEA6057803	2937	3	42	0	7	7	4
SAMEA6058073	2929	9	44	0	7	7	4
SAMEA6057427	2937	3	42	0	7	7	4
SAMEA6057560	2938	3	41	0	7	7	4
SAMEA6057872	2920	20	41	0	8	7	4
SAMEA6058089	2933	5	41	0	6	9	6
SAMEA6058111	2934	4	43	0	7	9	3
SAMEA6057782	2941	0	41	0	7	7	4
SAMEA6058581	2923	3	49	0	7	8	10
SAMEA6057469	2917	11	49	0	7	8	8
SAMEA6058122	2935	1	43	0	6	9	6
SAMEA6057840	2941	0	41	0	7	7	4
SAMEA6058462	2704	233	44	0	7	8	4
SAMEA6058553	2743	179	48	0	12	9	9
SAMEA6058232	2938	4	39	0	6	8	5
SAMEA6058271	2940	1	40	0	6	8	5
SAMEA6058278	2941	0	40	0	6	8	5
SAMEA6058295	2940	0	40	0	6	8	6
SAMEA6058270	2933	8	40	0	6	8	5
SAMEA6058153	2921	16	43	0	8	7	5
SAMEA6058185	2937	4	40	0	6	8	5
SAMEA6058231	2936	6	39	0	6	8	5
SAMEA6058251	2732	207	41	0	6	8	6
SAMEA6058038	2939	0	42	0	7	7	5
SAMEA6058337	2930	9	42	0	7	7	5
SAMEA6058452	2933	2	43	0	6	9	7
SAMEA6057480	2913	22	45	0	9	7	4
SAMEA6058244	2935	6	40	0	8	8	3
SAMEA6058288	2641	297	39	0	8	8	7
SAMEA6058280	2942	0	40	0	6	8	4
SAMEA6058320	2915	10	51	0	7	8	9
SAMEA6058474	2936	1	41	0	7	7	8
SAMEA6058374	2938	5	41	0	5	7	4
SAMEA6058187	2941	0	41	0	8	8	2
SAMEA6058203	2943	1	40	0	6	7	3
SAMEA6057483	2942	0	42	0	5	7	4
SAMEA6058220	2941	0	41	0	8	8	2
SAMEA6058233	2939	2	41	0	7	8	3
SAMEA6058243	2650	279	49	5	6	7	4
SAMEA6058252	2941	0	41	0	8	8	2
SAMEA6058272	2944	0	40	0	6	7	3
SAMEA6058273	2926	10	43	0	6	9	6
SAMEA6058279	2928	14	41	0	5	8	4
SAMEA6058304	2934	2	41	0	8	7	8
SAMEA6058308	2938	2	41	0	7	7	5
SAMEA6058319	2939	0	42	0	7	7	5
SAMEA6058325	2936	4	41	0	7	7	5
SAMEA6058368	2927	0	50	0	7	8	8
SAMEA6058397	2936	0	43	0	8	7	6
SAMEA6058303	2936	3	43	0	7	7	4
SAMEA6058023	2937	1	42	0	7	7	6
SAMEA6058318	2923	19	42	0	6	7	3
SAMEA6058354	2928	9	41	0	8	7	7
SAMEA6058130	2936	3	42	0	7	7	5
SAMEA6057500	2929	15	40	0	5	8	3
SAMEA6057617	2917	8	49	0	7	10	9
SAMEA6058061	2922	20	41	0	5	8	4
SAMEA6058317	2906	34	42	0	7	8	3
SAMEA6058342	2935	1	46	0	5	8	5
SAMEA6058343	2939	4	40	0	5	8	4
SAMEA6058350	2942	1	40	0	5	8	4
SAMEA6057630	2936	1	41	0	8	7	7
SAMEA6058358	2941	2	40	0	7	8	2
SAMEA6058366	2937	4	41	0	8	8	2
SAMEA6058373	2942	1	41	0	6	7	3
SAMEA6058380	2938	3	42	0	8	7	2
SAMEA6058353	2932	11	41	0	6	7	3
SAMEA6057549	2928	7	43	0	6	9	7
SAMEA6057822	2943	1	40	0	6	7	3
SAMEA6058088	2940	3	41	0	7	7	2
SAMEA6058336	2920	22	40	0	7	8	3
SAMEA6058603	2937	0	42	0	7	7	7
SAMEA6057619	2886	49	40	0	8	9	8
SAMEA6058431	2930	7	43	0	6	9	5
SAMEA6057474	2938	1	42	0	7	7	5
SAMEA6057444	2934	1	44	1	7	7	6
SAMEA6058615	2929	10	42	0	6	9	4
SAMEA6057585	2941	2	40	0	7	8	2
SAMEA6057701	2936	4	43	0	6	8	3
SAMEA6057771	2933	1	43	0	7	9	7
SAMEA6057537	1973	857	136	0	15	8	11
SAMEA6058478	2690	244	43	0	7	9	7
SAMEA6057461	2938	2	42	0	7	7	4
SAMEA6057551	2937	1	44	0	7	7	4
SAMEA6057659	2938	0	42	0	7	7	6
SAMEA6057829	2912	15	49	0	7	8	9
SAMEA6058099	2925	0	49	0	7	8	11
SAMEA6058605	2938	0	42	0	7	7	6
SAMEA6057482	2938	0	44	0	7	7	4
SAMEA6058152	2923	14	41	0	8	9	5
SAMEA6058372	2926	14	41	0	7	9	3
SAMEA6058473	2935	3	43	0	7	8	4
SAMEA6057718	2930	8	43	0	8	7	4
SAMEA6058544	2943	0	41	0	6	7	3
SAMEA6058425	2942	0	40	0	6	8	4
SAMEA6057870	2938	0	42	0	7	7	6
SAMEA6057593	2915	24	42	0	7	7	5
SAMEA6057706	2935	1	43	0	6	9	6
SAMEA6058493	2935	9	40	0	6	7	3
SAMEA6058331	2925	10	43	0	8	7	7
SAMEA6057710	2930	9	42	0	7	7	5
SAMEA6058393	2939	0	42	0	7	7	5
SAMEA6058497	2939	0	42	0	7	7	5
SAMEA6058598	2938	1	42	0	7	7	5
SAMEA6057423	2931	3	49	0	7	7	3
SAMEA6058407	2934	5	42	0	7	7	5
SAMEA6058608	2937	1	43	2	6	8	3
SAMEA6057491	2931	7	42	0	7	7	6
SAMEA6057578	2933	8	40	0	9	8	2
SAMEA6058079	2931	9	42	0	6	7	5
SAMEA6058100	2935	2	42	0	8	7	6
SAMEA6058456	2719	223	40	0	5	7	6
SAMEA6058430	2936	0	43	1	6	9	5
SAMEA6057460	2942	0	40	0	6	8	4
SAMEA6058175	2940	0	42	0	7	7	4
SAMEA6058184	2929	13	41	0	6	8	3
SAMEA6058472	2938	0	42	0	7	7	6
SAMEA6058572	2938	0	42	0	7	7	6
SAMEA6058521	2937	1	42	0	7	7	6
SAMEA6057503	2937	1	42	0	7	7	6
SAMEA6057600	2938	0	42	0	7	7	6
SAMEA6058219	2939	0	42	0	8	7	4
SAMEA6058562	2939	0	42	0	8	7	4
SAMEA6057450	2933	3	43	0	6	9	6
SAMEA6058141	2933	3	43	0	8	7	6
SAMEA6058174	2932	5	41	0	8	7	7
SAMEA6058218	2933	3	41	0	8	7	8
SAMEA6057951	2713	228	41	0	7	6	5
SAMEA6057526	2752	192	40	0	7	7	2
SAMEA6057475	2918	14	45	0	7	8	8
SAMEA6058537	2935	6	40	0	9	8	2
SAMEA6057520	2939	4	41	0	5	7	4
SAMEA6057615	2944	0	40	0	6	7	3
SAMEA6057736	2941	0	41	0	8	8	2
SAMEA6057986	2934	2	43	0	6	9	6
SAMEA6058259	2936	6	43	0	6	7	2
SAMEA6058513	2943	2	41	0	4	7	3
SAMEA6058463	2724	221	41	0	4	7	3
SAMEA6058556	2920	7	59	0	4	7	3
SAMEA6057642	2912	28	42	0	6	9	3
SAMEA6058447	2937	0	43	0	5	9	6
SAMEA6057629	2928	9	43	0	6	9	5
SAMEA6057637	2935	1	43	0	6	9	6
SAMEA6057636	2927	10	43	0	8	8	4
SAMEA6058150	2922	22	39	0	4	7	6
SAMEA6058140	2943	1	39	0	4	7	6
SAMEA6057635	2934	6	41	0	7	9	3
SAMEA6057646	2746	194	41	0	8	7	4
SAMEA6057950	2935	2	42	0	8	7	6
SAMEA6058286	2930	8	43	0	7	7	5
SAMEA6058410	2938	0	41	0	7	7	7
SAMEA6058512	2881	56	42	0	7	7	7
SAMEA6058434	2911	13	50	0	7	8	11
SAMEA6058383	2905	20	51	0	8	8	8
SAMEA6058107	2921	8	48	0	7	8	8
SAMEA6058341	2930	10	41	0	7	7	5
SAMEA6058404	2918	19	41	0	8	7	7
SAMEA6057654	2922	20	41	0	5	7	5
SAMEA6057691	2936	0	43	0	8	7	6
SAMEA6058503	2651	287	43	0	5	8	6
SAMEA6058450	2690	250	42	0	8	7	3
SAMEA6058446	2934	5	41	0	7	7	6
SAMEA6058601	2936	2	42	0	7	7	6
SAMEA6058496	2920	20	42	0	6	9	3
SAMEA6057421	2934	9	40	0	7	8	2
SAMEA6057767	2695	244	41	0	9	8	3
SAMEA6058209	2938	2	41	0	7	9	3
SAMEA6057648	2937	2	42	0	8	7	4
SAMEA6057796	2938	1	42	0	8	7	4
SAMEA6058465	2879	0	74	0	10	8	29
SAMEA6058560	2877	1	74	0	10	8	30
SAMEA6058555	2852	26	74	0	10	8	30
SAMEA6058491	2938	1	42	0	8	7	4
SAMEA6058489	2938	1	42	0	8	7	4
SAMEA6058589	2938	1	42	0	8	7	4
SAMEA6058580	2939	0	42	0	8	7	4
SAMEA6057669	2926	8	45	0	7	9	5
SAMEA6057860	2936	7	40	0	7	8	2
SAMEA6058510	2893	39	46	0	8	7	7
SAMEA6058183	2939	0	42	0	7	7	5
SAMEA6058388	2935	4	42	0	7	7	5
SAMEA6058455	2928	9	42	0	7	7	7
SAMEA6057893	2938	1	42	0	8	7	4
SAMEA6057717	2939	0	42	0	7	7	5
SAMEA6058569	2941	1	40	0	6	8	4
SAMEA6057454	2922	19	42	0	6	8	3
SAMEA6057425	2929	11	41	0	7	7	5
SAMEA6057869	2933	9	41	0	5	8	4
SAMEA6058535	2929	0	45	0	9	7	10
SAMEA6057419	2869	60	45	0	9	7	10
SAMEA6058579	2938	1	42	0	8	7	4
SAMEA6058163	2905	31	46	0	6	9	3
SAMEA6058379	2935	3	42	0	7	7	6
SAMEA6058477	2940	0	42	0	6	7	5
SAMEA6058401	2939	1	42	0	7	7	4
SAMEA6058025	2931	9	42	1	7	8	2
SAMEA6058013	2931	12	40	0	6	8	3
SAMEA6058294	2873	58	46	0	8	8	7
SAMEA6058539	2937	6	40	0	5	8	4
SAMEA6057521	2935	3	41	0	8	7	6
SAMEA6057995	2939	4	40	0	7	8	2
SAMEA6058488	2936	3	42	0	8	7	4
SAMEA6058585	2938	1	42	0	8	7	4
SAMEA6057472	2939	0	42	0	8	7	4
SAMEA6057663	2940	1	41	0	7	7	4
SAMEA6057489	2940	2	43	0	5	7	3
SAMEA6057576	2671	270	44	0	5	7	3
SAMEA6058172	2935	6	41	0	7	8	3
SAMEA6058403	2942	1	40	0	5	8	4
SAMEA6058602	2933	12	40	0	5	8	2
SAMEA6057479	2939	0	42	0	8	7	4
SAMEA6057568	2939	0	42	0	8	7	4
SAMEA6057495	2937	4	41	0	8	8	2
SAMEA6057918	2936	5	42	0	6	8	3
SAMEA6058487	2936	6	41	0	8	7	2
SAMEA6058531	2917	17	43	0	7	8	8
SAMEA6057770	2926	7	45	0	6	9	7
SAMEA6057892	2899	15	62	1	5	9	9
SAMEA6057508	2935	1	42	0	7	7	8
SAMEA6058012	2916	24	41	0	7	9	3
SAMEA6058441	2929	11	41	0	7	7	5
SAMEA6058466	2938	0	43	0	7	8	4
SAMEA6058565	2933	5	42	0	7	9	4
SAMEA6058195	2921	19	42	0	7	7	4
SAMEA6058533	2938	0	42	0	7	7	6
SAMEA6058508	2937	2	42	0	7	7	5
SAMEA6058106	2937	1	42	0	7	7	6
SAMEA6058400	2942	3	40	0	5	7	3
SAMEA6058502	2938	2	40	0	8	8	4
SAMEA6058449	2927	12	41	0	8	8	4
SAMEA6058548	2930	13	40	0	7	8	2
SAMEA6057422	2934	6	42	0	7	7	4
SAMEA6057416	2923	19	41	0	7	7	3
SAMEA6058618	2925	15	42	0	6	9	3
SAMEA6058561	2940	0	42	0	6	9	3
SAMEA6057447	2930	4	48	0	6	8	4
SAMEA6057541	2631	304	48	0	6	7	4
SAMEA6057645	2926	14	40	1	9	8	2
SAMEA6057786	2940	0	42	0	6	9	3
SAMEA6058058	2938	1	42	0	7	7	5
SAMEA6058310	2938	1	42	0	7	7	5
SAMEA6058438	2939	0	42	0	7	7	5
SAMEA6058534	2938	1	42	0	7	7	5
SAMEA6057417	2939	0	42	0	7	7	5
SAMEA6058584	2939	0	42	0	6	7	6
SAMEA6057471	2937	1	42	0	7	7	6
SAMEA6057850	2135	783	49	0	18	10	5
SAMEA6057467	2919	20	42	1	6	9	3
SAMEA6057577	2928	9	43	0	7	7	6
SAMEA6058382	2752	175	49	0	7	8	9
SAMEA6058482	2937	1	42	0	7	7	6
SAMEA6058429	2935	2	42	0	8	7	6
SAMEA6057746	2935	2	49	0	4	7	3
SAMEA6057730	2940	0	42	0	7	7	4
SAMEA6058000	2938	5	40	0	6	8	3
SAMEA6058440	2938	3	43	0	5	8	3
SAMEA6057668	2929	6	42	0	9	7	7
SAMEA6057584	2928	9	41	0	7	7	8
SAMEA6057917	2935	3	41	0	7	7	7
SAMEA6058454	2935	5	41	0	8	7	4
SAMEA6057429	2918	22	41	1	8	8	2
SAMEA6057755	2929	14	42	0	6	7	2
SAMEA6057868	2932	4	43	0	6	9	6
SAMEA6058564	2932	5	44	1	7	8	3
SAMEA6058516	2935	4	43	0	5	8	5
SAMEA6057519	2906	31	42	0	8	7	6
SAMEA6057613	2939	3	41	0	6	7	4
SAMEA6058507	2931	8	41	0	6	9	5
SAMEA6058554	2661	276	44	0	6	9	4
SAMEA6057780	2944	1	38	0	6	8	3
SAMEA6058381	2937	6	40	0	7	8	2
SAMEA6057486	2245	678	48	0	18	8	3
SAMEA6057690	2927	13	42	0	7	7	4
SAMEA6058378	2929	15	40	0	5	8	3
SAMEA6058525	2659	285	41	0	5	7	3
SAMEA6058627	2932	7	41	0	6	9	5
SAMEA6057511	2706	236	42	0	5	7	4
SAMEA6057721	2919	24	41	0	6	7	3
SAMEA6057959	2940	2	41	1	6	7	3
SAMEA6058229	2937	1	42	0	7	7	6
SAMEA6058547	2927	12	43	0	6	9	3
SAMEA6057432	2938	5	41	0	7	7	2
SAMEA6057531	2922	17	41	0	8	8	4
SAMEA6057624	2935	4	42	0	8	7	4
SAMEA6057762	2933	8	44	0	5	7	3
SAMEA6058024	2939	1	42	0	7	7	4
SAMEA6058365	2937	1	45	0	6	7	4
SAMEA6058469	2937	3	42	0	6	9	3
SAMEA6058568	2692	246	42	0	7	8	5
SAMEA6058519	2938	2	40	1	6	8	5
SAMEA6057596	2934	7	40	1	8	8	2
SAMEA6058202	2742	199	40	1	6	7	5
SAMEA6058595	2937	1	42	1	8	7	4
SAMEA6058268	2928	8	42	0	8	9	5
SAMEA6058415	2936	1	41	0	8	7	7
SAMEA6058515	2931	6	41	0	8	7	7
SAMEA6058617	2937	1	42	0	7	7	6
SAMEA6058614	2937	1	42	0	7	7	6
SAMEA6058583	2924	14	43	2	6	8	3
SAMEA6057849	2936	8	41	0	6	7	2
SAMEA6058486	2934	3	45	0	6	9	3
SAMEA6057851	2937	8	40	0	5	8	2
SAMEA6058349	2923	14	41	1	7	7	7
SAMEA6058528	2928	11	41	1	7	9	3
SAMEA6058588	2938	0	42	0	7	7	6
SAMEA6057667	2924	15	45	0	6	8	2
SAMEA6057916	2939	1	42	0	7	7	4
SAMEA6058387	2940	1	41	0	7	7	4
SAMEA6057438	2922	15	42	0	7	7	7
SAMEA6057828	2938	1	42	0	8	7	4
SAMEA6057716	2937	1	42	0	7	7	6
SAMEA6058563	2932	9	41	1	8	7	2
SAMEA6057735	2937	2	42	0	7	7	5
SAMEA6057510	2934	4	41	0	7	7	7
SAMEA6057720	2936	3	41	0	6	9	5
SAMEA6057958	2616	323	41	0	9	8	3
SAMEA6058228	1520	1388	42	0	37	9	4
SAMEA6058022	2913	25	43	0	7	8	4
SAMEA6058522	2755	190	38	0	6	8	3
SAMEA6058364	2936	5	40	0	7	8	4
SAMEA6058363	2938	1	41	0	9	8	3
SAMEA6057934	2931	5	42	0	8	7	7
SAMEA6057994	2930	6	49	0	5	7	3
SAMEA6057662	2929	8	43	0	6	9	5
SAMEA6057848	2937	0	43	0	6	9	5
SAMEA6058527	2937	3	42	0	7	7	4
SAMEA6057610	2937	3	42	0	7	7	4
SAMEA6058524	2944	0	39	1	6	7	3
SAMEA6058626	2906	2	42	0	37	9	4
SAMEA6058573	2932	7	41	0	8	7	5
SAMEA6057548	2937	5	41	0	7	7	3
SAMEA6057431	2925	14	42	0	8	8	3
SAMEA6058367	2932	10	41	0	8	7	2
SAMEA6058470	2680	259	44	1	5	7	4
SAMEA6058571	2905	5	52	0	6	9	23
SAMEA6057457	2934	7	43	0	6	8	2
SAMEA6058396	2925	20	40	0	5	7	3
SAMEA6058501	2935	8	40	0	7	8	2
SAMEA6057581	2917	18	45	2	7	7	4
SAMEA6057517	2921	10	46	4	6	7	6
SAMEA5552146	2928	15	41	1	5	7	3
SAMEA5552147	2928	11	41	0	7	9	4
SAMEA5552148	2929	14	40	0	6	7	4
SAMEA5552149	2935	7	43	0	5	7	3
SAMEA5552150	2935	5	43	1	6	7	3
SAMEA5552151	2923	18	41	0	5	9	4
SAMEA5552152	2912	2	70	0	6	7	3
SAMEA5552153	2934	6	40	0	6	9	5
SAMEA5552154	2935	7	43	0	5	7	3
SAMEA5533801	2913	16	47	0	13	7	4
SAMEA5552157	2744	195	43	0	6	8	4
SAMEA5552158	2916	23	42	0	5	8	6
SAMEA5533802	2693	244	44	4	5	7	3
SAMEA6057616	2936	2	44	0	8	7	3
SAMEA6057611	2894	11	53	3	6	8	25
SAMEA5533803	2661	269	47	0	13	7	3
SAMEA5552159	2937	2	46	0	5	7	3
SAMEA5552160	2934	6	45	0	5	7	3
SAMEA6057606	2941	3	41	0	5	7	3
SAMEA5552161	2921	19	43	0	6	8	3
SAMEA5552162	2783	160	41	0	5	7	4
SAMEA5737697	2942	0	41	0	7	8	2
SAMEA6057766	2932	9	42	0	6	7	4
SAMEA5552163	2929	10	46	0	5	7	3
SAMEA5552164	2929	8	48	0	5	7	3
SAMEA5552165	2885	58	41	0	5	8	3
SAMEA6057621	2932	7	43	0	7	8	3
SAMEA6057612	2849	28	72	0	11	8	32
SAMEA5533804	2852	84	47	0	6	7	4
SAMEA5552166	2788	150	41	0	7	9	5
SAMEA6057779	2906	24	53	1	5	7	4
SAMEA6058241	2939	0	42	0	8	7	4
SAMEA5552167	2838	101	43	0	6	8	4
SAMEA5737703	2932	7	44	0	6	8	3
SAMEA5552168	2920	17	46	0	7	7	3
SAMEA6057772	2911	26	44	1	7	7	4
SAMEA6057776	2936	1	45	1	6	8	3
SAMEA6057775	2929	14	40	0	5	7	5
SAMEA6057609	2939	0	42	0	7	8	4
SAMEA5533805	2539	392	49	0	11	6	3
SAMEA5552169	2642	263	73	1	5	7	9
SAMEA6057622	2778	165	39	0	5	9	4
SAMEA6057605	2937	3	42	0	7	8	3
SAMEA6057604	2924	0	51	1	8	8	8
SAMEA6057781	2929	8	45	0	6	8	4
SAMEA6057614	2935	0	43	0	6	9	7
SAMEA6057608	2919	8	50	0	7	8	8
SAMEA6057603	2789	153	40	0	6	8	4
SAMEA6057607	2933	5	42	0	7	7	6
SAMEA5533800	2781	155	46	1	7	7	3
SAMEA5552155	2913	3	66	1	5	8	4
SAMEA5552156	2655	287	42	1	5	7	3
SAMEA5882643	2936	5	41	0	8	8	2
SAMEA5737698	2941	0	41	0	7	8	3
SAMEA5737699	2941	0	42	0	6	7	4
SAMEA5737700	2934	0	45	0	6	8	7
SAMEA5737701	2924	0	55	3	7	8	3
SAMEA5737702	2937	6	40	0	7	8	2
SAMEA5757422	2940	2	40	1	6	8	3
SAMEA5737695	2940	2	41	1	6	7	3
SAMEA5737696	2927	10	45	1	6	8	3
SAMEA5737704	2915	15	51	0	9	8	2
SAMEA5737705	2898	13	61	2	9	8	9
SAMEA5882645	2941	0	42	0	6	7	4
SAMEA5882646	2937	2	40	0	8	9	4
SAMEA5882648	2936	1	45	1	6	8	3
SAMEA5737706	2707	210	57	2	8	8	8
SAMEA5882647	2945	0	40	0	5	8	2
