sample	date	sender	cluster_name	cluster_name_3	cluster_code
SAMEA6058237	2020-09-25	partner2	CT_0153	Alpha	CT_0153.Alpha
SAMEA6058262	2020-09-26	partner1	CT_0153	Alpha	CT_0153.Alpha
SAMEA6058346	2020-09-26	partner1	CT_0153	Beta	CT_0153.Beta
SAMEA6058571	2020-09-26	partner1	CT_0153	Gamma	CT_0153.Gamma
