sample	date	sender	cluster_name	cluster_name_3	cluster_code
SAMEA6057482	2020-09-26	partner3	CT_0048	Alpha	CT_0048.Alpha
SAMEA6057551	2020-09-26	partner3	CT_0048	Alpha	CT_0048.Alpha
SAMEA6057664	2020-09-26	partner1	CT_0048	Beta	CT_0048.Beta
SAMEA6057749	2020-09-25	partner2	CT_0048	Gamma	CT_0048.Gamma
SAMEA6057857	2020-09-25	partner2	CT_0048	Gamma	CT_0048.Gamma
SAMEA6058073	2020-09-26	partner1	CT_0048	Alpha	CT_0048.Alpha
SAMEA6058104	2020-09-25	partner2	CT_0048	Alpha	CT_0048.Alpha
SAMEA6058303	2020-09-26	partner1	CT_0048	Delta	CT_0048.Delta
