sample	date	sender	cluster_name	cluster_name_3	cluster_code
SAMEA6057435	2020-09-25	partner2	CT_0030	Alpha	CT_0030.Alpha
SAMEA6057637	2020-09-26	partner1	CT_0030	Alpha	CT_0030.Alpha
SAMEA6057759	2020-09-26	partner3	CT_0030	Beta	CT_0030.Beta
SAMEA6058062	2020-09-26	partner3	CT_0030	Gamma	CT_0030.Gamma
