sample	cluster_number	cluster_name
SAMEA6057441	66	CT_0035
SAMEA6057887	66	CT_0035
SAMEA6058083	66	CT_0035
SAMEA6058142	66	CT_0035
SAMEA6058260	66	CT_0035
SAMEA6058274	66	CT_0035
SAMEA6058283	66	CT_0035
SAMEA6058311	66	CT_0035
SAMEA6058323	66	CT_0035
SAMEA6058445	66	CT_0035
SAMEA6058448	66	CT_0035
SAMEA6058500	66	CT_0035
SAMEA6058558	66	CT_0035
SAMEA6058609	66	CT_0035
