sample	cluster_number	cluster_name
SAMEA6057439	64	CT_0033
SAMEA6057450	64	CT_0033
SAMEA6057549	64	CT_0033
SAMEA6057614	64	CT_0033
SAMEA6057713	64	CT_0033
SAMEA6057771	64	CT_0033
SAMEA6057801	64	CT_0033
SAMEA6057810	64	CT_0033
SAMEA6057817	64	CT_0033
SAMEA6057986	64	CT_0033
SAMEA6057989	64	CT_0033
SAMEA6058122	64	CT_0033
SAMEA6058156	64	CT_0033
SAMEA6058273	64	CT_0033
SAMEA6058478	64	CT_0033
