sample	cluster_number	cluster_name
SAMEA6057483	95	CT_0049
SAMEA6057520	95	CT_0049
SAMEA6057533	95	CT_0049
SAMEA6057579	95	CT_0049
SAMEA6057987	95	CT_0049
SAMEA6058124	95	CT_0049
SAMEA6058243	95	CT_0049
SAMEA6058628	95	CT_0049
