sample	cluster_number	cluster_name
SAMEA6057445	70	CT_0037
SAMEA6057544	70	CT_0037
SAMEA6057633	70	CT_0037
SAMEA6057761	70	CT_0037
SAMEA6057909	70	CT_0037
SAMEA6058055	70	CT_0037
SAMEA6058162	70	CT_0037
SAMEA6058422	70	CT_0037
SAMEA6058551	70	CT_0037
SAMEA6058559	70	CT_0037
SAMEA6058596	70	CT_0037
SAMEA6058604	70	CT_0037
