sample	cluster_number	cluster_name
SAMEA5737701	31	CT_0008
SAMEA5737703	31	CT_0008
SAMEA6057502	31	CT_0008
SAMEA6057514	31	CT_0008
SAMEA6057563	31	CT_0008
SAMEA6057582	31	CT_0008
SAMEA6057651	31	CT_0008
SAMEA6057666	31	CT_0008
SAMEA6057689	31	CT_0008
SAMEA6057701	31	CT_0008
SAMEA6057781	31	CT_0008
SAMEA6057807	31	CT_0008
SAMEA6057884	31	CT_0008
SAMEA6058081	31	CT_0008
SAMEA6058190	31	CT_0008
SAMEA6058206	31	CT_0008
SAMEA6058316	31	CT_0008
SAMEA6058342	31	CT_0008
SAMEA6058440	31	CT_0008
SAMEA6058506	31	CT_0008
SAMEA6058516	31	CT_0008
