sample	date	sender	cluster_name	cluster_name_3	cluster_code
SAMEA6057746	2020-09-26	partner1	CT_0106	Alpha	CT_0106.Alpha
SAMEA6057994	2020-09-25	partner2	CT_0106	Alpha	CT_0106.Alpha
SAMEA6058137	2020-09-26	partner1	CT_0106	Alpha	CT_0106.Alpha
