sample	cluster_name_3
SAMEA6057585	Alpha
SAMEA6057714	Beta
SAMEA6057769	Gamma
SAMEA6057841	Delta
SAMEA6057900	Epsilon
SAMEA6057955	Alpha
SAMEA6057995	Zeta
SAMEA6058001	Eta
SAMEA6058032	Theta
SAMEA6058046	Delta
SAMEA6058091	Delta
SAMEA6058121	Delta
SAMEA6058182	Delta
SAMEA6058226	Iota
SAMEA6058236	Iota
SAMEA6058313	Delta
SAMEA6058333	Alpha
SAMEA6058358	Kappa
SAMEA6058623	Lambda
