	SAMEA6057912	SAMEA6057998	SAMEA6058056	SAMEA6057923	SAMEA6057868	SAMEA6057926	SAMEA6057706	SAMEA6058447	SAMEA6057699	SAMEA6058452
SAMEA6057912	0	4	6	8	12	10	11	11	10	10
SAMEA6057998	4	0	3	6	10	8	9	9	8	8
SAMEA6058056	6	3	0	8	12	10	11	11	8	10
SAMEA6057923	8	6	8	0	8	6	7	7	7	6
SAMEA6057868	12	10	12	8	0	6	6	6	7	6
SAMEA6057926	10	8	10	6	6	0	1	1	5	4
SAMEA6057706	11	9	11	7	6	1	0	0	6	5
SAMEA6058447	11	9	11	7	6	1	0	0	6	5
SAMEA6057699	10	8	8	7	7	5	6	6	0	5
SAMEA6058452	10	8	10	6	6	4	5	5	5	0
