sample	date	sender	cluster_name	cluster_name_3	cluster_code
SAMEA6057439	2020-09-26	partner1	CT_0033	Alpha	CT_0033.Alpha
SAMEA6057450	2020-09-26	partner1	CT_0033	Beta	CT_0033.Beta
SAMEA6057549	2020-09-26	partner3	CT_0033	Gamma	CT_0033.Gamma
SAMEA6057614	2020-09-26	partner1	CT_0033	Delta	CT_0033.Delta
SAMEA6057713	2020-09-26	partner3	CT_0033	Epsilon	CT_0033.Epsilon
SAMEA6057771	2020-09-26	partner1	CT_0033	Delta	CT_0033.Delta
SAMEA6057801	2020-09-26	partner3	CT_0033	Zeta	CT_0033.Zeta
SAMEA6057810	2020-09-25	partner2	CT_0033	Eta	CT_0033.Eta
SAMEA6057817	2020-09-26	partner3	CT_0033	Epsilon	CT_0033.Epsilon
SAMEA6057986	2020-09-25	partner2	CT_0033	Theta	CT_0033.Theta
SAMEA6057989	2020-09-25	partner2	CT_0033	Alpha	CT_0033.Alpha
SAMEA6058122	2020-09-26	partner1	CT_0033	Iota	CT_0033.Iota
SAMEA6058156	2020-09-26	partner1	CT_0033	Kappa	CT_0033.Kappa
SAMEA6058273	2020-09-26	partner1	CT_0033	Lambda	CT_0033.Lambda
SAMEA6058478	2020-09-26	partner3	CT_0033	Delta	CT_0033.Delta
