ID	threshold_1000	threshold_200	threshold_100	threshold_50	threshold_20	threshold_10	threshold_5	threshold_1	hashID
SAMEA5533800	14	17	18	19	23	24	24	27	3811122573
SAMEA5533801	16	19	20	21	26	27	27	30	3817947150
SAMEA5533802	12	15	16	17	21	22	22	25	2463089090
SAMEA5533803	16	19	20	21	25	26	26	29	511979311
SAMEA5533804	15	18	19	20	24	25	25	28	1021309236
SAMEA5533805	13	16	17	18	22	23	23	26	3475915904
SAMEA5552146	32	36	38	45	108	142	157	179	4269657305
SAMEA5552147	3	4	4	4	4	4	4	4	1897727827
SAMEA5552148	32	36	38	45	107	141	156	178	2434743027
SAMEA5552149	32	36	38	45	109	143	158	180	1544243130
SAMEA5552150	32	36	38	45	113	147	162	184	1942379497
SAMEA5552151	5	8	8	8	10	10	10	10	543202501
SAMEA5552152	32	36	38	45	113	147	163	186	999568172
SAMEA5552153	3	4	4	4	5	5	5	5	654006841
SAMEA5552154	32	36	38	45	113	147	163	185	1406679563
SAMEA5552155	5	8	9	9	11	11	11	11	1547016350
SAMEA5552156	32	36	38	45	110	144	159	181	340778268
SAMEA5552157	5	8	9	9	11	11	11	12	2518170751
SAMEA5552158	28	32	34	39	66	85	95	110	1570513549
SAMEA5552159	32	36	38	45	105	139	154	175	70139500
SAMEA5552160	32	36	38	45	105	139	154	176	1748916254
SAMEA5552161	5	7	7	7	9	9	9	9	4115245318
SAMEA5552162	31	35	37	44	102	136	151	172	3063960958
SAMEA5552163	32	36	38	45	104	138	153	174	1698608081
SAMEA5552164	32	36	38	45	106	140	155	177	600030986
SAMEA5552165	5	6	6	6	8	8	8	8	4273862143
SAMEA5552166	3	4	4	4	6	6	6	6	2764572902
SAMEA5552167	4	5	5	5	7	7	7	7	2670601434
SAMEA5552168	32	36	38	45	103	137	152	173	901827543
SAMEA5552169	28	32	34	40	67	86	96	111	2159239073
SAMEA5737695	53	64	74	98	228	313	378	479	1824583931
SAMEA5737696	53	64	74	98	228	313	377	477	1170135486
SAMEA5737697	53	64	74	98	223	306	370	470	3662050509
SAMEA5737698	53	64	74	98	223	306	370	470	4006874449
SAMEA5737699	43	47	49	57	133	167	188	229	2443635674
SAMEA5737700	55	74	88	114	257	378	457	586	4083939436
SAMEA5737701	45	49	51	59	136	177	213	275	1444110382
SAMEA5737702	53	64	74	98	228	316	381	482	3907407263
SAMEA5737703	45	49	51	59	136	177	205	257	748262698
SAMEA5737704	53	64	74	98	228	332	406	512	3542583572
SAMEA5737705	52	56	60	79	185	263	323	417	3385574799
SAMEA5737706	52	56	60	79	186	264	324	418	2099756814
SAMEA5757422	53	64	74	98	228	313	378	478	2717783923
SAMEA5882642	55	74	88	114	257	378	457	584	2605276114
SAMEA5882643	53	64	74	98	228	314	379	480	3795529153
SAMEA5882644	43	47	49	57	132	166	187	228	55868061
SAMEA5882645	21	24	26	27	33	34	37	44	2297743952
SAMEA5882646	53	63	73	96	220	303	367	466	1804386285
SAMEA5882647	47	51	53	61	145	199	239	304	631896960
SAMEA5882648	45	49	51	59	140	196	235	300	3535090616
SAMEA6057416	21	24	26	27	35	36	39	46	459080460
SAMEA6057417	71	98	119	165	349	506	629	831	370291632
SAMEA6057419	71	95	115	152	314	456	554	701	2837053520
SAMEA6057420	71	97	118	156	325	471	584	771	424272037
SAMEA6057421	53	64	74	98	228	334	408	514	1418902761
SAMEA6057422	71	98	119	165	349	517	646	870	3764316020
SAMEA6057423	30	34	36	42	92	119	132	147	988043700
SAMEA6057424	45	49	51	59	136	176	204	256	1973443911
SAMEA6057425	71	98	120	169	366	536	666	895	3708157590
SAMEA6057426	41	45	47	55	127	161	180	219	3724133876
SAMEA6057427	71	98	119	165	348	505	627	824	2412499772
SAMEA6057428	53	64	74	98	228	342	417	523	4210322134
SAMEA6057429	53	60	65	86	194	272	332	427	2552430016
SAMEA6057430	71	97	118	156	320	463	565	742	2369913244
SAMEA6057431	53	63	71	94	208	290	354	452	3811787539
SAMEA6057432	53	64	74	98	228	318	383	484	1295949295
SAMEA6057433	70	91	109	138	289	420	511	653	2765745845
SAMEA6057434	45	49	51	59	136	171	194	237	2391682537
SAMEA6057435	47	51	54	66	164	237	291	380	1011818234
SAMEA6057436	53	67	77	101	240	353	429	541	4075641775
SAMEA6057437	30	34	36	42	77	102	113	128	3178096508
SAMEA6057438	71	98	121	171	375	545	675	905	1176923677
SAMEA6057439	47	51	54	66	164	229	276	357	1649629403
SAMEA6057440	21	24	26	27	38	52	60	74	3187251328
SAMEA6057441	21	24	26	27	38	41	46	54	254766589
SAMEA6057442	71	98	119	165	349	521	650	877	4243669592
SAMEA6057443	47	51	54	63	155	212	256	330	1236914565
SAMEA6057444	71	97	117	154	316	459	557	710	2687233435
SAMEA6057445	68	89	103	131	279	408	491	631	3572401849
SAMEA6057446	68	89	106	135	283	413	502	644	3509295383
SAMEA6057447	25	29	31	36	61	79	88	103	2867324061
SAMEA6057448	41	45	47	55	127	161	180	213	3896805750
SAMEA6057449	76	104	127	177	399	575	710	941	2198279985
SAMEA6057450	47	51	54	66	164	229	278	360	1837486193
SAMEA6057451	53	64	74	98	228	342	417	523	4113815847
SAMEA6057452	67	87	101	129	275	403	484	623	3245649694
SAMEA6057453	76	104	127	177	400	576	711	942	1416360600
SAMEA6057454	53	71	85	110	252	370	447	569	1961981046
SAMEA6057455	71	94	114	151	311	452	550	697	2904618459
SAMEA6057456	31	35	37	44	102	135	150	171	1781546395
SAMEA6057457	53	64	74	98	224	307	371	471	2094110453
SAMEA6057458	39	43	45	52	120	154	172	196	3732146177
SAMEA6057459	45	49	51	59	140	185	222	285	1400063784
SAMEA6057460	55	75	89	115	258	379	459	588	219013221
SAMEA6057461	71	98	119	165	349	517	646	871	79632452
SAMEA6057462	71	98	119	168	356	526	655	882	1484854222
SAMEA6057463	21	24	26	27	38	52	59	73	2986539265
SAMEA6057464	21	24	26	27	38	52	60	75	4065040755
SAMEA6057465	53	59	64	83	191	269	329	423	1288220072
SAMEA6057466	71	97	117	154	316	459	557	706	611590502
SAMEA6057467	22	26	28	33	56	74	83	98	2691861574
SAMEA6057468	53	64	74	98	228	313	378	479	1824583931
SAMEA6057469	71	94	114	151	308	449	546	690	2300127026
SAMEA6057470	71	98	119	165	351	512	639	856	2575646933
SAMEA6057471	71	97	117	154	316	459	557	710	311874797
SAMEA6057472	71	98	119	165	349	514	643	862	2080591405
SAMEA6057473	32	36	38	45	112	146	161	183	235022735
SAMEA6057474	71	98	119	165	349	506	629	838	4147410466
SAMEA6057475	53	68	80	105	245	363	440	558	1124425362
SAMEA6057476	84	113	137	190	430	607	743	974	3348360687
SAMEA6057477	45	49	51	59	136	176	203	255	163284584
SAMEA6057478	71	97	117	154	316	459	557	710	685678216
SAMEA6057479	71	98	119	165	349	514	643	862	4274950214
SAMEA6057480	53	59	64	83	190	268	328	422	2964976467
SAMEA6057481	71	98	119	158	335	483	599	790	3434770431
SAMEA6057482	71	98	119	159	336	484	601	794	1641390751
SAMEA6057483	20	23	24	25	31	32	33	38	925238765
SAMEA6057484	71	94	114	151	308	449	544	693	2151657858
SAMEA6057485	70	91	109	140	294	431	523	665	1404764102
SAMEA6057486	81	110	134	187	427	604	740	971	894331686
SAMEA6057487	71	98	119	165	349	506	629	845	2899531054
SAMEA6057488	30	34	36	42	94	122	137	153	1117740414
SAMEA6057489	35	39	41	48	116	150	166	190	1858287441
SAMEA6057490	41	45	47	55	127	161	180	209	2652333379
SAMEA6057491	71	98	119	165	346	502	624	819	1105240897
SAMEA6057492	53	62	69	92	204	284	345	441	2373891066
SAMEA6057493	53	64	74	98	228	342	417	523	2517171907
SAMEA6057494	53	64	74	98	223	306	370	470	1215562176
SAMEA6057495	53	64	74	98	228	318	384	485	1067390222
SAMEA6057496	39	43	45	53	121	155	173	197	3360481942
SAMEA6057497	71	98	120	169	363	533	663	892	3076246859
SAMEA6057498	49	53	56	74	180	258	318	412	847533217
SAMEA6057499	45	49	51	59	136	173	201	251	2550987849
SAMEA6057500	47	51	54	72	178	256	316	409	2660471886
SAMEA6057501	53	64	74	98	235	348	423	534	3680224111
SAMEA6057502	45	49	51	59	136	177	210	271	4213438765
SAMEA6057503	71	98	119	165	346	502	624	819	2452346717
SAMEA6057504	53	67	79	103	242	358	434	551	4222787455
SAMEA6057505	76	104	127	177	401	577	712	943	973872198
SAMEA6057506	45	49	51	59	136	173	196	240	2211722
SAMEA6057507	68	89	104	132	280	409	497	639	475139419
SAMEA6057508	71	98	121	171	375	545	675	905	1136485100
SAMEA6057509	45	49	51	59	139	181	217	279	528312981
SAMEA6057510	71	98	121	171	376	546	676	906	1647896455
SAMEA6057511	38	42	44	51	119	153	171	195	1148173676
SAMEA6057512	53	60	65	84	192	270	330	424	2775854534
SAMEA6057513	21	24	26	27	38	56	64	79	1766514603
SAMEA6057514	45	49	51	59	136	177	210	270	3930778198
SAMEA6057515	45	49	51	59	141	183	220	283	3984876781
SAMEA6057516	53	67	77	101	240	353	429	543	1643411942
SAMEA6057517	21	24	26	27	37	39	44	52	3083839109
SAMEA6057518	47	51	54	71	171	248	307	397	1181615635
SAMEA6057519	71	96	116	153	315	457	555	702	1083253524
SAMEA6057520	20	23	24	25	31	32	35	41	311863317
SAMEA6057521	71	97	118	156	331	479	593	782	434825243
SAMEA6057522	45	49	51	59	143	194	232	297	2628009756
SAMEA6057523	7	10	11	11	15	16	16	17	2338364079
SAMEA6057524	76	105	128	180	417	594	729	960	1401227476
SAMEA6057525	41	45	47	55	127	161	180	214	2984003862
SAMEA6057526	50	54	57	75	181	259	319	413	3089441795
SAMEA6057527	71	94	114	149	305	445	540	684	2495818984
SAMEA6057528	71	94	114	151	311	452	550	696	1859639669
SAMEA6057529	73	100	123	173	381	551	681	911	115761269
SAMEA6057530	22	25	27	28	47	63	72	87	3361216869
SAMEA6057531	53	60	65	86	195	273	333	428	411149320
SAMEA6057532	71	98	119	165	348	505	627	828	4192853509
SAMEA6057533	20	23	24	25	31	32	33	36	2500384115
SAMEA6057534	76	104	127	177	395	569	704	935	3372836790
SAMEA6057535	47	51	54	67	163	227	271	347	3908570499
SAMEA6057536	30	34	36	42	71	93	103	118	498836106
SAMEA6057537	86	115	139	192	432	609	745	976	3085821184
SAMEA6057538	70	92	110	142	296	435	530	673	2762429711
SAMEA6057539	45	49	51	59	140	190	228	292	700802827
SAMEA6057540	45	49	51	59	142	184	221	284	4047669301
SAMEA6057541	25	29	31	36	61	79	89	104	1015464062
SAMEA6057542	21	24	26	27	38	56	64	79	1766514603
SAMEA6057543	71	97	117	154	316	459	557	710	2109460159
SAMEA6057544	68	89	103	131	279	408	493	633	3281590766
SAMEA6057545	71	98	119	162	341	494	613	808	2715337461
SAMEA6057546	79	108	132	185	425	602	738	969	1323269541
SAMEA6057547	45	49	51	59	136	173	201	249	88655672
SAMEA6057548	39	43	45	53	123	157	175	199	3872244620
SAMEA6057549	47	51	54	66	164	229	275	354	3884563813
SAMEA6057550	71	97	118	156	329	476	589	777	353836266
SAMEA6057551	71	98	119	159	336	484	601	793	495399388
SAMEA6057552	21	24	25	26	32	33	36	42	1654388751
SAMEA6057553	30	34	36	42	85	112	125	140	1436070732
SAMEA6057554	53	67	79	103	242	357	433	550	3917462560
SAMEA6057555	45	49	51	59	136	173	196	241	3945132098
SAMEA6057556	76	104	127	177	389	563	696	926	3928635187
SAMEA6057557	53	67	77	101	240	353	429	543	2540888658
SAMEA6057558	76	104	127	177	392	566	701	931	2686388408
SAMEA6057559	75	102	125	175	383	553	683	913	296691619
SAMEA6057560	71	98	120	169	363	533	662	891	563067134
SAMEA6057561	71	97	118	156	318	461	561	730	3420949858
SAMEA6057562	21	24	26	27	38	55	63	78	101406911
SAMEA6057563	45	49	51	59	136	177	209	269	2025011152
SAMEA6057564	47	51	54	66	164	234	287	375	2925235645
SAMEA6057565	70	92	110	142	297	437	532	675	2665044723
SAMEA6057566	45	49	51	59	136	172	195	238	101785957
SAMEA6057567	68	89	103	131	278	407	489	628	3008555522
SAMEA6057568	71	98	119	165	349	514	643	862	3301321852
SAMEA6057569	71	98	119	166	353	522	651	878	2930713364
SAMEA6057570	71	94	114	151	308	449	545	689	129999279
SAMEA6057571	80	109	133	186	426	603	739	970	4127374745
SAMEA6057572	71	97	118	156	321	465	569	748	1177217185
SAMEA6057573	22	25	27	28	48	64	73	88	817053541
SAMEA6057574	47	51	54	63	154	211	255	329	2097792682
SAMEA6057575	30	34	36	42	83	110	122	137	1261808653
SAMEA6057576	35	39	41	48	116	150	166	189	3797230930
SAMEA6057577	71	98	119	159	336	486	603	796	1722053779
SAMEA6057578	53	64	74	98	228	340	414	520	3135508250
SAMEA6057579	20	23	24	25	31	32	35	40	857662923
SAMEA6057580	71	97	117	154	316	459	557	713	3239217204
SAMEA6057581	21	24	26	27	36	37	41	49	3455616712
SAMEA6057582	45	49	51	59	136	177	212	274	3109934700
SAMEA6057583	45	49	51	59	140	182	219	282	1314602946
SAMEA6057584	71	98	121	171	379	549	679	909	2248674496
SAMEA6057585	53	64	74	98	228	322	389	491	3661462735
SAMEA6057586	74	101	124	174	382	552	682	912	3745980908
SAMEA6057587	53	67	78	102	241	354	430	546	2609067162
SAMEA6057588	53	64	74	98	228	315	380	481	156796436
SAMEA6057589	47	51	54	66	164	236	289	377	2878867073
SAMEA6057590	71	97	118	155	317	460	558	725	3538213683
SAMEA6057591	71	98	119	168	357	527	656	883	1247317266
SAMEA6057592	41	45	47	55	127	161	180	212	3923957680
SAMEA6057593	71	98	119	165	345	500	620	815	239636450
SAMEA6057594	71	97	118	156	326	472	585	772	934621401
SAMEA6057595	22	26	28	31	54	72	81	96	2417884164
SAMEA6057596	53	64	74	98	229	329	403	509	3116882172
SAMEA6057597	30	34	36	42	93	120	133	149	1775584269
SAMEA6057598	30	34	36	42	70	92	102	117	2414962669
SAMEA6057599	71	97	117	154	316	459	557	722	1564108309
SAMEA6057600	71	98	119	165	346	502	624	819	1105240897
SAMEA6057601	71	98	120	169	362	532	661	890	514326446
SAMEA6057602	76	105	129	181	419	596	731	962	2238026992
SAMEA6057603	55	75	89	115	258	379	459	588	4132098695
SAMEA6057604	71	94	114	150	306	446	541	685	3973321750
SAMEA6057605	53	63	71	94	218	301	365	464	832841030
SAMEA6057606	47	51	54	71	176	254	313	406	3182952588
SAMEA6057607	71	98	119	165	349	514	642	860	4125194619
SAMEA6057608	71	94	114	147	302	442	537	680	731195579
SAMEA6057609	21	24	26	27	38	47	53	65	3521293327
SAMEA6057610	71	98	119	165	349	517	646	872	1130313328
SAMEA6057611	70	91	109	138	289	428	520	662	2015391565
SAMEA6057612	68	89	106	134	282	412	500	642	367687994
SAMEA6057613	39	43	45	53	123	157	176	200	3971640966
SAMEA6057614	47	51	54	66	164	229	276	355	1376412706
SAMEA6057615	21	24	26	27	38	56	64	79	1766514603
SAMEA6057616	53	67	79	103	243	360	436	553	442013935
SAMEA6057617	71	94	114	151	310	451	549	695	1704200012
SAMEA6057618	71	97	117	154	316	459	557	717	585067162
SAMEA6057619	47	51	54	65	156	213	257	331	2025914928
SAMEA6057620	53	64	74	98	228	342	417	525	817206870
SAMEA6057621	53	61	67	90	202	280	341	436	3592525237
SAMEA6057622	73	100	123	173	381	551	681	911	115761269
SAMEA6057623	71	98	119	165	345	500	621	816	3635643690
SAMEA6057624	53	60	65	86	195	273	334	429	983598114
SAMEA6057625	21	24	26	27	38	50	56	69	2295036278
SAMEA6057626	71	97	118	156	323	467	571	753	2879375482
SAMEA6057627	71	98	119	165	345	500	622	817	3070258069
SAMEA6057628	30	34	36	42	77	103	114	129	701070052
SAMEA6057629	47	51	54	66	158	216	260	336	583380955
SAMEA6057630	71	97	118	156	318	461	560	728	3452883671
SAMEA6057631	21	24	26	27	38	56	64	79	3717634047
SAMEA6057632	71	97	118	156	332	480	594	783	148101150
SAMEA6057633	68	89	103	131	279	408	490	629	566157443
SAMEA6057634	47	51	54	67	163	227	271	347	1837229342
SAMEA6057635	53	63	71	94	218	301	365	463	1232047777
SAMEA6057636	53	61	67	90	200	278	339	434	1167801333
SAMEA6057637	47	51	54	66	164	237	291	380	1315894974
SAMEA6057638	47	51	54	66	162	222	266	342	2410908030
SAMEA6057639	71	97	117	154	316	459	557	710	3063021869
SAMEA6057640	71	98	119	159	336	488	605	798	2140185817
SAMEA6057641	71	97	118	155	317	460	558	723	799631187
SAMEA6057642	22	25	27	28	45	61	70	85	304854352
SAMEA6057643	71	97	117	154	316	459	557	718	3783027851
SAMEA6057644	21	24	26	27	35	36	40	47	1593368225
SAMEA6057645	53	64	74	98	232	345	420	528	320750115
SAMEA6057646	57	77	91	117	260	381	461	590	2416471675
SAMEA6057647	21	24	26	27	38	53	61	76	2886403474
SAMEA6057648	71	98	119	165	349	514	643	861	2220628428
SAMEA6057649	53	64	74	98	228	327	401	507	77195405
SAMEA6057650	53	67	79	103	242	356	432	549	4125635602
SAMEA6057651	45	49	51	59	136	177	211	273	2691662186
SAMEA6057652	45	49	51	59	140	190	228	293	446488342
SAMEA6057653	43	47	49	57	133	168	190	232	617635005
SAMEA6057654	47	51	54	71	175	252	311	404	1004891294
SAMEA6057655	71	98	120	169	365	535	665	894	3717797132
SAMEA6057656	71	98	119	165	349	510	636	853	3489933095
SAMEA6057657	53	71	85	110	252	370	447	572	1903601158
SAMEA6057658	71	98	121	171	373	543	673	903	3535896096
SAMEA6057659	71	97	117	154	316	459	557	710	1993694117
SAMEA6057660	71	98	119	166	354	523	652	879	3656668367
SAMEA6057661	21	24	26	27	41	45	50	61	2884740204
SAMEA6057662	47	51	54	66	158	215	259	335	4036011072
SAMEA6057663	71	98	120	169	360	530	659	888	1507703129
SAMEA6057664	71	98	119	159	336	484	600	791	1543689801
SAMEA6057665	21	24	26	27	38	49	55	68	4066647831
SAMEA6057666	45	49	51	59	136	177	206	259	3348929873
SAMEA6057667	53	64	74	98	225	309	373	473	43968639
SAMEA6057668	71	97	118	156	325	471	584	771	1644031906
SAMEA6057669	47	51	54	68	166	241	295	384	404880664
SAMEA6057670	71	97	117	154	316	459	557	710	1705273032
SAMEA6057671	71	98	121	171	369	539	669	898	313684261
SAMEA6057672	30	34	36	42	92	119	132	148	859996746
SAMEA6057673	47	51	54	63	152	209	253	327	1963852734
SAMEA6057674	21	24	26	27	38	49	55	68	1463671493
SAMEA6057675	47	51	54	62	147	203	247	315	1953201757
SAMEA6057676	47	51	54	62	147	203	247	314	2669043451
SAMEA6057677	71	97	117	154	316	459	557	711	2700456732
SAMEA6057678	70	91	109	138	286	416	506	648	1168690443
SAMEA6057679	47	51	54	62	147	203	245	310	2045069534
SAMEA6057680	39	43	45	53	124	158	177	204	2044422848
SAMEA6057681	71	94	114	147	303	443	538	681	523939872
SAMEA6057682	47	51	54	62	147	202	242	307	4041314340
SAMEA6057683	47	51	54	62	147	203	246	312	1470283356
SAMEA6057684	71	94	114	151	308	449	544	693	1554580028
SAMEA6057685	71	94	114	147	303	443	538	682	978418260
SAMEA6057686	21	24	26	27	38	49	55	68	1225158307
SAMEA6057687	47	51	54	62	147	203	247	313	1887526875
SAMEA6057688	47	51	54	62	147	203	247	316	146085217
SAMEA6057689	45	49	51	59	136	177	209	268	1613806030
SAMEA6057690	71	98	120	169	361	531	660	889	3009657891
SAMEA6057691	71	97	118	156	323	468	574	758	3652249945
SAMEA6057692	22	25	27	28	44	58	66	81	867610787
SAMEA6057693	71	98	119	163	342	497	617	812	1793864961
SAMEA6057694	71	97	118	156	321	464	567	746	1503922779
SAMEA6057695	71	98	119	157	333	481	595	784	2949689705
SAMEA6057696	47	51	54	62	147	203	247	317	2737402788
SAMEA6057697	55	74	88	114	257	378	457	586	4083939436
SAMEA6057698	54	72	86	111	253	371	448	574	757874890
SAMEA6057699	47	51	54	66	164	231	282	369	459283397
SAMEA6057700	47	51	54	66	162	224	268	344	3799776252
SAMEA6057701	45	49	51	59	136	177	209	266	3004815117
SAMEA6057702	76	104	127	177	387	558	689	919	1567168650
SAMEA6057703	21	24	26	27	38	49	55	68	1225158307
SAMEA6057704	47	51	54	62	146	200	240	305	15359113
SAMEA6057705	47	51	54	62	147	201	241	306	3424130370
SAMEA6057706	47	51	54	66	164	231	282	368	1970300415
SAMEA6057707	71	98	119	161	338	490	609	803	4225061609
SAMEA6057708	47	51	54	62	147	203	245	311	3824186771
SAMEA6057709	47	51	54	62	147	203	244	309	1754691785
SAMEA6057710	71	98	119	165	349	520	649	876	1460206955
SAMEA6057711	70	92	110	142	297	436	531	674	2212635467
SAMEA6057712	47	51	54	62	147	203	243	308	2195316420
SAMEA6057713	47	51	54	66	164	229	273	352	519117981
SAMEA6057714	53	64	74	98	228	322	393	497	3776035706
SAMEA6057715	22	25	27	28	48	65	74	89	1765339470
SAMEA6057716	71	97	117	154	316	459	557	710	2324946219
SAMEA6057717	71	98	119	165	349	506	629	838	3942471022
SAMEA6057718	71	98	119	159	336	487	604	797	4198522326
SAMEA6057719	53	71	84	109	251	369	446	566	1701927489
SAMEA6057720	47	51	54	68	168	243	298	387	2497475917
SAMEA6057721	39	43	45	53	123	157	176	203	3404519415
SAMEA6057722	76	103	126	176	385	555	685	915	2804254219
SAMEA6057723	25	29	31	36	62	80	90	105	3747117371
SAMEA6057724	61	81	95	122	266	391	472	602	2153264725
SAMEA6057725	59	79	93	120	263	385	465	594	3367246647
SAMEA6057726	76	104	127	177	389	562	694	924	1680393135
SAMEA6057727	71	98	121	171	378	548	678	908	4020564311
SAMEA6057728	71	98	119	162	341	493	612	807	1418647052
SAMEA6057729	45	49	51	59	136	173	201	248	1293571968
SAMEA6057730	71	98	119	165	349	517	646	871	3427844878
SAMEA6057731	71	97	117	154	316	459	557	710	1187962863
SAMEA6057732	76	105	129	181	420	597	732	963	1870996190
SAMEA6057733	21	24	26	27	38	49	55	68	1225158307
SAMEA6057734	45	49	51	59	136	173	198	243	2824475577
SAMEA6057735	71	98	119	165	349	506	629	839	860509284
SAMEA6057736	53	64	74	98	228	342	417	523	3316449524
SAMEA6057737	71	98	119	165	347	503	625	820	3057294101
SAMEA6057738	21	24	26	27	39	42	47	57	243085136
SAMEA6057739	71	97	117	154	316	459	557	712	3417048544
SAMEA6057740	47	51	54	71	171	247	304	393	2190483722
SAMEA6057741	49	53	56	74	180	258	318	412	97215511
SAMEA6057742	30	34	36	42	98	126	141	158	1345339008
SAMEA6057743	67	87	101	129	273	399	480	619	1675055579
SAMEA6057744	71	97	117	154	316	459	557	710	1993694117
SAMEA6057745	47	51	54	66	164	235	288	376	4188278624
SAMEA6057746	30	34	36	42	100	133	148	169	168678015
SAMEA6057747	53	64	74	98	228	342	417	523	3115925841
SAMEA6057748	21	24	26	27	38	47	53	65	3521293327
SAMEA6057749	71	98	119	159	336	484	607	801	3054041104
SAMEA6057750	53	62	68	91	203	282	343	438	2992744279
SAMEA6057751	70	91	109	138	290	422	513	655	3748678402
SAMEA6057752	47	51	54	66	164	233	284	372	1456018871
SAMEA6057753	47	51	54	66	164	235	288	376	2420851733
SAMEA6057754	71	97	117	154	316	459	557	721	1021852776
SAMEA6057755	53	64	74	98	234	347	422	533	3637518504
SAMEA6057756	71	98	119	165	349	514	643	866	134711866
SAMEA6057757	71	98	119	168	358	528	657	884	346353767
SAMEA6057758	53	67	79	103	242	355	431	548	141791788
SAMEA6057759	47	51	54	66	164	237	290	378	1882714406
SAMEA6057760	30	34	36	42	100	132	147	166	1760796848
SAMEA6057761	68	89	103	131	279	408	494	636	1226470338
SAMEA6057762	23	27	29	34	58	76	85	100	4107308539
SAMEA6057763	71	97	118	156	319	462	563	739	4022830680
SAMEA6057764	19	22	23	24	29	30	30	33	2443026925
SAMEA6057765	53	64	74	98	228	313	377	477	1170135486
SAMEA6057766	43	47	49	57	133	167	188	229	2443635674
SAMEA6057767	1	1	1	1	1	1	1	1	4255213719
SAMEA6057768	71	98	119	165	346	501	623	818	2144427091
SAMEA6057769	53	64	74	98	228	322	399	503	3054863671
SAMEA6057770	47	51	54	66	162	225	269	345	4108856664
SAMEA6057771	47	51	54	66	164	229	276	355	1355737725
SAMEA6057772	23	27	29	34	59	77	86	101	831334866
SAMEA6057773	71	98	119	165	349	508	634	850	4186519842
SAMEA6057774	53	63	70	93	205	285	346	442	2537137950
SAMEA6057775	67	87	101	129	274	400	481	620	3247838114
SAMEA6057776	53	71	85	110	252	370	447	571	4027485770
SAMEA6057777	71	97	118	156	319	462	563	740	3624487661
SAMEA6057778	61	81	95	122	265	390	471	601	2618984820
SAMEA6057779	30	34	36	42	72	96	107	122	651135244
SAMEA6057780	62	82	96	123	267	392	473	605	1327355658
SAMEA6057781	45	49	51	59	136	177	208	265	1610662482
SAMEA6057782	71	98	120	169	360	530	659	888	650539762
SAMEA6057783	71	97	118	156	323	467	577	761	2411213651
SAMEA6057784	76	104	127	177	388	559	690	920	1213662785
SAMEA6057785	71	97	117	154	316	459	557	710	1993694117
SAMEA6057786	22	25	27	28	50	68	77	92	1022120511
SAMEA6057787	71	98	120	169	360	530	659	887	3085445163
SAMEA6057788	76	105	129	181	420	597	733	964	321739988
SAMEA6057789	76	104	127	179	416	593	728	959	2742874822
SAMEA6057790	22	25	27	28	44	60	69	84	3057191024
SAMEA6057791	21	24	26	27	41	45	50	60	3709383929
SAMEA6057792	47	51	54	66	165	232	283	371	1240430881
SAMEA6057793	71	97	118	156	318	461	559	726	1797656238
SAMEA6057794	47	51	54	66	164	228	272	348	2300614932
SAMEA6057795	70	91	109	138	292	427	519	661	1748629750
SAMEA6057796	71	98	119	165	349	514	643	861	2727216890
SAMEA6057797	21	24	26	27	38	56	64	79	1766514603
SAMEA6057798	53	64	74	98	231	343	418	526	3405476632
SAMEA6057799	71	97	117	154	316	459	557	710	506430411
SAMEA6057800	21	24	26	27	38	49	55	68	1225158307
SAMEA6057801	47	51	54	66	164	229	273	349	441740325
SAMEA6057802	53	58	62	81	188	266	326	420	2371525931
SAMEA6057803	71	98	119	165	348	505	627	825	1755290590
SAMEA6057804	55	75	89	115	258	379	459	588	3356701203
SAMEA6057805	76	104	127	177	396	570	705	936	1537923838
SAMEA6057806	53	64	74	98	233	346	421	532	3548870401
SAMEA6057807	45	49	51	59	136	177	211	272	2983703094
SAMEA6057808	71	98	119	167	355	524	653	880	3765802757
SAMEA6057809	71	93	113	146	301	441	536	679	1021023184
SAMEA6057810	47	51	54	66	164	229	273	350	2500935871
SAMEA6057811	47	51	54	62	147	203	247	318	3733930829
SAMEA6057812	45	49	51	59	136	174	200	247	1647246361
SAMEA6057813	71	97	117	154	316	459	557	710	1395933393
SAMEA6057814	76	104	127	177	394	568	703	933	2066887333
SAMEA6057815	76	104	127	177	403	579	714	945	1404792557
SAMEA6057816	53	64	74	98	233	346	421	529	2814773655
SAMEA6057817	47	51	54	66	164	229	273	351	2601953068
SAMEA6057818	70	91	109	138	290	421	512	654	2919120701
SAMEA6057819	49	53	56	74	180	258	318	412	4160171190
SAMEA6057820	59	79	93	120	263	384	464	593	2616491169
SAMEA6057821	47	51	54	71	171	248	306	395	539243683
SAMEA6057822	21	24	26	27	38	56	64	79	1403192875
SAMEA6057823	71	98	119	165	349	509	635	852	3051024316
SAMEA6057824	71	98	119	165	349	508	634	850	2734567001
SAMEA6057825	53	64	74	98	228	342	417	525	2303875295
SAMEA6057826	71	97	117	154	316	459	557	710	1878617017
SAMEA6057827	69	90	108	137	285	415	505	647	2212509574
SAMEA6057828	71	98	119	165	349	514	643	863	2273534511
SAMEA6057829	71	94	114	151	309	450	548	694	2686168685
SAMEA6057830	53	71	85	110	252	370	447	570	1577872812
SAMEA6057831	6	9	10	10	12	12	12	13	1380871875
SAMEA6057832	64	84	98	125	269	394	475	609	4259093449
SAMEA6057833	71	98	119	165	349	506	629	844	2350932406
SAMEA6057834	32	36	38	45	111	145	160	182	4226476126
SAMEA6057835	53	71	85	110	252	370	447	572	1450833307
SAMEA6057836	71	97	118	156	319	462	563	740	3624487661
SAMEA6057837	43	47	49	57	132	166	186	227	1212136567
SAMEA6057838	70	91	109	138	286	416	507	649	366649554
SAMEA6057839	53	63	71	94	212	294	358	456	1708390651
SAMEA6057840	71	98	120	169	360	530	659	888	650539762
SAMEA6057841	53	64	74	98	228	322	400	506	2704343622
SAMEA6057842	47	51	54	71	173	250	309	399	603564982
SAMEA6057843	6	9	10	10	12	12	12	13	1380871875
SAMEA6057844	59	79	93	120	263	385	465	595	3414005973
SAMEA6057845	47	51	54	63	152	209	253	325	537738366
SAMEA6057846	71	98	119	165	349	506	632	836	340172695
SAMEA6057847	53	69	82	107	248	366	443	563	103750528
SAMEA6057848	47	51	54	66	158	215	259	335	4036011072
SAMEA6057849	53	64	74	98	228	321	387	488	3179132547
SAMEA6057850	77	106	130	182	421	598	734	965	776780763
SAMEA6057851	47	51	54	63	149	206	250	321	888803532
SAMEA6057852	53	62	68	91	203	282	343	439	352504000
SAMEA6057853	47	51	54	66	164	233	285	373	242254520
SAMEA6057854	64	84	98	125	269	394	475	608	3141616610
SAMEA6057855	53	64	74	98	228	342	417	525	317598808
SAMEA6057856	59	79	93	120	263	385	465	594	166102788
SAMEA6057857	71	98	119	159	336	484	607	800	1734141824
SAMEA6057858	70	91	109	138	289	426	518	660	2098570200
SAMEA6057859	68	88	102	130	277	406	488	627	3730023500
SAMEA6057860	53	64	74	98	228	344	419	527	3855104025
SAMEA6057861	19	22	23	24	30	31	32	35	392457461
SAMEA6057862	71	98	119	165	349	508	634	850	2310193249
SAMEA6057863	71	98	119	165	349	513	640	857	4093861474
SAMEA6057864	76	104	127	177	396	572	707	938	4122615620
SAMEA6057865	59	79	93	120	263	385	465	594	1342233876
SAMEA6057866	21	24	26	27	41	45	50	61	2215502173
SAMEA6057867	21	24	26	27	33	34	37	44	1823678224
SAMEA6057868	47	51	54	66	164	231	280	366	3556857441
SAMEA6057869	25	29	31	36	63	81	91	106	2297668442
SAMEA6057870	71	98	119	165	346	502	624	819	1105240897
SAMEA6057871	85	114	138	191	431	608	744	975	2517887887
SAMEA6057872	71	98	120	169	360	530	659	888	3991244482
SAMEA6057873	47	51	54	66	160	219	263	339	2124623261
SAMEA6057874	37	41	43	50	118	152	170	194	1221324788
SAMEA6057875	71	97	118	156	328	475	588	776	3439122386
SAMEA6057876	76	105	129	181	418	595	730	961	2248127724
SAMEA6057877	53	61	67	90	201	279	340	435	3835724162
SAMEA6057878	21	24	26	27	38	49	55	68	625231084
SAMEA6057879	53	67	77	101	240	353	429	543	2538352814
SAMEA6057880	53	63	71	94	207	289	351	449	3511506752
SAMEA6057881	22	26	28	29	51	69	78	93	3134649280
SAMEA6057882	21	24	26	27	37	38	42	50	255232542
SAMEA6057883	71	97	118	156	323	467	578	763	3698830394
SAMEA6057884	45	49	51	59	136	177	206	258	378889386
SAMEA6057885	30	34	36	42	78	104	115	130	2414010814
SAMEA6057886	76	104	127	177	394	568	703	934	3688398472
SAMEA6057887	21	24	26	27	38	41	46	56	4277609439
SAMEA6057888	71	98	119	165	347	504	626	822	3801904151
SAMEA6057889	53	67	79	103	243	359	435	552	965412459
SAMEA6057890	45	49	51	59	136	175	202	254	1387065127
SAMEA6057891	29	33	35	41	68	87	97	112	2590086505
SAMEA6057892	76	104	127	177	402	578	713	944	943696050
SAMEA6057893	71	98	119	165	349	514	643	864	1733597417
SAMEA6057894	54	73	87	113	256	377	455	581	3428147055
SAMEA6057895	47	51	54	68	168	243	297	386	1025423540
SAMEA6057896	71	97	117	154	316	459	557	719	626024760
SAMEA6057897	47	51	54	66	162	221	265	341	679838569
SAMEA6057898	53	63	73	96	220	303	367	466	1804386285
SAMEA6057899	53	69	82	107	248	366	443	562	1316828401
SAMEA6057900	53	64	74	98	228	322	400	504	100617408
SAMEA6057901	41	45	47	55	127	161	180	216	2058179511
SAMEA6057902	78	107	131	183	422	599	735	966	2924030806
SAMEA6057903	78	107	131	183	423	600	736	967	1943314514
SAMEA6057904	47	51	54	63	150	207	251	322	2271767516
SAMEA6057905	71	97	117	154	316	459	557	710	3224884183
SAMEA6057906	71	97	117	154	316	459	557	710	900631780
SAMEA6057907	21	24	26	27	34	35	38	45	861818231
SAMEA6057908	30	34	36	42	89	116	129	144	1121141958
SAMEA6057909	68	89	103	131	279	408	494	634	3184183522
SAMEA6057910	53	64	74	98	228	342	417	523	4113815847
SAMEA6057911	71	97	117	154	316	459	557	714	2759023650
SAMEA6057912	47	51	54	66	164	231	279	363	4128874193
SAMEA6057913	53	71	85	110	252	370	447	568	1911532796
SAMEA6057914	70	91	109	138	289	425	516	658	872133336
SAMEA6057915	30	34	36	42	100	128	143	161	2604573051
SAMEA6057916	71	98	120	169	360	530	659	886	2915409540
SAMEA6057917	71	98	121	171	371	541	671	901	2367581190
SAMEA6057918	19	22	23	24	30	31	31	34	695239591
SAMEA6057919	41	45	47	55	127	161	180	213	352117157
SAMEA6057920	71	97	117	154	316	459	557	710	1993694117
SAMEA6057921	47	51	54	66	160	219	263	339	702359824
SAMEA6057922	53	71	85	110	252	370	447	568	806447331
SAMEA6057923	47	51	54	66	164	231	281	367	3492981567
SAMEA6057924	52	56	60	79	185	263	323	417	3385574799
SAMEA6057925	71	97	117	154	316	459	557	707	1331358535
SAMEA6057926	47	51	54	66	164	231	282	368	100454089
SAMEA6057927	71	98	119	159	336	485	602	795	2038605469
SAMEA6057928	71	97	118	156	323	467	572	754	4011058198
SAMEA6057929	71	98	120	169	364	534	664	893	278047187
SAMEA6057930	71	98	119	165	349	506	628	829	2748190687
SAMEA6057931	53	63	73	96	220	303	367	467	3495199344
SAMEA6057932	47	51	54	66	162	223	267	343	3170772045
SAMEA6057933	63	83	97	124	268	393	474	606	481874346
SAMEA6057934	71	97	118	156	323	467	580	765	4055373737
SAMEA6057935	71	98	119	165	349	506	633	837	446047706
SAMEA6057936	71	97	117	154	316	459	557	720	117049266
SAMEA6057937	71	98	119	165	349	506	629	831	2611197066
SAMEA6057938	47	51	54	68	166	238	292	381	1396076011
SAMEA6057939	53	63	73	96	220	303	367	467	2753400607
SAMEA6057940	71	97	117	154	316	459	557	715	4203639037
SAMEA6057941	21	24	26	27	38	51	57	71	2394309524
SAMEA6057942	41	45	47	55	127	161	180	216	1083641235
SAMEA6057943	76	103	126	176	385	556	687	917	2017729435
SAMEA6057944	71	98	119	165	349	506	629	831	2235945814
SAMEA6057945	71	98	119	165	349	508	634	849	2902944214
SAMEA6057946	47	51	54	67	163	226	270	346	1886875486
SAMEA6057947	30	34	36	42	92	119	132	148	3753308684
SAMEA6057948	41	45	47	55	127	161	180	216	2799848435
SAMEA6057949	41	45	47	55	127	161	180	213	2244209715
SAMEA6057950	71	97	118	156	323	467	581	767	1681721881
SAMEA6057951	34	38	40	47	115	149	165	188	1976122548
SAMEA6057952	71	97	117	154	316	459	557	710	1187962863
SAMEA6057953	71	98	119	162	341	494	614	809	3739441890
SAMEA6057954	71	98	119	165	349	506	633	837	1956504769
SAMEA6057955	53	64	74	98	228	322	389	493	991595657
SAMEA6057956	30	34	36	42	70	91	101	116	1182626999
SAMEA6057957	30	34	36	42	79	105	116	131	3767299920
SAMEA6057958	40	44	46	54	126	160	179	206	1196715248
SAMEA6057959	39	43	45	53	123	157	176	202	3407909860
SAMEA6057960	53	70	83	108	250	368	445	565	369799352
SAMEA6057961	76	104	127	178	407	584	719	950	1125868526
SAMEA6057962	71	98	119	164	344	499	619	814	348069331
SAMEA6057963	51	55	58	77	183	261	321	415	2832682801
SAMEA6057964	30	34	36	42	92	119	132	148	253668325
SAMEA6057965	30	34	36	42	99	127	142	160	2505055201
SAMEA6057966	59	79	93	120	263	385	465	594	3058090300
SAMEA6057967	47	51	54	64	153	210	254	328	1369428257
SAMEA6057968	53	71	85	110	252	370	447	567	2214131282
SAMEA6057969	71	98	119	165	349	506	633	837	3771168784
SAMEA6057970	67	87	101	129	275	404	485	624	3705466884
SAMEA6057971	53	69	82	107	248	366	443	561	2226198046
SAMEA6057972	53	63	71	94	211	293	357	455	2214094536
SAMEA6057973	71	97	118	156	318	461	562	734	1628356569
SAMEA6057974	30	34	36	42	92	119	132	148	2749052238
SAMEA6057975	55	74	88	114	257	378	457	585	4176814683
SAMEA6057976	54	72	86	111	253	372	449	575	2886544312
SAMEA6057977	54	72	86	111	253	371	448	573	2889159736
SAMEA6057978	31	35	37	44	101	134	149	170	3226778635
SAMEA6057979	53	70	83	108	250	368	445	565	369799352
SAMEA6057980	71	98	119	165	351	512	639	856	694804333
SAMEA6057981	76	104	127	177	393	567	702	932	4191609446
SAMEA6057982	47	51	54	66	157	214	258	332	3607723653
SAMEA6057983	70	91	109	138	289	419	510	652	1429914800
SAMEA6057984	30	34	36	42	96	124	139	155	1129886260
SAMEA6057985	52	56	60	79	186	264	324	418	2099756814
SAMEA6057986	47	51	54	66	164	229	278	362	1726178597
SAMEA6057987	20	23	24	25	31	32	33	38	3951509647
SAMEA6057988	71	97	118	156	323	467	573	755	3955554303
SAMEA6057989	47	51	54	66	164	229	276	356	154047229
SAMEA6057990	53	64	74	98	228	342	417	523	3689106981
SAMEA6057991	71	98	119	165	349	516	645	868	2092237870
SAMEA6057992	47	51	54	66	157	214	258	334	1933580368
SAMEA6057993	30	34	36	42	98	126	141	159	2149324063
SAMEA6057994	30	34	36	42	100	133	148	167	540154627
SAMEA6057995	53	64	74	98	228	322	394	498	981462233
SAMEA6057996	53	64	74	98	228	342	417	525	712171145
SAMEA6057997	71	97	118	156	320	463	564	741	4000706317
SAMEA6057998	47	51	54	66	164	231	279	364	1047953186
SAMEA6057999	30	34	36	42	81	107	118	133	4011705036
SAMEA6058000	55	75	89	115	258	379	458	587	1906648456
SAMEA6058001	53	64	74	98	228	322	396	500	3608836092
SAMEA6058002	53	64	74	98	228	342	417	523	3689106981
SAMEA6058003	71	97	118	156	320	463	566	743	425195510
SAMEA6058004	76	104	127	177	386	557	688	918	3277996230
SAMEA6058005	53	70	83	108	250	368	445	565	1486122305
SAMEA6058006	51	55	58	77	183	261	321	415	3381557550
SAMEA6058007	76	104	127	179	408	585	720	951	2122897195
SAMEA6058008	71	97	117	154	316	459	557	704	1049430488
SAMEA6058009	47	51	54	66	161	220	264	340	3656926106
SAMEA6058010	30	34	36	42	70	90	100	115	2805976478
SAMEA6058011	30	34	36	42	84	111	124	139	2785090485
SAMEA6058012	53	63	71	94	210	292	356	454	2807856567
SAMEA6058013	53	64	74	98	236	349	424	535	2141461211
SAMEA6058014	71	98	119	165	349	514	641	858	3985763154
SAMEA6058015	53	64	74	98	233	346	421	532	3558751345
SAMEA6058016	45	49	51	59	140	196	235	300	3535090616
SAMEA6058017	22	25	27	28	49	67	76	91	1725312660
SAMEA6058018	21	24	26	27	38	52	58	72	3269740316
SAMEA6058019	46	50	52	60	144	197	236	301	1085916272
SAMEA6058020	47	51	54	63	148	205	249	320	3451986447
SAMEA6058021	30	34	36	42	82	108	119	134	2748687129
SAMEA6058022	53	61	66	88	197	275	336	431	4160304014
SAMEA6058023	71	97	117	154	316	459	557	710	2573060546
SAMEA6058024	71	98	120	169	360	530	659	886	4015456623
SAMEA6058025	53	64	74	98	237	350	425	536	2544120144
SAMEA6058026	71	98	121	171	368	538	668	897	3721374781
SAMEA6058027	59	79	93	120	263	385	465	594	3367246647
SAMEA6058028	53	64	74	98	228	342	417	523	2049695059
SAMEA6058029	53	67	77	101	240	353	429	543	3085617205
SAMEA6058030	22	25	27	28	44	58	66	81	867610787
SAMEA6058031	22	25	27	28	44	59	67	82	1224946004
SAMEA6058032	53	64	74	98	228	322	395	499	3727045281
SAMEA6058033	53	67	79	103	243	361	438	555	3404057061
SAMEA6058034	61	81	95	122	266	391	472	604	1330506835
SAMEA6058035	49	53	56	74	180	258	318	412	1202507206
SAMEA6058036	53	67	77	101	240	353	429	543	190004010
SAMEA6058037	41	45	47	55	127	161	180	216	2058179511
SAMEA6058038	71	98	119	165	349	506	629	831	3032109946
SAMEA6058039	9	12	13	14	18	19	19	20	3217070887
SAMEA6058040	22	25	27	28	48	66	75	90	809621692
SAMEA6058041	21	24	26	27	40	44	49	59	3446429873
SAMEA6058042	21	24	26	27	38	54	62	77	821482254
SAMEA6058043	70	92	111	143	298	438	533	676	390027824
SAMEA6058044	53	61	67	90	199	277	338	433	99196088
SAMEA6058045	71	97	118	156	318	461	560	727	1606112596
SAMEA6058046	53	64	74	98	228	322	400	506	1352544445
SAMEA6058047	41	45	47	55	127	161	180	216	2058179511
SAMEA6058048	71	97	117	154	316	459	557	716	1475230613
SAMEA6058049	71	98	119	165	348	505	627	825	1755290590
SAMEA6058050	21	24	26	27	38	56	64	79	1766514603
SAMEA6058051	53	70	83	108	250	368	445	565	372165898
SAMEA6058052	8	11	12	12	16	17	17	18	1811388962
SAMEA6058053	30	34	36	42	95	123	138	154	3721020758
SAMEA6058054	30	34	36	42	100	131	146	164	4233927736
SAMEA6058055	68	89	103	131	279	408	496	638	211479331
SAMEA6058056	47	51	54	66	164	231	279	365	760532244
SAMEA6058057	47	51	54	66	164	233	286	374	3659395242
SAMEA6058058	71	98	119	165	349	506	629	831	1532076808
SAMEA6058059	41	45	47	55	127	161	180	216	2799848435
SAMEA6058060	41	45	47	55	127	161	180	213	2423363265
SAMEA6058061	25	29	31	36	63	82	92	107	1177051752
SAMEA6058062	47	51	54	66	164	237	291	379	1811102209
SAMEA6058063	71	98	119	165	349	516	645	869	3782864978
SAMEA6058064	30	34	36	42	76	100	111	126	2076631277
SAMEA6058065	71	98	119	165	348	505	627	827	1574429985
SAMEA6058066	21	24	26	27	35	36	40	48	335792716
SAMEA6058067	76	104	127	179	412	589	724	955	4163837923
SAMEA6058068	71	97	118	156	321	464	567	745	3579776874
SAMEA6058069	71	98	121	171	375	545	675	905	4211912742
SAMEA6058070	21	24	26	27	38	49	55	67	1026042828
SAMEA6058071	30	34	36	42	93	121	136	152	4122243389
SAMEA6058072	53	64	74	98	228	316	381	482	3907407263
SAMEA6058073	71	98	119	159	336	484	601	792	1689777132
SAMEA6058074	71	97	117	154	316	459	557	710	3909507788
SAMEA6058075	76	104	127	179	409	586	721	952	4224074303
SAMEA6058076	45	49	51	59	140	191	229	294	1626451810
SAMEA6058077	71	97	118	156	324	470	583	769	4281307846
SAMEA6058078	41	45	47	55	127	161	180	208	293936740
SAMEA6058079	71	98	119	165	349	506	631	835	4217872447
SAMEA6058080	76	103	126	176	384	554	684	914	1310541764
SAMEA6058081	45	49	51	59	136	177	207	262	1771397768
SAMEA6058082	53	63	71	94	206	287	349	446	2934835644
SAMEA6058083	21	24	26	27	38	41	46	56	4277609439
SAMEA6058084	53	63	71	94	209	291	355	453	567245301
SAMEA6058085	47	51	54	71	171	248	305	394	3697651424
SAMEA6058086	39	43	45	53	125	159	178	205	1644237794
SAMEA6058087	53	64	74	98	228	332	406	512	3542583572
SAMEA6058088	53	64	74	98	228	326	397	501	240011131
SAMEA6058089	7	10	11	11	13	13	13	14	708155731
SAMEA6058090	53	63	71	94	207	289	351	449	3511506752
SAMEA6058091	53	64	74	98	228	322	400	506	619403347
SAMEA6058092	71	97	118	156	327	473	586	773	2896862327
SAMEA6058093	59	79	93	120	263	385	465	594	1342233876
SAMEA6058094	17	20	21	22	27	28	28	31	2252441432
SAMEA6058095	53	71	85	110	252	370	447	568	1911532796
SAMEA6058096	53	64	74	98	228	317	382	483	3330084247
SAMEA6058097	76	104	127	177	396	581	716	947	3335147033
SAMEA6058098	21	24	26	27	38	43	48	58	1529334531
SAMEA6058099	71	94	114	151	313	455	553	700	1831203233
SAMEA6058100	71	97	118	156	323	467	580	766	971471675
SAMEA6058101	45	49	51	59	136	173	199	246	472256422
SAMEA6058102	53	63	71	94	207	289	352	450	1353509649
SAMEA6058103	47	51	54	66	157	214	258	333	946814520
SAMEA6058104	71	98	119	159	336	484	601	794	1847722699
SAMEA6058105	53	67	79	103	243	361	438	556	2806421829
SAMEA6058106	71	97	117	154	316	459	557	710	3551225392
SAMEA6058107	71	94	114	151	308	448	543	687	3455651266
SAMEA6058108	53	64	74	98	227	311	375	475	1032880779
SAMEA6058109	53	64	74	98	228	319	385	486	3570346208
SAMEA6058110	45	49	51	59	137	179	215	277	3896494801
SAMEA6058111	53	63	71	94	214	296	360	458	3545702230
SAMEA6058112	53	64	74	98	233	346	421	530	242690396
SAMEA6058113	53	64	74	98	228	342	417	523	920819779
SAMEA6058114	71	98	119	165	349	507	630	834	297654591
SAMEA6058115	53	65	75	99	238	351	426	537	1119591448
SAMEA6058116	47	51	54	63	151	208	252	323	1258825845
SAMEA6058117	53	64	74	98	228	342	417	523	3039302455
SAMEA6058118	53	67	77	101	240	353	429	543	1279367075
SAMEA6058119	47	51	54	63	152	209	253	324	382671407
SAMEA6058120	53	70	83	108	249	367	444	564	2914554405
SAMEA6058121	53	64	74	98	228	322	400	505	2693798271
SAMEA6058122	47	51	54	66	164	229	278	361	2093128122
SAMEA6058123	53	63	71	94	215	297	361	459	3209959984
SAMEA6058124	20	23	24	25	31	32	34	39	673519778
SAMEA6058125	71	98	119	158	334	482	596	785	3801542643
SAMEA6058126	53	63	71	94	206	287	349	445	3413121665
SAMEA6058127	70	91	109	138	289	426	517	659	505429665
SAMEA6058128	71	97	118	156	323	467	579	764	1523642527
SAMEA6058129	30	34	36	42	83	110	121	136	3072048026
SAMEA6058130	71	98	119	165	349	506	629	846	1213189414
SAMEA6058131	66	86	100	127	271	396	477	615	891943627
SAMEA6058132	36	40	42	49	117	151	167	191	1543243070
SAMEA6058133	53	64	74	98	228	342	417	525	712171145
SAMEA6058134	71	98	120	169	364	534	664	893	2241965027
SAMEA6058135	21	24	26	27	38	47	52	63	306769865
SAMEA6058136	47	51	54	63	148	204	248	319	554074216
SAMEA6058137	30	34	36	42	100	133	148	168	3535651651
SAMEA6058138	30	34	36	42	100	131	146	165	1867550861
SAMEA6058139	82	111	135	188	428	605	741	972	308295358
SAMEA6058140	42	46	48	56	131	165	185	226	2535646807
SAMEA6058141	71	97	118	156	323	468	574	758	3101041093
SAMEA6058142	21	24	26	27	38	41	46	56	1247933452
SAMEA6058143	53	64	74	98	228	338	412	518	686774892
SAMEA6058144	17	20	21	22	27	28	28	31	2370971737
SAMEA6058145	76	104	127	177	396	571	706	937	2623999484
SAMEA6058146	76	104	127	177	389	561	693	923	1842301079
SAMEA6058147	76	104	127	177	392	566	699	929	73475458
SAMEA6058148	45	49	51	59	135	170	192	235	3119748185
SAMEA6058149	30	34	36	42	93	121	135	151	9339289
SAMEA6058150	42	46	48	56	131	165	185	226	3503109865
SAMEA6058151	41	45	47	55	127	161	180	216	2799848435
SAMEA6058152	47	51	54	68	166	240	294	383	3399045684
SAMEA6058153	52	56	59	78	184	262	322	416	935476127
SAMEA6058154	27	31	33	38	65	84	94	109	1474926858
SAMEA6058155	58	78	92	118	261	382	462	591	1915161011
SAMEA6058156	47	51	54	66	164	229	278	359	3006440548
SAMEA6058157	30	34	36	42	97	125	140	156	3936899781
SAMEA6058158	47	51	54	71	176	253	312	405	875750045
SAMEA6058159	30	34	36	42	69	88	98	113	4099106162
SAMEA6058160	30	34	36	42	92	119	132	148	2755607410
SAMEA6058161	76	104	127	177	391	565	698	928	3123946452
SAMEA6058162	68	89	103	131	279	408	495	637	659510601
SAMEA6058163	22	26	28	30	52	70	79	94	3816481352
SAMEA6058164	37	41	43	50	118	152	169	193	2530573644
SAMEA6058165	53	70	83	108	250	368	445	565	369799352
SAMEA6058166	76	104	127	179	411	588	723	954	3459203098
SAMEA6058167	76	104	127	177	389	563	695	925	58280218
SAMEA6058169	69	90	107	136	284	414	504	646	1649310118
SAMEA6058170	70	92	112	144	299	439	534	677	106379096
SAMEA6058171	53	67	79	103	243	361	437	554	1601671626
SAMEA6058172	53	64	74	98	228	325	392	496	1969032951
SAMEA6058173	41	45	47	55	127	161	180	216	2824350871
SAMEA6058174	71	97	118	156	318	461	560	729	877877627
SAMEA6058175	71	98	119	165	349	518	647	874	2236531381
SAMEA6058176	47	51	54	69	169	244	300	389	3727015527
SAMEA6058177	53	64	74	98	228	342	417	523	3689106981
SAMEA6058178	45	49	51	59	136	173	199	245	2620122897
SAMEA6058179	48	52	55	73	179	257	317	410	3237257148
SAMEA6058180	71	97	117	154	316	459	557	710	1993694117
SAMEA6058181	71	97	118	156	321	465	568	747	4052876042
SAMEA6058182	53	64	74	98	228	322	400	506	3215356446
SAMEA6058183	71	98	119	165	349	506	629	841	1457627257
SAMEA6058184	54	73	87	113	255	376	454	580	350614010
SAMEA6058185	60	80	94	121	264	388	468	598	146829553
SAMEA6058186	54	72	86	111	253	374	451	577	4260933654
SAMEA6058187	53	64	74	98	228	342	417	523	3689106981
SAMEA6058188	71	97	118	156	323	467	576	760	3328848302
SAMEA6058189	76	104	127	177	405	582	717	948	3063572629
SAMEA6058190	45	49	51	59	136	177	207	264	3808019530
SAMEA6058191	47	51	54	63	152	209	253	326	474790737
SAMEA6058192	46	50	52	60	144	198	237	302	637699906
SAMEA6058193	71	97	118	156	329	477	590	778	740343268
SAMEA6058194	30	34	36	42	93	121	134	150	3385179283
SAMEA6058195	71	98	119	164	343	498	618	813	3037448976
SAMEA6058196	71	98	119	165	349	506	629	831	3032109946
SAMEA6058197	76	104	127	177	406	583	718	949	3879192941
SAMEA6058198	67	87	101	129	275	405	487	626	2305235704
SAMEA6058199	67	87	101	129	275	401	482	621	3811551118
SAMEA6058200	71	97	117	154	316	458	556	703	918026922
SAMEA6058201	45	49	51	59	140	187	225	289	127074460
SAMEA6058202	56	76	90	116	259	380	460	589	52791977
SAMEA6058203	21	24	26	27	38	56	64	79	1497920178
SAMEA6058204	53	67	78	102	241	354	430	544	3868797601
SAMEA6058205	53	67	78	102	241	354	430	545	3513239841
SAMEA6058206	45	49	51	59	136	177	207	261	2974235528
SAMEA6058207	53	64	74	98	228	335	409	515	660728722
SAMEA6058208	61	81	95	122	266	391	472	603	4036006561
SAMEA6058209	53	63	71	94	207	289	353	451	1829925731
SAMEA6058210	53	69	81	106	247	365	442	560	2016001597
SAMEA6058211	53	63	71	94	207	289	351	448	935563364
SAMEA6058212	64	84	98	125	269	394	475	612	1823433217
SAMEA6058213	53	61	67	90	202	281	342	437	2132959407
SAMEA6058214	45	49	51	59	140	195	233	298	763928791
SAMEA6058215	76	103	126	176	385	556	686	916	1954039522
SAMEA6058216	71	97	118	156	318	461	562	736	2714787033
SAMEA6058217	45	49	51	59	137	178	214	276	35616637
SAMEA6058218	71	97	118	156	318	461	562	735	3815599840
SAMEA6058219	71	98	119	165	349	514	643	862	3604838207
SAMEA6058220	53	64	74	98	228	342	417	523	3689106981
SAMEA6058221	71	97	117	154	316	459	557	710	4061112395
SAMEA6058222	71	94	114	151	312	453	551	698	4146406976
SAMEA6058223	72	99	122	172	380	550	680	910	3741099253
SAMEA6058224	76	104	127	177	389	560	691	921	2524563635
SAMEA6058225	64	84	98	125	269	394	475	610	777835959
SAMEA6058226	53	64	74	98	228	322	388	489	2432242398
SAMEA6058227	53	64	74	98	228	339	413	519	4272771404
SAMEA6058228	44	48	50	58	134	169	191	233	1151671691
SAMEA6058229	71	97	117	154	316	459	557	710	1843055640
SAMEA6058230	71	98	119	165	349	514	643	862	3604838207
SAMEA6058231	60	80	94	121	264	387	467	597	528788328
SAMEA6058232	60	80	94	121	264	389	469	599	42242194
SAMEA6058233	9	12	13	14	18	19	19	21	4024770345
SAMEA6058234	41	45	47	55	127	161	180	216	1937120537
SAMEA6058235	64	84	98	125	269	394	475	611	3199463501
SAMEA6058236	53	64	74	98	228	322	388	489	2432242398
SAMEA6058237	70	91	109	140	294	433	528	671	3113310981
SAMEA6058238	70	91	109	138	291	424	515	657	1786035863
SAMEA6058239	71	97	118	156	318	461	562	738	802811649
SAMEA6058240	30	34	36	42	75	99	110	125	1770344982
SAMEA6058241	71	98	119	165	349	514	643	862	3604838207
SAMEA6058242	71	98	119	165	349	510	637	854	3628247138
SAMEA6058243	20	23	24	25	31	32	33	37	3982322233
SAMEA6058244	53	64	74	98	228	342	416	522	2818130632
SAMEA6058245	53	64	74	98	233	346	421	531	4063652500
SAMEA6058246	53	64	74	98	228	342	417	523	3689106981
SAMEA6058247	21	24	25	26	32	33	36	43	1567625936
SAMEA6058248	53	71	84	109	251	369	446	566	1038657166
SAMEA6058249	71	97	118	156	318	461	562	733	1512514072
SAMEA6058250	45	49	51	59	140	182	218	280	3438354774
SAMEA6058251	60	80	94	121	264	389	470	600	292464276
SAMEA6058252	53	64	74	98	228	342	417	524	1084957316
SAMEA6058253	71	98	119	162	341	493	612	806	2544567521
SAMEA6058254	70	91	109	138	289	429	521	663	3879176892
SAMEA6058255	53	64	74	97	221	304	368	468	2283893572
SAMEA6058256	71	97	118	156	318	461	562	737	3911192205
SAMEA6058257	30	34	36	42	80	106	117	132	3503569545
SAMEA6058258	30	34	36	42	83	110	123	138	1688298418
SAMEA6058259	53	64	74	98	228	323	390	494	1505780733
SAMEA6058260	21	24	26	27	38	41	46	56	3723743811
SAMEA6058261	71	97	117	154	316	459	557	710	2365399635
SAMEA6058262	70	91	109	140	294	433	528	670	3951663545
SAMEA6058263	53	64	74	98	224	308	372	472	1849144960
SAMEA6058264	71	97	118	156	318	461	560	727	737413964
SAMEA6058265	45	49	51	59	136	173	201	252	2609794137
SAMEA6058266	30	34	36	42	87	114	127	142	2331064550
SAMEA6058267	30	34	36	42	92	119	132	148	253668325
SAMEA6058268	53	63	71	94	213	295	359	457	1844900739
SAMEA6058269	41	45	47	55	127	161	180	218	3245990973
SAMEA6058270	60	80	94	121	264	386	466	596	497958300
SAMEA6058271	60	80	94	121	264	386	466	596	2704762026
SAMEA6058272	21	24	26	27	38	56	64	79	1766514603
SAMEA6058273	47	51	54	66	164	229	277	358	1724384346
SAMEA6058274	21	24	26	27	38	41	46	55	3081518817
SAMEA6058275	21	24	26	27	37	40	45	53	2564061589
SAMEA6058276	53	67	77	101	240	353	429	543	4268183113
SAMEA6058277	45	49	51	59	140	182	219	281	2928752523
SAMEA6058278	60	80	94	121	264	386	466	596	3133203457
SAMEA6058279	47	51	54	70	170	245	301	390	483596908
SAMEA6058280	55	75	89	115	258	379	459	588	3290969796
SAMEA6058281	45	49	51	59	136	173	199	244	1440439336
SAMEA6058282	37	41	43	50	118	152	168	192	3232294643
SAMEA6058283	21	24	26	27	38	41	46	56	514226311
SAMEA6058284	47	51	54	66	159	218	262	338	452954975
SAMEA6058285	53	67	77	101	240	353	429	543	3077244981
SAMEA6058286	71	98	119	165	352	515	644	867	3558927495
SAMEA6058287	54	72	86	111	253	373	450	576	626310456
SAMEA6058288	2	3	3	3	3	3	3	3	1212803291
SAMEA6058289	71	98	119	167	355	525	654	881	4062236855
SAMEA6058290	47	51	53	61	145	199	239	304	631896960
SAMEA6058291	76	104	127	177	398	574	709	940	2882032979
SAMEA6058292	53	64	74	98	226	310	374	474	833510169
SAMEA6058293	83	112	136	189	429	606	742	973	3450435667
SAMEA6058294	53	57	61	80	187	265	325	419	1057929075
SAMEA6058295	60	80	94	121	264	389	470	600	1384549657
SAMEA6058296	47	51	54	66	164	230	274	353	2276956404
SAMEA6058297	21	24	26	27	37	40	45	53	3385601038
SAMEA6058298	45	49	51	59	140	189	227	291	3648818493
SAMEA6058299	71	97	118	156	325	471	584	771	3916322015
SAMEA6058300	51	55	58	77	183	261	321	415	2040140075
SAMEA6058301	71	97	117	154	316	459	557	710	1993694117
SAMEA6058302	76	104	127	179	414	591	726	957	806009104
SAMEA6058303	71	98	119	159	336	484	606	799	4160809792
SAMEA6058304	71	97	118	156	318	461	561	731	661562071
SAMEA6058305	53	61	67	89	198	276	337	432	863197027
SAMEA6058306	53	63	71	94	218	300	364	462	1625813398
SAMEA6058307	71	98	120	169	363	533	663	892	2741186070
SAMEA6058308	71	98	119	158	335	483	599	789	1330953650
SAMEA6058309	71	98	119	165	349	506	629	831	186536654
SAMEA6058310	71	98	119	165	349	506	629	831	3544280146
SAMEA6058311	21	24	26	27	38	41	46	56	4277609439
SAMEA6058312	67	87	101	129	273	399	480	618	1038387673
SAMEA6058313	53	64	74	98	228	322	400	506	4281601153
SAMEA6058314	30	34	36	42	83	109	120	135	2062455165
SAMEA6058315	68	89	104	132	280	410	498	640	933744087
SAMEA6058316	45	49	51	59	136	177	213	275	1444110382
SAMEA6058317	54	73	87	112	254	375	453	579	1606314623
SAMEA6058318	54	73	87	113	256	377	456	582	1159092899
SAMEA6058319	71	98	119	165	349	506	629	848	1498048584
SAMEA6058320	71	94	114	151	307	447	542	686	1105234711
SAMEA6058321	71	97	118	156	330	478	592	780	3605050825
SAMEA6058322	71	98	119	165	349	506	629	831	2224621614
SAMEA6058323	21	24	26	27	38	41	46	56	3528065744
SAMEA6058324	70	91	109	140	294	431	524	666	2004809322
SAMEA6058325	71	98	119	158	335	483	598	787	4188195273
SAMEA6058326	45	49	51	59	140	196	234	299	1807311085
SAMEA6058327	47	51	54	68	167	242	296	385	3446251052
SAMEA6058328	21	24	26	27	42	48	54	66	3794736900
SAMEA6058329	45	49	51	59	140	185	223	286	3240902381
SAMEA6058330	30	34	36	42	73	97	108	123	4182562292
SAMEA6058331	71	98	121	170	367	537	667	896	406002856
SAMEA6058332	76	104	127	177	390	564	697	927	1404661236
SAMEA6058333	53	64	74	98	228	322	389	492	502680291
SAMEA6058334	45	49	51	59	140	193	231	296	1822399219
SAMEA6058335	30	34	36	42	77	101	112	127	2934576208
SAMEA6058336	9	12	13	14	18	19	19	22	1503207648
SAMEA6058337	71	98	119	165	350	511	638	855	2342799232
SAMEA6058338	71	98	119	165	349	506	629	831	370291632
SAMEA6058339	54	73	87	113	256	377	456	583	1290125312
SAMEA6058340	71	98	119	165	349	506	629	842	2192658335
SAMEA6058341	71	98	119	158	335	483	597	786	447759932
SAMEA6058342	45	49	51	59	136	177	207	264	502227616
SAMEA6058343	47	51	54	71	174	251	310	401	3685572163
SAMEA6058344	71	98	119	165	349	517	646	873	3383422257
SAMEA6058345	76	104	127	177	397	573	708	939	4254628673
SAMEA6058346	70	91	109	140	294	433	526	668	3236770071
SAMEA6058347	53	67	78	102	241	354	430	547	4114842776
SAMEA6058348	45	49	51	59	136	173	201	253	536580138
SAMEA6058349	71	98	121	171	371	541	671	900	3082849314
SAMEA6058350	47	51	54	71	174	251	310	403	1183440255
SAMEA6058351	66	86	100	128	272	397	478	616	701353230
SAMEA6058352	30	34	36	42	74	98	109	124	681149274
SAMEA6058353	21	24	26	27	38	56	64	79	2403418193
SAMEA6058354	71	98	121	171	377	547	677	907	4084635506
SAMEA6058355	76	104	127	177	392	566	700	930	1345371478
SAMEA6058356	2	2	2	2	2	2	2	2	1273602738
SAMEA6058357	71	97	118	155	317	460	558	724	1047169519
SAMEA6058358	53	64	74	98	228	322	398	502	1052540052
SAMEA6058359	71	98	119	165	349	506	629	842	2738607613
SAMEA6058360	45	49	51	59	136	173	201	250	1175039178
SAMEA6058361	47	51	54	71	171	248	307	396	238553505
SAMEA6058362	30	34	36	42	71	94	105	120	3362194375
SAMEA6058363	40	44	46	54	126	160	179	207	3999285876
SAMEA6058364	54	72	86	111	253	374	452	578	518502805
SAMEA6058365	53	66	76	100	239	352	427	538	2630639610
SAMEA6058366	53	64	74	98	228	342	417	523	3689106981
SAMEA6058367	53	64	74	98	228	333	407	513	144349552
SAMEA6058368	71	94	114	151	308	449	544	688	1850693919
SAMEA6058369	70	91	109	138	291	423	514	656	2241447866
SAMEA6058370	71	98	119	165	349	506	629	842	3087807296
SAMEA6058371	47	51	54	71	171	246	302	391	1124621498
SAMEA6058372	53	63	71	94	217	299	363	461	3622179677
SAMEA6058373	21	24	26	27	38	56	64	79	3243861405
SAMEA6058374	47	51	54	71	176	254	314	407	845583184
SAMEA6058375	71	97	118	156	323	467	573	756	2473842466
SAMEA6058376	71	97	118	156	318	461	562	735	2499458696
SAMEA6058377	71	98	119	165	349	506	629	842	45115920
SAMEA6058378	47	51	54	71	177	255	315	408	101991508
SAMEA6058379	71	97	118	156	327	474	587	774	2188453447
SAMEA6058380	53	64	74	98	228	342	417	524	2638706257
SAMEA6058381	53	64	74	98	228	320	386	487	2945029023
SAMEA6058382	71	94	114	148	304	444	539	683	1479724798
SAMEA6058383	71	94	114	150	306	446	541	685	2716663336
SAMEA6058384	65	85	99	126	270	395	476	614	3189175473
SAMEA6058385	53	64	74	98	222	305	369	469	2267988785
SAMEA6058386	46	50	52	60	144	198	238	303	1737959545
SAMEA6058387	71	98	120	169	360	530	659	886	1581341563
SAMEA6058388	71	98	119	165	349	506	629	841	3547283972
SAMEA6058389	30	34	36	42	97	125	140	157	2602064829
SAMEA6058390	21	24	26	27	37	38	43	51	2233937852
SAMEA6058391	51	55	58	76	182	260	320	414	2645039182
SAMEA6058392	70	91	109	139	293	430	522	664	2258012571
SAMEA6058393	71	98	119	165	349	506	629	840	2669915899
SAMEA6058394	70	91	109	140	294	432	525	667	3876169327
SAMEA6058395	71	98	119	165	349	506	629	832	2471880992
SAMEA6058396	67	87	101	129	276	402	483	622	3120412517
SAMEA6058397	71	97	118	156	323	468	574	757	3577873485
SAMEA6058398	71	98	119	165	349	506	629	833	3569356101
SAMEA6058399	47	51	54	71	171	247	303	392	1523099594
SAMEA6058400	67	87	101	129	275	405	486	625	2884218166
SAMEA6058401	71	98	119	165	347	504	626	823	195843577
SAMEA6058402	43	47	49	57	133	168	190	231	3798011100
SAMEA6058403	47	51	54	71	174	251	310	402	1096765651
SAMEA6058404	71	98	119	161	339	491	610	804	3493023941
SAMEA6058405	53	64	74	98	228	342	417	523	4118433843
SAMEA6058406	76	104	127	179	415	592	727	958	3089114694
SAMEA6058407	71	98	119	165	349	506	629	840	3386593576
SAMEA6058408	53	64	74	98	228	342	417	523	4118433843
SAMEA6058409	76	104	127	177	404	580	715	946	1661535658
SAMEA6058410	71	98	121	171	374	544	674	904	2064617049
SAMEA6058411	18	21	22	23	28	29	29	32	2273222945
SAMEA6058412	71	94	114	151	308	449	544	688	3768441106
SAMEA6058413	21	24	26	27	38	47	53	64	2387359474
SAMEA6058414	30	34	36	42	91	118	131	146	1572320538
SAMEA6058415	71	98	121	171	372	542	672	902	2779219850
SAMEA6058416	41	45	47	55	127	161	180	213	3574212
SAMEA6058417	22	25	27	28	46	62	71	86	3310151307
SAMEA6058418	71	97	118	156	322	466	570	752	176535834
SAMEA6058419	30	34	36	42	71	94	104	119	601169607
SAMEA6058420	71	98	119	165	349	514	641	859	4073780574
SAMEA6058421	53	64	74	98	228	341	415	521	1947968804
SAMEA6058422	68	89	103	131	279	408	494	634	3138460856
SAMEA6058423	53	64	74	98	228	342	417	523	3689106981
SAMEA6058424	71	97	118	156	322	466	570	751	3747791259
SAMEA6058425	55	75	89	115	258	379	459	588	3290969796
SAMEA6058426	53	67	77	101	240	353	429	543	1643411942
SAMEA6058427	30	34	36	42	100	130	145	163	998751869
SAMEA6058428	71	97	117	154	316	459	557	710	518775785
SAMEA6058429	71	97	118	156	323	467	577	762	3651931855
SAMEA6058430	47	51	54	66	158	217	261	337	3250866161
SAMEA6058431	47	51	54	66	158	217	261	337	2287112913
SAMEA6058432	53	61	66	87	196	274	335	430	1200293262
SAMEA6058433	71	98	119	165	349	508	634	850	1320283882
SAMEA6058434	71	94	114	151	313	455	553	700	3554342672
SAMEA6058435	71	98	121	171	370	540	670	899	333348947
SAMEA6058436	41	45	47	55	127	161	180	216	3881775462
SAMEA6058437	43	47	49	57	133	168	189	230	1568310000
SAMEA6058438	71	98	119	165	349	506	629	831	370291632
SAMEA6058439	71	97	117	154	316	459	557	705	436155417
SAMEA6058440	45	49	51	59	136	177	207	260	506348029
SAMEA6058441	71	98	119	160	337	489	608	802	1151314083
SAMEA6058442	71	98	119	165	349	506	629	831	1577792727
SAMEA6058443	76	104	127	179	413	590	725	956	4213899364
SAMEA6058444	45	49	51	59	138	180	216	278	3129281028
SAMEA6058445	21	24	26	27	38	41	46	56	4277609439
SAMEA6058446	71	98	119	162	340	492	611	805	1572887867
SAMEA6058447	47	51	54	66	164	231	282	368	1540826522
SAMEA6058448	21	24	26	27	38	41	46	56	4277609439
SAMEA6058449	53	60	65	85	193	271	331	426	1087613918
SAMEA6058450	24	28	30	35	60	78	87	102	4275730780
SAMEA6058451	41	45	47	55	127	161	180	210	3059560327
SAMEA6058452	47	51	54	66	164	231	282	370	728260629
SAMEA6058453	71	98	119	165	348	505	627	828	414742514
SAMEA6058454	71	98	119	162	341	495	615	810	2579004743
SAMEA6058455	71	97	118	156	327	474	587	775	298376541
SAMEA6058456	42	46	48	56	130	164	184	225	1196300906
SAMEA6058457	41	45	47	55	127	161	180	217	2275366763
SAMEA6058458	64	84	98	125	269	394	475	607	190707736
SAMEA6058459	53	71	85	110	252	370	447	567	2214131282
SAMEA6058460	26	30	32	37	64	83	93	108	3007396570
SAMEA6058461	53	64	74	98	223	306	370	470	4006874449
SAMEA6058462	10	13	14	15	19	20	20	23	74373143
SAMEA6058463	41	45	47	55	129	163	183	223	90735095
SAMEA6058464	45	49	51	59	140	188	226	290	3356155711
SAMEA6058465	68	89	105	133	281	411	499	641	1590661533
SAMEA6058466	53	63	71	94	206	286	347	443	1521025208
SAMEA6058467	47	51	54	71	172	249	308	398	2615045881
SAMEA6058468	7	10	11	11	13	14	14	15	1433596760
SAMEA6058469	53	66	76	100	239	352	428	540	1754714500
SAMEA6058470	23	27	29	34	57	75	84	99	2282992967
SAMEA6058471	41	45	47	55	127	161	180	211	3525093977
SAMEA6058472	71	98	119	165	346	502	624	819	1105240897
SAMEA6058473	53	63	71	94	206	287	348	444	1254446031
SAMEA6058474	71	97	118	156	318	461	561	732	2381298484
SAMEA6058475	76	104	127	177	389	560	692	922	786428038
SAMEA6058476	45	49	51	59	140	192	230	295	2651490690
SAMEA6058477	71	98	119	165	349	506	629	848	1288168541
SAMEA6058478	47	51	54	66	164	229	276	355	876501167
SAMEA6058479	53	62	69	92	204	283	344	440	150670994
SAMEA6058480	71	98	119	165	349	506	629	842	3266664257
SAMEA6058481	30	34	36	42	90	117	130	145	393814410
SAMEA6058482	71	97	117	154	316	459	557	710	1264105081
SAMEA6058483	53	64	74	98	228	342	417	523	4118433843
SAMEA6058484	71	94	114	151	308	449	544	692	1259671115
SAMEA6058485	53	67	77	101	240	353	429	542	1628235631
SAMEA6058486	22	26	28	30	53	71	80	95	2289787906
SAMEA6058487	53	64	74	98	228	336	410	516	4228373854
SAMEA6058488	71	98	119	165	349	514	643	862	4274950214
SAMEA6058489	71	98	119	165	349	514	643	865	420523498
SAMEA6058490	45	49	51	59	136	173	197	242	3264455211
SAMEA6058491	71	98	119	165	349	514	643	865	1539979897
SAMEA6058492	71	97	117	154	316	459	557	710	1016966581
SAMEA6058493	59	79	93	119	262	383	463	592	528149562
SAMEA6058494	71	98	119	165	349	506	629	831	370291632
SAMEA6058495	21	24	26	27	38	51	57	70	1091629384
SAMEA6058496	53	66	76	100	239	352	428	539	125246766
SAMEA6058497	71	98	119	165	349	506	629	840	2669915899
SAMEA6058498	71	98	119	165	349	506	629	831	370291632
SAMEA6058499	71	94	114	151	308	449	544	688	1430960514
SAMEA6058500	21	24	26	27	38	41	46	56	1247933452
SAMEA6058501	53	64	74	98	230	330	404	510	3619721524
SAMEA6058502	53	60	65	85	193	271	331	425	1422526225
SAMEA6058503	7	10	11	11	14	15	15	16	2771741560
SAMEA6058504	11	14	15	16	20	21	21	24	4082001800
SAMEA6058505	53	64	74	98	228	324	391	495	3660314834
SAMEA6058506	45	49	51	59	136	177	209	267	1506464353
SAMEA6058507	47	51	54	68	166	239	293	382	1744618286
SAMEA6058508	71	98	119	165	349	506	629	843	3760471235
SAMEA6058509	9	12	13	13	17	18	18	19	1433737033
SAMEA6058510	53	68	80	105	246	364	441	559	3967484171
SAMEA6058511	71	98	119	168	359	529	658	885	4263399832
SAMEA6058512	71	98	121	171	374	544	674	904	263291820
SAMEA6058513	41	45	47	55	129	163	183	224	3773113261
SAMEA6058514	68	89	106	135	283	413	501	643	1237792393
SAMEA6058515	71	98	121	171	372	542	672	902	2208477346
SAMEA6058516	45	49	51	59	136	177	207	263	1438443590
SAMEA6058517	71	97	118	156	321	465	569	750	1693791722
SAMEA6058518	71	97	117	154	316	459	557	709	3568497661
SAMEA6058519	64	84	98	125	269	394	475	613	2074665488
SAMEA6058520	53	64	74	98	228	341	415	521	3648105932
SAMEA6058521	71	98	119	165	346	502	624	819	3919345009
SAMEA6058522	62	82	96	123	267	392	473	605	3456193170
SAMEA6058523	53	58	63	82	189	267	327	421	2859588530
SAMEA6058524	62	82	96	123	267	392	473	605	72225361
SAMEA6058525	67	87	101	129	273	398	479	617	2537327757
SAMEA6058526	71	97	117	154	316	459	557	710	2750576404
SAMEA6058527	71	98	119	165	347	503	625	821	3506312081
SAMEA6058528	53	63	71	94	216	298	362	460	3355940045
SAMEA6058529	53	63	72	95	219	302	366	465	3229671038
SAMEA6058530	71	98	119	165	349	508	634	851	4061575435
SAMEA6058531	53	68	80	104	244	362	439	557	1561340163
SAMEA6058532	21	24	26	27	38	46	51	62	73302462
SAMEA6058533	71	97	117	154	316	459	557	710	2345278967
SAMEA6058534	71	98	119	165	349	506	629	830	2173585047
SAMEA6058535	71	95	115	152	314	456	554	701	2118233122
SAMEA6058536	71	97	117	154	316	459	557	710	380866460
SAMEA6058537	53	64	74	98	228	337	411	517	362512405
SAMEA6058538	71	97	118	156	320	463	566	744	4111054939
SAMEA6058539	47	51	54	71	174	251	310	400	3733468256
SAMEA6058540	30	34	36	42	70	89	99	114	2959918607
SAMEA6058541	53	64	74	98	228	342	417	525	712171145
SAMEA6058542	70	91	109	138	287	417	508	650	3869347566
SAMEA6058543	30	34	36	43	88	115	128	143	2446493325
SAMEA6058544	39	43	45	53	123	157	176	201	423103245
SAMEA6058545	71	98	119	158	335	483	599	788	3876500871
SAMEA6058546	71	98	119	165	349	506	629	847	3859003041
SAMEA6058547	22	25	27	28	43	57	65	80	1471584905
SAMEA6058548	53	64	74	98	228	331	405	511	1065113578
SAMEA6058549	71	94	114	151	313	454	552	699	433234258
SAMEA6058550	71	98	119	165	348	505	627	828	3655320497
SAMEA6058551	68	89	103	131	279	408	494	635	225713854
SAMEA6058552	41	45	47	55	128	162	181	221	1251647239
SAMEA6058553	71	93	113	145	300	440	535	678	767626184
SAMEA6058554	22	26	28	32	55	73	82	97	1133566014
SAMEA6058555	68	89	105	133	281	411	499	641	41931981
SAMEA6058556	41	45	47	55	129	163	182	222	3082111940
SAMEA6058557	41	45	47	55	127	161	180	218	3521141080
SAMEA6058558	21	24	26	27	38	41	46	56	1247933452
SAMEA6058559	68	89	103	131	279	408	491	630	858155906
SAMEA6058560	68	89	105	133	281	411	499	641	1009780474
SAMEA6058561	22	25	27	28	50	68	77	92	1022120511
SAMEA6058562	71	98	119	165	349	514	643	862	3604838207
SAMEA6058563	53	64	74	98	228	328	402	508	2110016950
SAMEA6058564	45	49	51	59	135	170	193	236	1497578032
SAMEA6058565	53	63	71	94	206	286	347	443	571526727
SAMEA6058566	71	97	118	156	330	478	592	781	1033012950
SAMEA6058567	53	64	74	98	228	342	417	525	712171145
SAMEA6058568	33	37	39	46	114	148	164	187	2317907845
SAMEA6058569	55	75	89	115	258	379	459	588	2005457240
SAMEA6058570	71	97	118	156	323	469	575	759	588707039
SAMEA6058571	70	91	109	140	294	433	527	669	2774020615
SAMEA6058572	71	98	119	165	346	502	624	819	1105240897
SAMEA6058573	71	97	118	156	329	477	591	779	717841808
SAMEA6058574	41	45	47	55	127	161	180	220	696537277
SAMEA6058575	71	98	119	165	348	505	627	826	2243215089
SAMEA6058576	76	104	127	179	410	587	722	953	518503633
SAMEA6058577	53	64	74	98	228	312	376	476	1737554344
SAMEA6058578	71	97	118	156	325	471	584	771	467748207
SAMEA6058579	71	98	119	165	349	514	643	861	1113495388
SAMEA6058580	71	98	119	165	349	514	643	861	3193218550
SAMEA6058581	71	94	114	151	308	449	547	691	1984092457
SAMEA6058582	71	97	118	156	325	471	584	770	1042255628
SAMEA6058583	45	49	51	59	140	186	224	287	807974126
SAMEA6058584	71	98	119	165	349	506	629	831	2867580173
SAMEA6058585	71	98	119	165	349	514	643	862	3656305260
SAMEA6058586	71	98	119	162	341	496	616	811	733256916
SAMEA6058587	53	63	71	94	207	288	350	447	2302657270
SAMEA6058588	71	97	117	154	316	459	557	710	1187962863
SAMEA6058589	71	98	119	165	349	514	643	861	1782696612
SAMEA6058590	41	45	47	55	127	161	180	213	2750699803
SAMEA6058591	71	98	119	165	349	506	629	831	370291632
SAMEA6058592	70	91	109	138	288	418	509	651	567508606
SAMEA6058593	49	53	56	74	180	258	318	411	1679304197
SAMEA6058594	30	34	36	42	72	95	106	121	151272357
SAMEA6058595	71	98	119	165	349	514	643	862	2943226086
SAMEA6058596	68	89	103	131	279	408	494	636	3986921495
SAMEA6058597	41	45	47	55	127	161	180	215	171137229
SAMEA6058598	71	98	119	165	349	506	629	831	3543510069
SAMEA6058599	71	97	118	156	320	463	566	744	4114184317
SAMEA6058600	49	53	56	74	180	258	318	412	526276428
SAMEA6058601	71	97	117	154	316	459	557	710	747979426
SAMEA6058602	47	51	53	61	145	199	239	304	631896960
SAMEA6058603	71	98	121	171	375	545	675	905	588353945
SAMEA6058604	68	89	103	131	279	408	492	632	363258323
SAMEA6058605	71	97	117	154	316	459	557	710	1993694117
SAMEA6058606	71	97	118	156	320	463	566	744	4114184317
SAMEA6058607	71	98	119	165	349	519	648	875	745799176
SAMEA6058608	45	49	51	59	140	186	224	288	377238445
SAMEA6058609	21	24	26	27	38	41	46	56	1247933452
SAMEA6058610	53	64	74	98	228	342	417	523	4113815847
SAMEA6058611	70	92	110	141	295	434	529	672	2738705769
SAMEA6058612	45	49	51	59	136	173	196	239	2808123051
SAMEA6058613	68	89	106	135	283	413	503	645	3690276495
SAMEA6058614	71	97	117	154	316	459	557	710	4024629685
SAMEA6058615	22	25	27	28	44	60	68	83	2639558824
SAMEA6058616	30	34	36	42	100	129	144	162	4069080292
SAMEA6058617	71	97	117	154	316	459	557	710	3861559603
SAMEA6058618	22	25	27	28	50	68	77	92	1022120511
SAMEA6058619	71	97	118	156	321	465	569	749	469614705
SAMEA6058620	51	55	58	77	183	261	321	415	2040140075
SAMEA6058621	71	97	118	156	323	467	582	768	738372357
SAMEA6058622	71	97	117	154	316	459	557	708	2348241715
SAMEA6058623	53	64	74	98	228	322	389	490	440468074
SAMEA6058624	71	98	119	165	349	514	643	862	3604838207
SAMEA6058625	39	43	45	53	122	156	174	198	3458920822
SAMEA6058626	44	48	50	58	134	169	191	234	2353045379
SAMEA6058627	47	51	54	68	168	243	299	388	2717934419
SAMEA6058628	20	23	24	25	31	32	33	38	372045786
SAMEA6058629	30	34	36	42	86	113	126	141	3099060205
SAMEA6058630	79	108	132	184	424	601	737	968	1787453335
