sample	date	sender	cluster_name	cluster_name_3	cluster_code
SAMEA6057499	2020-09-25	partner2	CT_0055	Alpha	CT_0055.Alpha
SAMEA6057506	2020-09-26	partner1	CT_0055	Beta	CT_0055.Beta
SAMEA6057547	2020-09-25	partner2	CT_0055	Gamma	CT_0055.Gamma
SAMEA6057555	2020-09-26	partner3	CT_0055	Beta	CT_0055.Beta
SAMEA6057729	2020-09-26	partner3	CT_0055	Delta	CT_0055.Delta
SAMEA6057734	2020-09-25	partner2	CT_0055	Epsilon	CT_0055.Epsilon
SAMEA6058101	2020-09-26	partner1	CT_0055	Zeta	CT_0055.Zeta
SAMEA6058178	2020-09-26	partner3	CT_0055	Eta	CT_0055.Eta
SAMEA6058265	2020-09-25	partner2	CT_0055	Theta	CT_0055.Theta
SAMEA6058281	2020-09-25	partner2	CT_0055	Iota	CT_0055.Iota
SAMEA6058348	2020-09-26	partner1	CT_0055	Theta	CT_0055.Theta
SAMEA6058360	2020-09-26	partner3	CT_0055	Theta	CT_0055.Theta
SAMEA6058490	2020-09-26	partner3	CT_0055	Kappa	CT_0055.Kappa
SAMEA6058612	2020-09-26	partner3	CT_0055	Lambda	CT_0055.Lambda
