	SAMEA6058490	SAMEA6057734	SAMEA6058281	SAMEA6058101	SAMEA6058178	SAMEA6058612	SAMEA6057506	SAMEA6057555	SAMEA6057547	SAMEA6057729	SAMEA6058360	SAMEA6057499	SAMEA6058265	SAMEA6058348
SAMEA6058490	0	14	8	8	11	13	14	16	12	14	15	18	15	15
SAMEA6057734	14	0	10	8	10	19	19	21	16	19	21	24	21	20
SAMEA6058281	8	10	0	5	7	12	12	14	9	12	14	17	14	13
SAMEA6058101	8	8	5	0	4	13	13	15	11	13	15	18	15	14
SAMEA6058178	11	10	7	4	0	15	15	17	13	15	17	20	17	16
SAMEA6058612	13	19	12	13	15	0	4	6	10	12	14	17	14	13
SAMEA6057506	14	19	12	13	15	4	0	2	10	12	14	17	14	13
SAMEA6057555	16	21	14	15	17	6	2	0	11	14	16	19	16	15
SAMEA6057547	12	16	9	11	13	10	10	11	0	4	6	9	6	5
SAMEA6057729	14	19	12	13	15	12	12	14	4	0	8	11	8	7
SAMEA6058360	15	21	14	15	17	14	14	16	6	8	0	7	4	3
SAMEA6057499	18	24	17	18	20	17	17	19	9	11	7	0	4	4
SAMEA6058265	15	21	14	15	17	14	14	16	6	8	4	4	0	1
SAMEA6058348	15	20	13	14	16	13	13	15	5	7	3	4	1	0
