sample	date	sender	cluster_name	cluster_name_3	cluster_code
SAMEA6057440	2020-09-26	partner1	CT_0034	Alpha	CT_0034.Alpha
SAMEA6057463	2020-09-25	partner2	CT_0034	Beta	CT_0034.Beta
SAMEA6057464	2020-09-25	partner2	CT_0034	Gamma	CT_0034.Gamma
SAMEA6058018	2020-09-26	partner3	CT_0034	Delta	CT_0034.Delta
