	SAMEA6058014	SAMEA6058420	SAMEA6057607	SAMEA6057648	SAMEA6057796	SAMEA6058589	SAMEA6058579	SAMEA6058580	SAMEA6057756	SAMEA6058595	SAMEA6057568	SAMEA6057479	SAMEA6058488	SAMEA6058585	SAMEA6057893	SAMEA6057472	SAMEA6058624	SAMEA6058562	SAMEA6058241	SAMEA6058219	SAMEA6058230	SAMEA6057828	SAMEA6058489	SAMEA6058491
SAMEA6058014	0	2	16	14	15	15	15	15	12	12	13	12	12	12	13	12	11	11	11	11	11	13	13	13
SAMEA6058420	2	0	14	12	13	13	13	13	10	10	11	10	10	10	11	10	9	9	9	9	9	11	11	11
SAMEA6057607	16	14	0	12	13	12	12	12	11	9	10	10	10	10	11	10	9	9	9	9	9	11	10	10
SAMEA6057648	14	12	12	0	1	1	1	1	5	4	5	4	4	4	5	4	3	3	3	3	3	5	5	5
SAMEA6057796	15	13	13	1	0	2	2	2	6	5	6	5	5	5	6	5	4	4	4	4	4	6	6	6
SAMEA6058589	15	13	12	1	2	0	1	1	6	4	5	5	5	5	6	5	4	4	4	4	4	6	5	5
SAMEA6058579	15	13	12	1	2	1	0	1	6	4	5	5	5	5	6	5	4	4	4	4	4	6	5	5
SAMEA6058580	15	13	12	1	2	1	1	0	6	4	4	5	5	5	6	5	4	4	4	4	4	6	5	5
SAMEA6057756	12	10	11	5	6	6	6	6	0	3	4	3	3	3	4	3	2	2	2	2	2	4	4	4
SAMEA6058595	12	10	9	4	5	4	4	4	3	0	2	2	2	2	3	2	1	1	1	1	1	3	2	2
SAMEA6057568	13	11	10	5	6	5	5	4	4	2	0	1	1	3	4	3	2	2	2	2	2	4	3	3
SAMEA6057479	12	10	10	4	5	5	5	5	3	2	1	0	0	2	3	2	1	1	1	1	1	3	3	3
SAMEA6058488	12	10	10	4	5	5	5	5	3	2	1	0	0	2	3	2	1	1	1	1	1	3	3	3
SAMEA6058585	12	10	10	4	5	5	5	5	3	2	3	2	2	0	3	2	1	1	1	1	1	3	3	3
SAMEA6057893	13	11	11	5	6	6	6	6	4	3	4	3	3	3	0	2	2	2	2	2	2	2	2	2
SAMEA6057472	12	10	10	4	5	5	5	5	3	2	3	2	2	2	2	0	1	1	1	1	1	3	3	3
SAMEA6058624	11	9	9	3	4	4	4	4	2	1	2	1	1	1	2	1	0	0	0	0	0	2	2	2
SAMEA6058562	11	9	9	3	4	4	4	4	2	1	2	1	1	1	2	1	0	0	0	0	0	2	2	2
SAMEA6058241	11	9	9	3	4	4	4	4	2	1	2	1	1	1	2	1	0	0	0	0	0	2	2	2
SAMEA6058219	11	9	9	3	4	4	4	4	2	1	2	1	1	1	2	1	0	0	0	0	0	2	2	2
SAMEA6058230	11	9	9	3	4	4	4	4	2	1	2	1	1	1	2	1	0	0	0	0	0	2	2	2
SAMEA6057828	13	11	11	5	6	6	6	6	4	3	4	3	3	3	2	3	2	2	2	2	2	0	2	2
SAMEA6058489	13	11	10	5	6	5	5	5	4	2	3	3	3	3	2	3	2	2	2	2	2	2	0	1
SAMEA6058491	13	11	10	5	6	5	5	5	4	2	3	3	3	3	2	3	2	2	2	2	2	2	1	0
