sample	date	sender	cluster_name	cluster_name_3	cluster_code
SAMEA6057420	2020-09-26	partner1	CT_0021	Alpha	CT_0021.Alpha
SAMEA6057668	2020-09-26	partner1	CT_0021	Alpha	CT_0021.Alpha
SAMEA6058299	2020-09-25	partner2	CT_0021	Alpha	CT_0021.Alpha
SAMEA6058578	2020-09-25	partner2	CT_0021	Alpha	CT_0021.Alpha
SAMEA6058582	2020-09-25	partner2	CT_0021	Alpha	CT_0021.Alpha
