sample	date	sender	cluster_name	cluster_name_3	cluster_code
SAMEA5882646	2020-09-26	partner3	CT_0015	Alpha	CT_0015.Alpha
SAMEA6057898	2020-09-27	partner1	CT_0015	Alpha	CT_0015.Alpha
SAMEA6057931	2020-09-25	partner2	CT_0015	Alpha	CT_0015.Alpha
SAMEA6057939	2020-09-25	partner2	CT_0015	Alpha	CT_0015.Alpha
