sample	date	sender	cluster_name	cluster_name_3	cluster_code
SAMEA5737697	2020-09-25	partner2	CT_0005	Alpha	CT_0005.Alpha
SAMEA5737698	2020-09-25	partner2	CT_0005	Alpha	CT_0005.Alpha
SAMEA6057494	2020-09-26	partner3	CT_0005	Alpha	CT_0005.Alpha
SAMEA6058461	2020-09-27	partner1	CT_0005	Alpha	CT_0005.Alpha
