sample	date	sender	cluster_name	cluster_name_3	cluster_code
SAMEA6057874	2020-09-26	partner3	CT_0122	Alpha	CT_0122.Alpha
SAMEA6058164	2020-09-25	partner2	CT_0122	Beta	CT_0122.Beta
SAMEA6058282	2020-09-25	partner2	CT_0122	Gamma	CT_0122.Gamma
