sample	cluster_number	Sender	Timestamp
SAMEA5533800	Orphan_1	partner3	2020-09-26
SAMEA5533801	Orphan_2	partner1	2020-09-26
SAMEA5533802	Orphan_3	partner2	2020-09-25
SAMEA5533803	Orphan_4	partner3	2020-09-26
SAMEA5533804	Orphan_5	partner3	2020-09-26
SAMEA5533805	Orphan_6	partner1	2020-09-26
SAMEA5552146	Orphan_7	partner2	2020-09-25
SAMEA5552147	Orphan_8	partner2	2020-09-25
SAMEA5552148	Orphan_9	partner1	2020-09-26
SAMEA5552149	Orphan_10	partner2	2020-09-25
SAMEA5552151	Orphan_12	partner2	2020-09-25
SAMEA5552153	Orphan_13	partner2	2020-09-25
SAMEA5552156	Orphan_15	partner2	2020-09-25
SAMEA5552158	Orphan_16	partner2	2020-09-25
SAMEA5552161	Orphan_18	partner3	2020-09-26
SAMEA5552162	Orphan_19	partner1	2020-09-26
SAMEA5552163	Orphan_20	partner3	2020-09-26
SAMEA5552164	Orphan_21	partner1	2020-09-26
SAMEA5552165	Orphan_22	partner3	2020-09-26
SAMEA5552166	Orphan_23	partner3	2020-09-26
SAMEA5552167	Orphan_24	partner1	2020-09-26
SAMEA5552168	Orphan_25	partner1	2020-09-26
SAMEA5552169	Orphan_26	partner2	2020-09-25
SAMEA5882643	Orphan_36	partner1	2020-09-27
SAMEA6057421	Orphan_46	partner2	2020-09-25
SAMEA6057425	Orphan_50	partner1	2020-09-26
SAMEA6057429	Orphan_54	partner3	2020-09-26
SAMEA6057431	Orphan_56	partner2	2020-09-25
SAMEA6057433	Orphan_58	partner1	2020-09-26
SAMEA6057434	Orphan_59	partner1	2020-09-26
SAMEA6057437	Orphan_62	partner2	2020-09-25
SAMEA6057442	Orphan_67	partner3	2020-09-26
SAMEA6057443	Orphan_68	partner3	2020-09-26
SAMEA6057449	Orphan_73	partner3	2020-09-26
SAMEA6057452	Orphan_74	partner1	2020-09-26
SAMEA6057453	Orphan_75	partner1	2020-09-26
SAMEA6057456	Orphan_78	partner1	2020-09-26
SAMEA6057457	Orphan_79	partner1	2020-09-27
SAMEA6057458	Orphan_80	partner3	2020-09-26
SAMEA6057462	Orphan_83	partner2	2020-09-25
SAMEA6057465	Orphan_84	partner2	2020-09-25
SAMEA6057467	Orphan_85	partner3	2020-09-26
SAMEA6057473	Orphan_89	partner2	2020-09-25
SAMEA6057475	Orphan_90	partner3	2020-09-26
SAMEA6057476	Orphan_91	partner1	2020-09-26
SAMEA6057480	Orphan_92	partner1	2020-09-26
SAMEA6057486	Orphan_97	partner3	2020-09-26
SAMEA6057488	Orphan_98	partner2	2020-09-25
SAMEA6057492	Orphan_101	partner1	2020-09-26
SAMEA6057496	Orphan_102	partner2	2020-09-25
SAMEA6057500	Orphan_106	partner1	2020-09-26
SAMEA6057501	Orphan_107	partner2	2020-09-25
SAMEA6057504	Orphan_108	partner3	2020-09-26
SAMEA6057505	Orphan_109	partner1	2020-09-26
SAMEA6057507	Orphan_110	partner1	2020-09-26
SAMEA6057509	Orphan_111	partner3	2020-09-26
SAMEA6057510	Orphan_112	partner3	2020-09-26
SAMEA6057511	Orphan_113	partner1	2020-09-26
SAMEA6057512	Orphan_114	partner1	2020-09-27
SAMEA6057515	Orphan_116	partner2	2020-09-25
SAMEA6057517	Orphan_117	partner1	2020-09-26
SAMEA6057519	Orphan_119	partner3	2020-09-26
SAMEA6057521	Orphan_120	partner1	2020-09-26
SAMEA6057522	Orphan_121	partner2	2020-09-25
SAMEA6057523	Orphan_122	partner3	2020-09-26
SAMEA6057524	Orphan_123	partner1	2020-09-26
SAMEA6057526	Orphan_124	partner3	2020-09-26
SAMEA6057527	Orphan_125	partner3	2020-09-26
SAMEA6057530	Orphan_127	partner2	2020-09-25
SAMEA6057534	Orphan_129	partner1	2020-09-26
SAMEA6057536	Orphan_131	partner2	2020-09-25
SAMEA6057537	Orphan_132	partner1	2020-09-26
SAMEA6057538	Orphan_133	partner2	2020-09-25
SAMEA6057540	Orphan_135	partner1	2020-09-26
SAMEA6057546	Orphan_137	partner3	2020-09-26
SAMEA6057550	Orphan_139	partner2	2020-09-25
SAMEA6057553	Orphan_141	partner2	2020-09-25
SAMEA6057554	Orphan_142	partner3	2020-09-26
SAMEA6057559	Orphan_145	partner1	2020-09-26
SAMEA6057562	Orphan_147	partner1	2020-09-26
SAMEA6057564	Orphan_148	partner1	2020-09-26
SAMEA6057565	Orphan_149	partner3	2020-09-26
SAMEA6057566	Orphan_150	partner1	2020-09-26
SAMEA6057567	Orphan_151	partner1	2020-09-26
SAMEA6057569	Orphan_152	partner3	2020-09-26
SAMEA6057571	Orphan_153	partner2	2020-09-25
SAMEA6057573	Orphan_155	partner1	2020-09-26
SAMEA6057574	Orphan_156	partner2	2020-09-25
SAMEA6057577	Orphan_158	partner3	2020-09-26
SAMEA6057578	Orphan_159	partner1	2020-09-27
SAMEA6057581	Orphan_160	partner1	2020-09-26
SAMEA6057584	Orphan_162	partner1	2020-09-26
SAMEA6057586	Orphan_164	partner2	2020-09-25
SAMEA6057588	Orphan_166	partner2	2020-09-25
SAMEA6057589	Orphan_167	partner2	2020-09-25
SAMEA6057591	Orphan_169	partner1	2020-09-26
SAMEA6057594	Orphan_171	partner2	2020-09-25
SAMEA6057595	Orphan_172	partner2	2020-09-25
SAMEA6057596	Orphan_173	partner1	2020-09-27
SAMEA6057597	Orphan_174	partner2	2020-09-25
SAMEA6057598	Orphan_175	partner1	2020-09-26
SAMEA6057601	Orphan_176	partner1	2020-09-26
SAMEA6057602	Orphan_177	partner2	2020-09-25
SAMEA6057608	Orphan_181	partner2	2020-09-25
SAMEA6057611	Orphan_183	partner2	2020-09-25
SAMEA6057612	Orphan_184	partner3	2020-09-26
SAMEA6057616	Orphan_185	partner3	2020-09-26
SAMEA6057617	Orphan_186	partner2	2020-09-25
SAMEA6057619	Orphan_187	partner2	2020-09-25
SAMEA6057621	Orphan_188	partner2	2020-09-25
SAMEA6057625	Orphan_189	partner1	2020-09-26
SAMEA6057628	Orphan_191	partner1	2020-09-26
SAMEA6057629	Orphan_192	partner2	2020-09-25
SAMEA6057632	Orphan_193	partner3	2020-09-26
SAMEA6057636	Orphan_194	partner2	2020-09-25
SAMEA6057638	Orphan_195	partner3	2020-09-26
SAMEA6057640	Orphan_196	partner2	2020-09-25
SAMEA6057642	Orphan_197	partner1	2020-09-26
SAMEA6057645	Orphan_198	partner1	2020-09-27
SAMEA6057646	Orphan_199	partner3	2020-09-26
SAMEA6057647	Orphan_200	partner3	2020-09-26
SAMEA6057649	Orphan_201	partner3	2020-09-26
SAMEA6057650	Orphan_202	partner2	2020-09-25
SAMEA6057654	Orphan_204	partner2	2020-09-25
SAMEA6057655	Orphan_205	partner2	2020-09-25
SAMEA6057658	Orphan_207	partner3	2020-09-26
SAMEA6057660	Orphan_208	partner3	2020-09-26
SAMEA6057667	Orphan_213	partner1	2020-09-27
SAMEA6057669	Orphan_214	partner1	2020-09-26
SAMEA6057671	Orphan_215	partner3	2020-09-26
SAMEA6057680	Orphan_219	partner2	2020-09-25
SAMEA6057682	Orphan_221	partner2	2020-09-25
SAMEA6057690	Orphan_222	partner3	2020-09-26
SAMEA6057693	Orphan_225	partner3	2020-09-26
SAMEA6057695	Orphan_227	partner3	2020-09-26
SAMEA6057700	Orphan_230	partner2	2020-09-25
SAMEA6057702	Orphan_231	partner3	2020-09-26
SAMEA6057704	Orphan_232	partner1	2020-09-26
SAMEA6057705	Orphan_233	partner2	2020-09-25
SAMEA6057707	Orphan_234	partner1	2020-09-26
SAMEA6057710	Orphan_235	partner3	2020-09-26
SAMEA6057711	Orphan_236	partner1	2020-09-26
SAMEA6057715	Orphan_237	partner3	2020-09-26
SAMEA6057718	Orphan_238	partner2	2020-09-25
SAMEA6057722	Orphan_241	partner1	2020-09-26
SAMEA6057723	Orphan_242	partner1	2020-09-26
SAMEA6057726	Orphan_245	partner1	2020-09-26
SAMEA6057727	Orphan_246	partner3	2020-09-26
SAMEA6057738	Orphan_250	partner1	2020-09-26
SAMEA6057751	Orphan_257	partner1	2020-09-26
SAMEA6057755	Orphan_259	partner1	2020-09-27
SAMEA6057757	Orphan_260	partner2	2020-09-25
SAMEA6057758	Orphan_261	partner2	2020-09-25
SAMEA6057760	Orphan_262	partner2	2020-09-25
SAMEA6057762	Orphan_263	partner1	2020-09-26
SAMEA6057764	Orphan_265	partner2	2020-09-25
SAMEA6057767	Orphan_266	partner1	2020-09-26
SAMEA6057768	Orphan_267	partner2	2020-09-25
SAMEA6057770	Orphan_268	partner1	2020-09-26
SAMEA6057772	Orphan_269	partner1	2020-09-26
SAMEA6057774	Orphan_271	partner3	2020-09-26
SAMEA6057775	Orphan_272	partner3	2020-09-26
SAMEA6057778	Orphan_273	partner3	2020-09-26
SAMEA6057779	Orphan_274	partner1	2020-09-26
SAMEA6057784	Orphan_276	partner1	2020-09-26
SAMEA6057789	Orphan_278	partner2	2020-09-25
SAMEA6057792	Orphan_280	partner2	2020-09-25
SAMEA6057794	Orphan_281	partner2	2020-09-25
SAMEA6057795	Orphan_282	partner1	2020-09-26
SAMEA6057798	Orphan_283	partner3	2020-09-26
SAMEA6057802	Orphan_284	partner1	2020-09-26
SAMEA6057805	Orphan_285	partner3	2020-09-26
SAMEA6057808	Orphan_287	partner2	2020-09-25
SAMEA6057809	Orphan_288	partner1	2020-09-26
SAMEA6057812	Orphan_289	partner3	2020-09-26
SAMEA6057815	Orphan_291	partner3	2020-09-26
SAMEA6057818	Orphan_292	partner2	2020-09-25
SAMEA6057820	Orphan_293	partner3	2020-09-26
SAMEA6057823	Orphan_294	partner3	2020-09-26
SAMEA6057827	Orphan_295	partner1	2020-09-26
SAMEA6057829	Orphan_296	partner1	2020-09-26
SAMEA6057834	Orphan_299	partner1	2020-09-26
SAMEA6057839	Orphan_300	partner1	2020-09-27
SAMEA6057842	Orphan_301	partner1	2020-09-26
SAMEA6057849	Orphan_303	partner3	2020-09-26
SAMEA6057850	Orphan_304	partner3	2020-09-26
SAMEA6057851	Orphan_305	partner2	2020-09-25
SAMEA6057859	Orphan_307	partner1	2020-09-26
SAMEA6057860	Orphan_308	partner1	2020-09-27
SAMEA6057863	Orphan_310	partner2	2020-09-25
SAMEA6057864	Orphan_311	partner3	2020-09-26
SAMEA6057869	Orphan_312	partner2	2020-09-25
SAMEA6057871	Orphan_313	partner2	2020-09-25
SAMEA6057875	Orphan_316	partner3	2020-09-26
SAMEA6057876	Orphan_317	partner3	2020-09-26
SAMEA6057877	Orphan_318	partner1	2020-09-27
SAMEA6057881	Orphan_320	partner2	2020-09-25
SAMEA6057885	Orphan_322	partner1	2020-09-26
SAMEA6057889	Orphan_324	partner1	2020-09-27
SAMEA6057890	Orphan_325	partner3	2020-09-26
SAMEA6057891	Orphan_326	partner1	2020-09-26
SAMEA6057892	Orphan_327	partner2	2020-09-25
SAMEA6057897	Orphan_329	partner1	2020-09-26
SAMEA6057902	Orphan_330	partner2	2020-09-25
SAMEA6057903	Orphan_331	partner1	2020-09-26
SAMEA6057904	Orphan_332	partner3	2020-09-26
SAMEA6057907	Orphan_333	partner2	2020-09-25
SAMEA6057908	Orphan_334	partner3	2020-09-26
SAMEA6057914	Orphan_335	partner3	2020-09-26
SAMEA6057915	Orphan_336	partner1	2020-09-26
SAMEA6057927	Orphan_338	partner2	2020-09-25
SAMEA6057932	Orphan_340	partner2	2020-09-25
SAMEA6057933	Orphan_341	partner1	2020-09-26
SAMEA6057938	Orphan_342	partner3	2020-09-26
SAMEA6057946	Orphan_345	partner2	2020-09-25
SAMEA6057951	Orphan_346	partner1	2020-09-26
SAMEA6057956	Orphan_347	partner1	2020-09-26
SAMEA6057957	Orphan_348	partner3	2020-09-26
SAMEA6057961	Orphan_351	partner3	2020-09-26
SAMEA6057962	Orphan_352	partner3	2020-09-26
SAMEA6057965	Orphan_354	partner3	2020-09-26
SAMEA6057967	Orphan_355	partner2	2020-09-25
SAMEA6057970	Orphan_356	partner2	2020-09-25
SAMEA6057972	Orphan_357	partner1	2020-09-26
SAMEA6057976	Orphan_358	partner1	2020-09-26
SAMEA6057978	Orphan_359	partner2	2020-09-25
SAMEA6057981	Orphan_360	partner2	2020-09-25
SAMEA6057983	Orphan_362	partner3	2020-09-26
SAMEA6057984	Orphan_363	partner2	2020-09-25
SAMEA6057999	Orphan_365	partner3	2020-09-26
SAMEA6058004	Orphan_366	partner1	2020-09-26
SAMEA6058007	Orphan_367	partner3	2020-09-26
SAMEA6058009	Orphan_368	partner2	2020-09-25
SAMEA6058010	Orphan_369	partner2	2020-09-25
SAMEA6058011	Orphan_370	partner3	2020-09-26
SAMEA6058012	Orphan_371	partner2	2020-09-25
SAMEA6058013	Orphan_372	partner3	2020-09-26
SAMEA6058017	Orphan_373	partner1	2020-09-26
SAMEA6058020	Orphan_375	partner2	2020-09-25
SAMEA6058021	Orphan_376	partner2	2020-09-25
SAMEA6058022	Orphan_377	partner3	2020-09-26
SAMEA6058025	Orphan_378	partner3	2020-09-26
SAMEA6058026	Orphan_379	partner2	2020-09-25
SAMEA6058031	Orphan_380	partner3	2020-09-26
SAMEA6058040	Orphan_383	partner3	2020-09-26
SAMEA6058041	Orphan_384	partner2	2020-09-25
SAMEA6058042	Orphan_385	partner3	2020-09-26
SAMEA6058043	Orphan_386	partner1	2020-09-26
SAMEA6058044	Orphan_387	partner3	2020-09-26
SAMEA6058052	Orphan_388	partner3	2020-09-26
SAMEA6058053	Orphan_389	partner3	2020-09-26
SAMEA6058061	Orphan_391	partner2	2020-09-25
SAMEA6058064	Orphan_392	partner3	2020-09-26
SAMEA6058067	Orphan_393	partner2	2020-09-25
SAMEA6058075	Orphan_395	partner1	2020-09-26
SAMEA6058076	Orphan_396	partner3	2020-09-26
SAMEA6058077	Orphan_397	partner2	2020-09-25
SAMEA6058079	Orphan_398	partner2	2020-09-25
SAMEA6058080	Orphan_399	partner2	2020-09-25
SAMEA6058084	Orphan_401	partner2	2020-09-25
SAMEA6058086	Orphan_402	partner3	2020-09-26
SAMEA6058088	Orphan_403	partner3	2020-09-26
SAMEA6058089	Orphan_404	partner1	2020-09-26
SAMEA6058092	Orphan_405	partner1	2020-09-26
SAMEA6058096	Orphan_407	partner1	2020-09-27
SAMEA6058097	Orphan_408	partner1	2020-09-26
SAMEA6058098	Orphan_409	partner2	2020-09-25
SAMEA6058107	Orphan_411	partner3	2020-09-26
SAMEA6058108	Orphan_412	partner2	2020-09-25
SAMEA6058109	Orphan_413	partner1	2020-09-27
SAMEA6058110	Orphan_414	partner2	2020-09-25
SAMEA6058111	Orphan_415	partner1	2020-09-27
SAMEA6058114	Orphan_416	partner3	2020-09-26
SAMEA6058115	Orphan_417	partner1	2020-09-26
SAMEA6058116	Orphan_418	partner2	2020-09-25
SAMEA6058120	Orphan_419	partner1	2020-09-27
SAMEA6058123	Orphan_420	partner3	2020-09-26
SAMEA6058125	Orphan_421	partner3	2020-09-26
SAMEA6058131	Orphan_422	partner1	2020-09-26
SAMEA6058132	Orphan_423	partner2	2020-09-25
SAMEA6058136	Orphan_424	partner1	2020-09-26
SAMEA6058139	Orphan_425	partner1	2020-09-26
SAMEA6058143	Orphan_427	partner1	2020-09-27
SAMEA6058145	Orphan_428	partner1	2020-09-26
SAMEA6058146	Orphan_429	partner1	2020-09-26
SAMEA6058152	Orphan_431	partner2	2020-09-25
SAMEA6058153	Orphan_432	partner3	2020-09-26
SAMEA6058154	Orphan_433	partner1	2020-09-26
SAMEA6058155	Orphan_434	partner3	2020-09-26
SAMEA6058158	Orphan_436	partner1	2020-09-26
SAMEA6058159	Orphan_437	partner2	2020-09-25
SAMEA6058161	Orphan_438	partner1	2020-09-26
SAMEA6058163	Orphan_439	partner1	2020-09-26
SAMEA6058166	Orphan_440	partner1	2020-09-26
SAMEA6058169	Orphan_441	partner3	2020-09-26
SAMEA6058170	Orphan_442	partner2	2020-09-25
SAMEA6058172	Orphan_443	partner2	2020-09-25
SAMEA6058175	Orphan_444	partner3	2020-09-26
SAMEA6058176	Orphan_445	partner2	2020-09-25
SAMEA6058179	Orphan_446	partner3	2020-09-26
SAMEA6058184	Orphan_447	partner3	2020-09-26
SAMEA6058185	Orphan_448	partner1	2020-09-26
SAMEA6058189	Orphan_450	partner2	2020-09-25
SAMEA6058195	Orphan_452	partner3	2020-09-26
SAMEA6058197	Orphan_453	partner1	2020-09-26
SAMEA6058199	Orphan_455	partner3	2020-09-26
SAMEA6058200	Orphan_456	partner2	2020-09-25
SAMEA6058201	Orphan_457	partner1	2020-09-26
SAMEA6058202	Orphan_458	partner2	2020-09-25
SAMEA6058207	Orphan_459	partner3	2020-09-26
SAMEA6058210	Orphan_460	partner2	2020-09-25
SAMEA6058213	Orphan_461	partner1	2020-09-27
SAMEA6058214	Orphan_462	partner3	2020-09-26
SAMEA6058217	Orphan_463	partner1	2020-09-26
SAMEA6058222	Orphan_464	partner3	2020-09-26
SAMEA6058223	Orphan_465	partner2	2020-09-25
SAMEA6058227	Orphan_467	partner3	2020-09-26
SAMEA6058231	Orphan_469	partner3	2020-09-26
SAMEA6058238	Orphan_472	partner2	2020-09-25
SAMEA6058240	Orphan_473	partner1	2020-09-26
SAMEA6058254	Orphan_474	partner2	2020-09-25
SAMEA6058255	Orphan_475	partner2	2020-09-25
SAMEA6058257	Orphan_476	partner1	2020-09-26
SAMEA6058259	Orphan_477	partner1	2020-09-27
SAMEA6058263	Orphan_478	partner1	2020-09-27
SAMEA6058266	Orphan_479	partner1	2020-09-26
SAMEA6058268	Orphan_480	partner2	2020-09-25
SAMEA6058279	Orphan_483	partner3	2020-09-26
SAMEA6058284	Orphan_484	partner2	2020-09-25
SAMEA6058286	Orphan_485	partner3	2020-09-26
SAMEA6058287	Orphan_486	partner2	2020-09-25
SAMEA6058288	Orphan_487	partner2	2020-09-25
SAMEA6058289	Orphan_488	partner2	2020-09-25
SAMEA6058291	Orphan_489	partner1	2020-09-26
SAMEA6058292	Orphan_490	partner1	2020-09-27
SAMEA6058293	Orphan_491	partner3	2020-09-26
SAMEA6058294	Orphan_492	partner3	2020-09-26
SAMEA6058296	Orphan_493	partner3	2020-09-26
SAMEA6058298	Orphan_494	partner3	2020-09-26
SAMEA6058302	Orphan_495	partner1	2020-09-26
SAMEA6058305	Orphan_496	partner1	2020-09-26
SAMEA6058306	Orphan_497	partner2	2020-09-25
SAMEA6058314	Orphan_498	partner3	2020-09-26
SAMEA6058315	Orphan_499	partner1	2020-09-26
SAMEA6058317	Orphan_500	partner1	2020-09-26
SAMEA6058320	Orphan_501	partner1	2020-09-26
SAMEA6058327	Orphan_503	partner3	2020-09-26
SAMEA6058328	Orphan_504	partner1	2020-09-26
SAMEA6058330	Orphan_505	partner1	2020-09-26
SAMEA6058331	Orphan_506	partner3	2020-09-26
SAMEA6058332	Orphan_507	partner3	2020-09-26
SAMEA6058334	Orphan_508	partner3	2020-09-26
SAMEA6058335	Orphan_509	partner3	2020-09-26
SAMEA6058337	Orphan_510	partner1	2020-09-26
SAMEA6058345	Orphan_512	partner1	2020-09-26
SAMEA6058351	Orphan_513	partner3	2020-09-26
SAMEA6058352	Orphan_514	partner3	2020-09-26
SAMEA6058354	Orphan_515	partner3	2020-09-26
SAMEA6058356	Orphan_516	partner2	2020-09-25
SAMEA6058367	Orphan_519	partner1	2020-09-27
SAMEA6058369	Orphan_520	partner3	2020-09-26
SAMEA6058371	Orphan_521	partner2	2020-09-25
SAMEA6058372	Orphan_522	partner1	2020-09-26
SAMEA6058378	Orphan_523	partner2	2020-09-25
SAMEA6058381	Orphan_525	partner2	2020-09-25
SAMEA6058382	Orphan_526	partner1	2020-09-26
SAMEA6058384	Orphan_527	partner1	2020-09-26
SAMEA6058385	Orphan_528	partner3	2020-09-26
SAMEA6058391	Orphan_529	partner3	2020-09-26
SAMEA6058392	Orphan_530	partner1	2020-09-26
SAMEA6058394	Orphan_531	partner2	2020-09-25
SAMEA6058396	Orphan_532	partner1	2020-09-26
SAMEA6058404	Orphan_533	partner2	2020-09-25
SAMEA6058406	Orphan_534	partner3	2020-09-26
SAMEA6058409	Orphan_535	partner2	2020-09-25
SAMEA6058411	Orphan_537	partner3	2020-09-26
SAMEA6058414	Orphan_538	partner1	2020-09-26
SAMEA6058417	Orphan_540	partner2	2020-09-25
SAMEA6058427	Orphan_543	partner1	2020-09-26
SAMEA6058432	Orphan_545	partner2	2020-09-25
SAMEA6058435	Orphan_546	partner3	2020-09-26
SAMEA6058441	Orphan_547	partner2	2020-09-25
SAMEA6058443	Orphan_548	partner2	2020-09-25
SAMEA6058444	Orphan_549	partner3	2020-09-26
SAMEA6058446	Orphan_550	partner2	2020-09-25
SAMEA6058450	Orphan_552	partner1	2020-09-26
SAMEA6058454	Orphan_553	partner1	2020-09-26
SAMEA6058456	Orphan_554	partner2	2020-09-25
SAMEA6058460	Orphan_555	partner2	2020-09-25
SAMEA6058462	Orphan_556	partner2	2020-09-25
SAMEA6058464	Orphan_558	partner3	2020-09-26
SAMEA6058467	Orphan_561	partner3	2020-09-26
SAMEA6058468	Orphan_562	partner2	2020-09-25
SAMEA6058470	Orphan_563	partner2	2020-09-25
SAMEA6058476	Orphan_564	partner2	2020-09-25
SAMEA6058479	Orphan_565	partner3	2020-09-26
SAMEA6058481	Orphan_566	partner1	2020-09-26
SAMEA6058486	Orphan_567	partner1	2020-09-26
SAMEA6058487	Orphan_568	partner2	2020-09-25
SAMEA6058493	Orphan_569	partner1	2020-09-26
SAMEA6058501	Orphan_570	partner3	2020-09-26
SAMEA6058503	Orphan_571	partner3	2020-09-26
SAMEA6058504	Orphan_572	partner1	2020-09-26
SAMEA6058505	Orphan_573	partner3	2020-09-26
SAMEA6058507	Orphan_574	partner1	2020-09-26
SAMEA6058509	Orphan_575	partner2	2020-09-25
SAMEA6058510	Orphan_576	partner3	2020-09-26
SAMEA6058511	Orphan_577	partner2	2020-09-25
SAMEA6058523	Orphan_578	partner3	2020-09-26
SAMEA6058525	Orphan_579	partner2	2020-09-25
SAMEA6058528	Orphan_580	partner3	2020-09-26
SAMEA6058529	Orphan_581	partner1	2020-09-27
SAMEA6058531	Orphan_582	partner1	2020-09-26
SAMEA6058532	Orphan_583	partner3	2020-09-26
SAMEA6058537	Orphan_584	partner3	2020-09-26
SAMEA6058540	Orphan_585	partner1	2020-09-26
SAMEA6058542	Orphan_586	partner1	2020-09-26
SAMEA6058543	Orphan_587	partner2	2020-09-25
SAMEA6058547	Orphan_588	partner2	2020-09-25
SAMEA6058548	Orphan_589	partner3	2020-09-26
SAMEA6058549	Orphan_590	partner3	2020-09-26
SAMEA6058552	Orphan_591	partner1	2020-09-26
SAMEA6058553	Orphan_592	partner2	2020-09-25
SAMEA6058554	Orphan_593	partner1	2020-09-26
SAMEA6058563	Orphan_594	partner1	2020-09-27
SAMEA6058568	Orphan_595	partner2	2020-09-25
SAMEA6058570	Orphan_596	partner3	2020-09-26
SAMEA6058576	Orphan_597	partner3	2020-09-26
SAMEA6058577	Orphan_598	partner2	2020-09-25
SAMEA6058586	Orphan_600	partner3	2020-09-26
SAMEA6058587	Orphan_601	partner3	2020-09-26
SAMEA6058592	Orphan_602	partner1	2020-09-26
SAMEA6058594	Orphan_603	partner1	2020-09-26
SAMEA6058607	Orphan_604	partner1	2020-09-26
SAMEA6058611	Orphan_605	partner2	2020-09-25
SAMEA6058616	Orphan_606	partner2	2020-09-25
SAMEA6058625	Orphan_607	partner3	2020-09-26
SAMEA6058629	Orphan_608	partner3	2020-09-26
SAMEA6058630	Orphan_609	partner3	2020-09-26
