sample	date	sender	cluster_name	cluster_name_3	cluster_code
SAMEA6057422	2020-09-26	partner3	CT_0022	Alpha	CT_0022.Alpha
SAMEA6057461	2020-09-26	partner3	CT_0022	Alpha	CT_0022.Alpha
SAMEA6057610	2020-09-26	partner1	CT_0022	Beta	CT_0022.Beta
SAMEA6057730	2020-09-25	partner2	CT_0022	Alpha	CT_0022.Alpha
SAMEA6058344	2020-09-25	partner2	CT_0022	Gamma	CT_0022.Gamma
