sample	EXC	INF	LNF	PLOT	NIPH	ALM	ASM
SAMEA6058486	2934	3	45	0	6	9	3
SAMEA6058524	2944	0	39	1	6	7	3
SAMEA6057704	2895	44	44	1	5	8	3
SAMEA6058163	2905	31	46	0	6	9	3
SAMEA6058529	2907	20	52	0	10	8	3
SAMEA6058300	2942	0	41	0	7	7	3
SAMEA6058336	2719	223	40	0	7	8	3
SAMEA6058257	2918	11	54	2	5	7	3
SAMEA6057512	2925	17	41	0	7	8	2
SAMEA6058280	2942	0	40	0	6	8	4
SAMEA6057825	2936	2	44	0	8	8	2
SAMEA6058319	2939	0	42	0	7	7	5
SAMEA6057720	2933	6	41	0	6	9	5
SAMEA6057972	2926	14	41	0	7	9	3
SAMEA6057896	2931	2	45	2	7	7	6
SAMEA6058522	2748	197	38	0	6	8	3
SAMEA5552164	2929	8	48	0	5	7	3
SAMEA6058263	2917	15	51	1	6	8	2
SAMEA6057891	2696	245	43	0	7	7	2
SAMEA6057439	2934	1	43	0	6	9	7
SAMEA6058554	2649	288	44	0	6	9	4
SAMEA6058471	2922	22	42	0	4	7	3
SAMEA5552167	2725	214	43	0	6	8	4
SAMEA5882643	2936	5	41	0	8	8	2
SAMEA6057557	2935	0	45	0	8	7	5
SAMEA6058290	2933	12	40	0	5	8	2
SAMEA6057793	2887	9	77	7	6	7	7
SAMEA6058516	2935	4	44	0	5	8	4
SAMEA6057834	2929	11	42	1	6	7	4
SAMEA6057669	2682	252	45	0	7	9	5
SAMEA6057500	2928	16	40	0	5	8	3
SAMEA6058150	2719	224	39	0	5	7	6
SAMEA6057728	2939	0	42	0	7	7	5
SAMEA6057601	2927	14	41	0	7	7	4
SAMEA6057440	2938	3	42	1	6	7	3
SAMEA6057648	2937	2	42	0	8	7	4
SAMEA6057540	2916	16	47	2	7	9	3
SAMEA6058059	2946	0	40	0	4	7	3
SAMEA6058440	2938	3	43	0	5	8	3
SAMEA6057542	2944	0	40	0	6	7	3
SAMEA6057681	2897	24	52	3	7	8	9
SAMEA6057982	2931	2	44	2	6	9	6
SAMEA6058542	2875	27	57	0	7	8	26
SAMEA6058367	2932	10	41	0	8	7	2
SAMEA6058096	2930	11	42	0	7	8	2
SAMEA6058563	2932	9	41	1	8	7	2
SAMEA6058508	2935	4	42	0	7	7	5
SAMEA6057692	2922	16	42	0	7	9	4
SAMEA6057848	2929	8	43	0	6	9	5
SAMEA6058066	2924	16	42	0	8	7	3
SAMEA6058453	2934	6	42	0	7	7	4
SAMEA6058340	2935	3	43	0	7	7	5
SAMEA6057622	2763	180	39	0	5	9	4
SAMEA6058425	2905	37	40	0	6	8	4
SAMEA6057583	2924	13	45	2	5	8	3
SAMEA6058303	2936	3	43	0	7	7	4
SAMEA6058389	2917	18	49	0	6	7	3
SAMEA6057446	2868	5	74	2	10	8	33
SAMEA6057633	2876	7	71	0	10	8	28
SAMEA6058117	2938	0	44	1	8	7	2
SAMEA6058246	2941	0	42	0	8	7	2
SAMEA6057610	2936	4	42	0	7	7	4
SAMEA6058317	2901	39	42	0	7	8	3
SAMEA6057990	2941	0	42	0	8	7	2
SAMEA6058496	2920	20	42	0	6	9	3
SAMEA6058136	2896	36	51	1	6	8	2
SAMEA6058047	2945	0	41	0	4	7	3
SAMEA6058259	2936	6	43	0	6	7	2
SAMEA6057976	2833	107	41	0	8	8	3
SAMEA6057885	2930	4	50	1	5	7	3
SAMEA6058594	2922	5	56	1	5	7	4
SAMEA6058619	2932	1	48	0	7	7	5
SAMEA6057468	2934	8	41	1	6	7	3
SAMEA6058057	2911	10	51	4	6	9	9
SAMEA6058158	2927	8	46	2	6	7	4
SAMEA6057545	2926	14	41	0	8	7	4
SAMEA6058552	2723	222	41	0	4	7	3
SAMEA6057627	2918	4	56	2	7	7	6
SAMEA6058069	2916	15	45	3	7	7	7
SAMEA6058276	2934	1	45	0	7	7	6
SAMEA6057813	2936	1	42	0	8	7	6
SAMEA6058135	2930	3	46	1	7	7	6
SAMEA6058480	2939	0	42	0	7	7	5
SAMEA6058274	2934	2	47	1	6	7	3
SAMEA6058343	2936	7	40	0	5	8	4
SAMEA6057842	2912	16	49	6	5	8	4
SAMEA6058414	2911	21	52	0	5	7	4
SAMEA6057562	2935	9	40	0	6	7	3
SAMEA6058461	2924	17	41	0	7	8	3
SAMEA6057696	2932	3	46	1	7	8	3
SAMEA6057529	2943	0	39	0	5	9	4
SAMEA6058036	2932	1	46	2	7	8	4
SAMEA6058078	2941	5	40	0	4	7	3
SAMEA6057541	2628	307	48	0	6	7	4
SAMEA6058400	2938	7	40	0	5	7	3
SAMEA6057427	2934	6	42	0	7	7	4
SAMEA6058321	2933	5	41	0	8	7	6
SAMEA6057985	2684	233	57	2	8	8	8
SAMEA6057840	2941	0	41	0	7	7	4
SAMEA6058091	2943	0	41	0	7	7	2
SAMEA6058623	2941	2	40	0	7	8	2
SAMEA6058120	2919	5	51	3	8	8	6
SAMEA6058197	2898	11	64	3	5	9	10
SAMEA6057656	2934	2	44	1	7	7	5
SAMEA6057645	2926	14	40	1	9	8	2
SAMEA6058454	2935	5	41	0	8	7	4
SAMEA6058073	2925	13	44	0	7	7	4
SAMEA6058375	2930	6	43	0	8	7	6
SAMEA6058112	2935	5	41	2	7	7	3
SAMEA6058328	2932	6	44	1	7	7	3
SAMEA6057880	2932	8	42	0	7	8	3
SAMEA6057578	2933	8	40	0	9	8	2
SAMEA6058122	2935	1	43	0	6	9	6
SAMEA6058070	2919	3	58	4	6	7	3
SAMEA6058124	2662	278	42	1	5	7	5
SAMEA6058144	2681	259	44	0	6	7	3
SAMEA6058626	1515	1393	42	0	37	9	4
SAMEA6058045	2934	2	41	0	8	7	8
SAMEA6057804	2943	0	40	0	6	8	3
SAMEA6058544	2943	0	41	0	6	7	3
SAMEA6057596	2933	8	40	1	8	8	2
SAMEA6057723	2896	21	59	5	7	8	4
SAMEA6058305	2917	21	45	0	7	7	3
SAMEA6057862	2934	5	42	0	7	7	5
SAMEA6057456	2930	12	42	0	5	7	4
SAMEA6057639	2924	0	53	2	8	7	6
SAMEA6058579	2938	1	42	0	8	7	4
SAMEA6057786	2940	0	42	0	6	9	3
SAMEA6058171	2912	2	63	3	8	7	5
SAMEA6057561	2932	4	41	0	8	7	8
SAMEA6057796	2938	1	42	0	8	7	4
SAMEA6058050	2944	0	40	0	6	7	3
SAMEA6057980	2930	10	42	0	7	7	4
SAMEA6057663	2940	1	41	0	7	7	4
SAMEA6058407	2934	5	42	0	7	7	5
SAMEA6058024	2939	1	42	0	7	7	4
SAMEA5737704	2624	306	51	0	9	8	2
SAMEA6058075	2854	56	60	3	6	11	10
SAMEA6058089	2692	246	41	0	6	9	6
SAMEA6058519	2938	3	40	1	5	8	5
SAMEA6058517	2915	2	64	0	7	7	5
SAMEA6058592	2620	270	63	4	9	10	24
SAMEA6058415	2936	1	41	0	8	7	7
SAMEA6058295	2940	0	40	0	6	8	6
SAMEA6058326	2653	285	43	0	8	8	3
SAMEA6058342	2928	8	47	0	5	8	4
SAMEA6058054	2919	15	50	0	5	7	4
SAMEA6057521	2935	3	41	0	8	7	6
SAMEA6058173	2943	1	41	1	4	7	3
SAMEA6058507	2930	9	41	0	6	9	5
SAMEA6058610	2941	0	41	0	8	8	2
SAMEA5882648	2935	2	45	1	6	8	3
SAMEA6058515	2931	6	41	0	8	7	7
SAMEA6058145	2889	19	63	3	4	10	12
SAMEA6058442	2938	1	42	0	7	7	5
SAMEA6057872	2918	23	41	0	7	7	4
SAMEA6058613	2595	278	74	2	10	8	33
SAMEA6058250	2924	5	49	4	6	8	4
SAMEA6057559	2576	350	54	0	6	9	5
SAMEA6057797	2934	10	40	0	6	7	3
SAMEA6057609	2935	5	42	0	6	8	4
SAMEA6058206	2938	1	44	1	5	8	3
SAMEA6057452	2708	234	41	0	5	7	5
SAMEA6058574	2943	2	40	1	4	7	3
SAMEA6058074	2933	1	44	2	7	7	6
SAMEA6057722	2643	268	62	1	7	9	10
SAMEA6057809	2726	165	73	5	12	8	11
SAMEA6057811	2937	5	41	0	6	8	3
SAMEA6058129	2910	19	54	1	6	7	3
SAMEA6057426	2944	1	40	1	4	7	3
SAMEA6057470	2940	0	42	0	7	7	4
SAMEA6057531	2911	28	41	0	8	8	4
SAMEA6058588	2938	0	42	0	7	7	6
SAMEA6057940	2920	3	55	2	7	7	6
SAMEA6057685	2925	0	51	0	7	8	9
SAMEA6058201	2921	11	47	1	8	8	4
SAMEA6058273	2916	20	43	0	6	9	6
SAMEA6058154	2685	255	42	1	7	6	4
SAMEA6058111	2910	28	43	0	7	9	3
SAMEA6057492	2892	43	44	0	10	8	3
SAMEA6057642	2872	68	42	0	6	9	3
SAMEA6057701	2936	4	43	0	6	8	3
SAMEA6058559	2863	17	72	1	10	8	29
SAMEA6058536	2934	1	44	0	7	7	7
SAMEA6057584	2928	9	41	0	7	7	8
SAMEA6058384	2734	206	41	0	7	7	5
SAMEA6057736	2940	1	41	0	8	8	2
SAMEA6057455	2920	7	49	0	7	8	9
SAMEA6058161	2884	29	60	2	4	9	12
SAMEA6058597	2945	1	40	0	4	7	3
SAMEA6057903	2436	484	53	0	11	10	6
SAMEA6057987	2922	9	52	0	6	7	4
SAMEA6058348	2932	7	44	0	6	8	3
SAMEA6058531	2900	34	43	0	7	8	8
SAMEA6058481	2923	9	51	2	5	7	3
SAMEA6057652	2934	6	43	0	6	8	3
SAMEA6058017	2920	18	44	0	6	9	3
SAMEA6057956	2931	4	50	0	5	7	3
SAMEA6058558	2940	3	41	0	6	7	3
SAMEA5552162	2774	169	41	0	5	7	4
SAMEA6057829	2911	16	49	0	7	8	9
SAMEA6057785	2925	13	42	0	7	7	6
SAMEA6058397	2933	3	43	0	8	7	6
SAMEA6057707	2917	13	49	1	7	7	6
SAMEA6058396	2924	21	40	0	5	7	3
SAMEA6057657	2925	16	42	0	6	8	3
SAMEA6057614	2932	3	43	0	6	9	7
SAMEA6057897	2920	11	45	1	7	9	7
SAMEA6058109	2930	5	42	5	7	8	3
SAMEA6057884	2933	3	45	2	6	8	3
SAMEA6058571	2905	5	52	0	6	9	23
SAMEA6057511	2697	245	42	0	5	7	4
SAMEA6057687	2931	5	47	1	6	8	2
SAMEA6057795	2896	13	52	0	6	8	25
SAMEA6057846	2930	4	46	1	7	7	5
SAMEA6058337	2930	9	42	0	7	7	5
SAMEA6058157	2923	2	56	3	6	7	3
SAMEA6058345	2866	47	60	2	6	9	10
SAMEA6057816	2931	10	41	1	7	8	2
SAMEA6058615	2928	11	42	0	6	9	4
SAMEA6057995	2939	4	40	0	7	8	2
SAMEA6058240	2919	13	50	1	6	7	4
SAMEA6058006	2937	1	43	2	7	7	3
SAMEA6057776	2936	1	45	1	6	8	3
SAMEA6057955	2942	1	40	0	7	8	2
SAMEA6057528	2924	3	49	0	7	8	9
SAMEA6057802	2879	55	45	0	7	8	6
SAMEA6058596	2881	1	71	0	10	8	29
SAMEA6057506	2940	0	43	0	6	8	3
SAMEA6057779	2906	24	53	1	5	7	4
SAMEA6057712	2933	6	42	2	7	8	2
SAMEA6057567	2869	11	72	0	10	8	30
SAMEA6058333	2942	1	40	0	7	8	2
SAMEA6058413	2927	1	54	1	6	7	4
SAMEA6058560	2877	1	74	0	10	8	30
SAMEA6057942	2944	1	40	0	5	7	3
SAMEA6058427	2912	18	51	4	5	7	3
SAMEA6058233	2939	2	41	0	7	8	3
SAMEA6058032	2938	3	41	1	7	8	2
SAMEA6058131	2731	210	41	0	7	9	2
SAMEA6058329	2935	6	43	0	5	8	3
SAMEA5737702	2937	6	40	0	7	8	2
SAMEA6058291	2864	19	83	8	5	9	12
SAMEA6057943	2897	9	67	0	7	9	11
SAMEA6057905	2937	1	42	0	7	7	6
SAMEA6057878	2931	12	41	0	6	7	3
SAMEA6057886	2894	20	60	2	5	9	10
SAMEA6057726	2902	10	61	2	5	9	11
SAMEA6057898	2907	32	40	0	8	9	4
SAMEA6058493	2739	205	40	0	6	7	3
SAMEA6058262	2893	19	50	0	6	9	23
SAMEA6057755	2929	14	42	0	6	7	2
SAMEA6058137	2935	0	50	0	4	7	4
SAMEA6058119	2926	11	47	0	6	8	2
SAMEA6057436	2930	5	45	0	8	7	5
SAMEA6058565	2933	5	42	0	7	9	4
SAMEA6057628	2905	10	71	0	4	7	3
SAMEA6057664	2918	6	55	4	6	7	4
SAMEA6057832	2746	195	40	0	6	8	5
SAMEA6058143	2932	9	42	0	8	7	2
SAMEA6057694	2935	5	41	0	7	7	5
SAMEA6058302	2868	22	78	7	5	9	11
SAMEA6057909	2881	1	71	0	10	8	29
SAMEA6058372	2926	14	41	0	7	9	3
SAMEA6057750	2893	39	47	2	8	9	2
SAMEA5882644	2911	28	43	0	7	7	4
SAMEA6057828	2938	1	42	0	8	7	4
SAMEA6058315	2866	10	71	0	11	9	33
SAMEA6058380	2938	3	42	0	8	7	2
SAMEA6057480	2903	32	45	0	9	7	4
SAMEA6058167	2901	8	64	2	5	9	11
SAMEA6058607	2932	6	42	0	7	7	6
SAMEA5737700	2774	160	45	0	6	8	7
SAMEA6057637	2930	6	43	0	6	9	6
SAMEA6058185	2937	4	40	0	6	8	5
SAMEA6058208	2764	176	44	0	6	7	3
SAMEA6057839	2933	6	41	0	7	10	3
SAMEA6058139	2591	339	50	0	7	10	3
SAMEA6057827	2696	241	42	1	7	7	6
SAMEA6057860	2936	7	40	0	7	8	2
SAMEA6057670	2937	1	42	0	7	7	6
SAMEA6057433	2889	14	54	0	6	8	29
SAMEA6057689	2928	9	44	1	6	8	4
SAMEA6058617	2937	1	42	0	7	7	6
SAMEA6058004	2889	24	59	2	5	10	11
SAMEA6057472	2937	2	42	0	8	7	4
SAMEA6057772	2672	265	44	1	7	7	4
SAMEA6058589	2938	1	42	0	8	7	4
SAMEA6058182	2936	6	42	0	6	8	2
SAMEA6058217	2885	15	73	9	6	8	4
SAMEA6058499	2915	12	50	0	7	8	8
SAMEA6057960	2941	0	40	0	8	7	4
SAMEA6058151	2943	3	40	0	4	7	3
SAMEA6058575	2906	5	72	0	6	7	4
SAMEA6057971	2901	36	42	0	7	8	6
SAMEA6058330	2643	288	53	0	5	7	4
SAMEA6058142	2943	0	41	0	6	7	3
SAMEA6057573	2935	5	42	0	6	9	3
SAMEA6058346	2890	5	66	1	6	9	23
SAMEA6058029	2931	2	50	0	6	7	4
SAMEA6058618	2925	15	42	0	6	9	3
SAMEA6057591	2936	5	41	0	7	7	4
SAMEA6057732	2849	39	83	4	7	9	9
SAMEA5533801	2585	344	47	0	13	7	4
SAMEA5552168	2918	19	46	0	7	7	3
SAMEA6058220	2941	0	41	0	8	8	2
SAMEA6058146	2897	15	61	2	5	9	11
SAMEA6058450	2683	257	42	0	8	7	3
SAMEA6057507	2858	19	71	0	11	8	33
SAMEA6058019	2742	191	46	3	8	7	3
SAMEA6057604	2904	20	51	1	8	8	8
SAMEA6057585	2941	2	40	0	7	8	2
SAMEA6057835	2920	1	58	4	6	8	3
SAMEA6058555	2852	26	74	0	10	8	30
SAMEA6057784	2889	24	60	3	5	9	10
SAMEA6058244	2935	6	40	0	8	8	3
SAMEA6057678	2908	3	51	0	6	8	24
SAMEA6058156	2930	5	44	0	6	9	6
SAMEA6057893	2938	1	42	0	8	7	4
SAMEA6057537	1898	932	137	0	15	8	10
SAMEA6058550	2939	1	42	0	7	7	4
SAMEA6057838	2879	34	49	0	6	8	24
SAMEA6057556	2910	3	61	2	4	9	11
SAMEA6058043	2867	39	53	0	10	8	23
SAMEA6057791	2915	26	41	0	8	7	3
SAMEA6058251	2711	228	41	0	6	8	6
SAMEA6058292	2938	3	41	0	7	8	3
SAMEA6058620	2754	188	41	0	7	7	3
SAMEA6057831	2668	275	41	0	6	7	3
SAMEA6058092	2927	10	42	0	8	7	6
SAMEA6057782	2941	0	41	0	7	7	4
SAMEA6058583	2924	14	43	2	6	8	3
SAMEA6058382	2739	188	49	0	7	8	9
SAMEA6058055	2878	5	71	0	10	8	28
SAMEA6058213	2923	8	49	2	7	8	3
SAMEA6057548	2937	5	41	0	7	7	3
SAMEA6057777	2932	7	41	0	8	7	5
SAMEA6057915	2932	4	49	0	5	7	3
SAMEA6058494	2939	0	42	0	7	7	5
SAMEA6058033	2916	13	49	3	8	8	3
SAMEA6058593	2725	216	43	0	5	7	4
SAMEA6057434	2915	16	48	4	6	8	3
SAMEA6058445	2942	0	42	0	6	7	3
SAMEA6058115	2902	35	44	0	8	8	3
SAMEA6058097	2903	7	62	2	6	9	11
SAMEA6058366	2937	4	41	0	8	8	2
SAMEA6058466	2938	0	43	0	7	8	4
SAMEA6057859	2752	131	71	0	9	10	27
SAMEA6057428	2940	1	41	0	8	8	2
SAMEA6057420	2935	0	42	0	9	7	7
SAMEA6057933	2820	124	39	0	5	8	4
SAMEA6058126	2926	11	42	0	7	9	5
SAMEA6057476	2424	429	129	0	8	7	3
SAMEA6057444	2934	1	44	1	7	7	6
SAMEA6057762	2930	11	44	0	5	7	3
SAMEA6057721	2688	255	41	0	6	7	3
SAMEA6057950	2931	6	42	0	8	7	6
SAMEA6057593	2915	24	42	0	7	7	5
SAMEA6057643	2929	2	49	0	7	7	6
SAMEA6057543	2935	1	43	1	7	6	7
SAMEA6057877	2930	7	43	1	8	8	3
SAMEA6057417	2939	0	42	0	7	7	5
SAMEA6057667	2924	15	45	0	6	8	2
SAMEA6058556	2916	11	59	0	4	7	3
SAMEA6057625	2942	2	40	0	6	7	3
SAMEA6058561	2940	0	42	0	6	9	3
SAMEA5533805	2469	462	49	0	11	6	3
SAMEA6057517	2921	10	46	4	6	7	6
SAMEA6057679	2935	6	42	0	7	8	2
SAMEA6057457	2934	7	43	0	6	8	2
SAMEA6058392	2857	29	72	4	7	8	23
SAMEA6057581	2667	268	45	2	7	7	4
SAMEA6057771	2933	1	43	0	7	9	7
SAMEA6057453	2891	17	65	2	5	9	11
SAMEA6058165	2895	46	40	0	8	7	4
SAMEA6057560	2926	15	41	0	7	7	4
SAMEA6057425	2929	11	41	0	7	7	5
SAMEA6057598	2919	11	51	0	5	9	5
SAMEA6057505	2904	11	60	2	4	9	10
SAMEA6058423	2941	0	41	0	8	8	2
SAMEA6057922	2937	3	42	1	6	8	3
SAMEA6058264	2937	0	41	0	8	7	7
SAMEA6057450	2932	4	43	0	6	9	6
SAMEA6058495	2931	7	44	0	7	7	4
SAMEA6057992	2926	9	44	0	6	9	6
SAMEA6058606	2934	5	41	0	8	7	5
SAMEA6058540	2910	23	51	0	5	7	4
SAMEA6058186	2939	2	41	1	7	7	3
SAMEA6058266	2916	14	52	1	6	7	4
SAMEA6057566	2918	10	50	6	5	8	3
SAMEA6057606	2939	5	41	0	5	7	3
SAMEA6057951	2702	239	41	0	7	6	5
SAMEA6057419	2868	60	45	0	10	7	10
SAMEA6057711	2863	37	57	3	7	8	25
SAMEA6058166	2892	16	64	4	5	9	10
SAMEA6057489	2654	288	43	0	5	7	3
SAMEA6058504	2743	200	41	0	4	8	4
SAMEA6057564	2924	12	43	0	6	9	6
SAMEA6057738	2928	14	42	0	6	7	3
SAMEA6057889	2913	22	46	1	8	7	3
SAMEA6057534	2896	16	61	2	4	9	12
SAMEA6058236	2940	4	40	0	6	8	2
SAMEA6058410	2882	56	41	0	7	7	7
SAMEA6057668	2916	19	42	0	9	7	7
SAMEA6057516	2908	28	44	0	8	8	4
SAMEA6058203	2943	1	40	0	6	7	3
SAMEA6057770	2913	20	45	0	6	9	7
SAMEA5552148	2667	276	40	0	6	7	4
SAMEA6057767	2657	282	41	0	9	8	3
SAMEA6057653	2683	246	54	0	7	6	4
SAMEA6057524	2901	17	57	1	5	9	10
SAMEA6058438	2933	6	42	0	7	7	5
SAMEA6058447	2923	14	43	0	5	9	6
SAMEA6058101	2936	3	43	0	6	8	4
SAMEA6057635	2934	6	41	0	7	9	3
SAMEA5882642	2931	5	44	0	6	8	6
SAMEA6057751	2907	6	49	0	6	8	24
SAMEA6058338	2939	0	42	0	7	7	5
SAMEA6057746	2932	5	49	0	4	7	3
SAMEA6058183	2934	5	42	0	7	7	5
SAMEA6058320	2915	10	51	0	7	8	9
SAMEA6057532	2940	1	42	0	6	7	4
SAMEA6057927	2931	9	43	0	6	7	4
SAMEA6058015	2935	8	42	0	6	7	2
SAMEA6057655	2921	18	43	1	6	7	4
SAMEA6057547	2936	1	46	1	5	8	3
SAMEA6057535	2925	6	46	0	7	9	7
SAMEA6057742	2924	10	51	0	5	7	3
SAMEA6057673	2934	2	45	2	7	8	2
SAMEA6058511	2933	9	41	0	6	7	4
SAMEA6058502	2921	20	40	0	7	8	4
SAMEA6057661	2918	23	41	0	8	7	3
SAMEA6057474	2939	1	42	0	6	7	5
SAMEA6058488	2937	3	42	0	7	7	4
SAMEA6057594	2935	4	42	0	7	7	5
SAMEA6057515	2926	13	43	0	5	8	5
SAMEA5737697	2925	17	41	0	7	8	2
SAMEA6058457	2938	6	41	1	4	7	3
SAMEA6058399	2930	6	45	2	6	8	3
SAMEA6058087	2623	307	51	0	9	8	2
SAMEA6058104	2917	1	62	5	4	7	4
SAMEA6057462	2926	14	41	0	6	7	6
SAMEA6057758	2930	9	42	0	7	8	4
SAMEA6058106	2925	14	42	0	6	7	6
SAMEA6058379	2925	14	42	0	6	7	6
SAMEA6058046	2935	1	45	3	6	8	2
SAMEA6057553	2910	16	58	1	5	7	3
SAMEA6058339	2940	2	41	0	5	8	4
SAMEA6058253	2925	4	53	1	5	7	5
SAMEA6058572	2939	0	42	0	6	7	6
SAMEA6057688	2933	4	45	1	7	8	2
SAMEA6057460	2942	1	40	0	5	8	4
SAMEA6057454	2922	19	42	0	6	8	3
SAMEA6058095	2939	2	42	0	6	8	3
SAMEA6058441	2922	19	41	0	6	7	5
SAMEA6058009	2930	4	44	0	7	9	6
SAMEA6057588	2937	6	41	0	6	8	2
SAMEA6057435	2930	5	43	0	7	9	6
SAMEA6058599	2940	0	41	0	7	7	5
SAMEA5552150	2935	5	43	1	6	7	3
SAMEA6057520	2939	4	41	0	5	7	4
SAMEA6058401	2936	5	42	0	6	7	4
SAMEA6057994	2930	6	49	0	5	7	3
SAMEA6058378	2928	15	40	0	6	8	3
SAMEA6057437	2923	9	50	3	5	7	3
SAMEA6057932	2905	21	51	0	7	9	7
SAMEA6057789	2863	46	62	3	7	9	10
SAMEA6057602	2861	45	65	1	9	9	10
SAMEA6058580	2938	2	42	0	7	7	4
SAMEA6057989	2929	5	43	0	7	9	7
SAMEA6057934	2932	5	42	0	7	7	7
SAMEA6058202	2722	219	40	1	6	7	5
SAMEA6057438	2923	15	42	0	6	7	7
SAMEA5552169	2625	280	73	1	5	7	9
SAMEA6058065	2934	7	42	0	6	7	4
SAMEA6058402	2684	248	50	0	7	7	4
SAMEA6058525	2655	289	41	0	5	7	3
SAMEA6057969	2934	4	42	2	6	7	5
SAMEA6058463	2695	250	41	0	4	7	3
SAMEA6058595	2938	1	42	1	7	7	4
SAMEA6057949	2945	0	40	0	5	7	3
SAMEA6057447	2634	300	48	0	6	8	4
SAMEA6058311	2942	0	42	0	6	7	3
SAMEA6057587	2934	2	45	1	8	8	2
SAMEA6057607	2934	5	42	0	6	7	6
SAMEA5552153	2741	199	40	0	6	9	5
SAMEA6057930	2900	9	65	8	6	7	5
SAMEA6058388	2936	4	42	0	6	7	5
SAMEA6058010	2906	17	56	5	5	7	4
SAMEA6058358	2942	2	40	0	6	8	2
SAMEA6057959	2701	241	41	1	6	7	3
SAMEA6057883	2928	5	45	2	7	7	6
SAMEA6058284	2930	5	44	0	7	9	5
SAMEA6058034	2752	190	43	0	5	7	3
SAMEA6058600	2941	2	41	0	5	7	4
SAMEA6058079	2932	9	42	0	5	7	5
SAMEA6058100	2936	2	42	0	7	7	6
SAMEA6058160	2931	1	51	0	7	7	3
SAMEA6057477	2939	0	45	0	5	8	3
SAMEA6057522	2643	280	57	2	5	8	5
SAMEA6057589	2925	8	45	0	7	9	6
SAMEA6057986	2929	6	43	0	7	9	6
SAMEA6057807	2936	2	43	0	6	8	5
SAMEA6058448	2939	3	42	0	6	7	3
SAMEA6058443	2865	24	76	8	8	9	10
SAMEA6057881	2907	25	48	1	7	9	3
SAMEA6058390	2929	11	41	0	8	7	4
SAMEA6057574	2920	18	43	1	6	9	3
SAMEA6057978	2753	183	49	0	5	7	3
SAMEA6058404	2919	19	41	0	7	7	7
SAMEA6057760	2927	8	49	0	5	7	4
SAMEA5737698	2940	1	41	0	7	8	3
SAMEA6057608	2919	8	50	0	7	8	8
SAMEA6058371	2916	13	50	2	6	8	5
SAMEA6057766	2932	9	42	0	6	7	4
SAMEA6058159	2902	33	50	0	5	7	3
SAMEA6057538	2833	47	73	8	7	8	24
SAMEA6057650	2922	19	42	0	6	8	3
SAMEA6057947	2933	0	50	0	7	7	3
SAMEA6057924	2912	0	61	2	8	8	9
SAMEA6057716	2938	1	42	0	6	7	6
SAMEA6057861	2930	11	42	0	6	8	3
SAMEA6058569	2942	1	40	0	5	8	4
SAMEA6058616	2921	5	56	2	5	7	4
SAMEA6057763	2898	41	41	1	7	7	5
SAMEA6057923	2933	2	43	0	7	9	6
SAMEA6057459	2929	2	51	2	5	8	3
SAMEA6057926	2933	2	43	0	7	9	6
SAMEA6057675	2936	4	41	1	8	8	2
SAMEA6058215	2741	168	65	0	7	9	10
SAMEA6058431	2929	7	43	0	7	9	5
SAMEA6058562	2940	0	42	0	7	7	4
SAMEA6058304	2934	3	41	0	7	7	8
SAMEA6057870	2939	0	42	0	6	7	6
SAMEA6057508	2936	1	42	0	6	7	8
SAMEA6057501	2927	17	40	0	6	8	2
SAMEA6058535	2869	60	45	0	9	7	10
SAMEA6057756	2936	2	43	0	7	7	5
SAMEA5552158	2915	24	42	0	5	8	6
SAMEA6057448	2945	1	40	0	4	7	3
SAMEA6058041	2906	25	51	2	6	7	3
SAMEA6058578	2935	0	42	1	8	7	7
SAMEA6058272	2934	10	40	0	6	7	3
SAMEA6058361	2930	8	43	1	6	8	4
SAMEA5552160	2933	7	45	0	5	7	3
SAMEA6057748	2935	5	42	0	6	8	4
SAMEA6057757	2909	21	51	1	7	7	4
SAMEA6057595	2667	263	47	3	6	9	5
SAMEA5882645	2941	0	42	0	6	7	4
SAMEA6057582	2931	7	44	2	5	8	3
SAMEA6058188	2931	7	42	0	7	7	6
SAMEA6057424	2927	14	43	0	5	8	3
SAMEA6057794	2880	9	76	12	7	9	7
SAMEA6057575	2923	3	57	1	6	7	3
SAMEA6058270	2933	8	40	0	6	8	5
SAMEA6058581	2923	3	49	0	7	8	10
SAMEA6058210	2902	40	41	0	7	7	3
SAMEA6058288	2620	318	39	0	8	8	7
SAMEA6058212	2741	199	42	0	5	8	5
SAMEA6057698	2940	2	40	0	7	8	3
SAMEA6057856	2747	195	42	0	6	7	3
SAMEA6058149	2929	5	51	0	5	7	3
SAMEA6058277	2917	15	50	2	5	8	3
SAMEA6058170	2632	257	67	6	7	8	23
SAMEA6058468	2721	216	42	0	6	9	6
SAMEA6057430	2935	1	43	1	7	7	6
SAMEA6057931	2939	1	41	0	7	9	3
SAMEA6058080	2893	19	61	0	7	9	11
SAMEA6057699	2922	2	52	2	7	9	6
SAMEA6058038	2940	0	42	0	6	7	5
SAMEA6058282	1949	971	42	1	27	8	2
SAMEA6058472	2939	0	42	0	6	7	6
SAMEA6058027	2944	0	40	0	6	7	3
SAMEA6058228	1516	1392	42	0	37	9	4
SAMEA6058437	2934	6	41	0	8	7	4
SAMEA6057871	2462	377	136	0	6	11	8
SAMEA6057879	2931	2	46	2	7	8	4
SAMEA6057600	2939	0	42	0	6	7	6
SAMEA6058191	2935	8	40	0	7	8	2
SAMEA6057629	2927	9	43	0	7	9	5
SAMEA6057887	2942	0	42	0	6	7	3
SAMEA6058456	2713	229	40	0	5	7	6
SAMEA6058278	2941	0	40	0	6	8	5
SAMEA6058164	2917	5	41	0	27	8	2
SAMEA6057841	2940	1	42	1	6	8	2
SAMEA6057717	2939	1	42	0	6	7	5
SAMEA6057863	2938	3	42	0	6	7	4
SAMEA6057824	2936	4	42	0	6	7	5
SAMEA6057700	2924	5	45	1	8	10	7
SAMEA6057768	2927	5	46	2	6	7	7
SAMEA6058416	2946	0	40	0	4	7	3
SAMEA5552149	2935	7	43	0	5	7	3
SAMEA6057900	2926	10	48	0	6	8	2
SAMEA6057843	2705	238	41	0	6	7	3
SAMEA6058200	2908	12	58	4	5	7	6
SAMEA5552147	2927	12	41	0	7	9	4
SAMEA6058090	2932	8	42	0	7	8	3
SAMEA6058267	2934	0	49	0	7	7	3
SAMEA6058110	2926	8	47	1	5	8	5
SAMEA6058530	2929	2	50	1	6	7	5
SAMEA6057503	2937	2	42	0	6	7	6
SAMEA6058234	2941	4	40	0	5	7	3
SAMEA6057718	2931	8	43	0	7	7	4
SAMEA6058568	2686	252	42	0	7	8	5
SAMEA6058128	2934	3	43	0	7	7	6
SAMEA6057423	2931	3	49	0	7	7	3
SAMEA6058368	2924	3	50	0	7	8	8
SAMEA6058590	2946	0	40	0	4	7	3
SAMEA6057946	2686	243	47	2	8	9	5
SAMEA6058491	2938	2	42	0	7	7	4
SAMEA6058140	2922	22	39	0	4	7	6
SAMEA5737705	2712	200	61	2	8	8	9
SAMEA6057626	2909	5	61	5	7	7	6
SAMEA6058026	2907	31	42	0	6	7	7
SAMEA6057873	2931	4	44	0	6	9	6
SAMEA6058418	2931	3	44	1	7	7	7
SAMEA6058285	2905	27	48	1	7	8	4
SAMEA6058172	2936	6	41	0	6	8	3
SAMEA6058176	2928	15	40	0	7	8	2
SAMEA6057892	2898	15	62	1	6	9	9
SAMEA6058428	2938	0	43	0	6	7	6
SAMEA6057952	2939	0	42	0	6	7	6
SAMEA6058012	2916	25	41	0	6	9	3
SAMEA6058287	2932	8	42	0	6	7	5
SAMEA6058598	2939	1	42	0	6	7	5
SAMEA6057619	2884	50	40	0	9	9	8
SAMEA6057592	2943	2	40	0	4	7	4
SAMEA6057964	2914	20	49	0	7	7	3
SAMEA6057674	2943	0	40	1	6	7	3
SAMEA6057902	2322	591	57	4	11	10	5
SAMEA6058557	2943	2	40	1	4	7	3
SAMEA6057764	2684	254	42	2	7	8	3
SAMEA6058265	2929	1	52	2	5	8	3
SAMEA6058187	2938	4	41	0	7	8	2
SAMEA6057709	2930	4	45	3	8	8	2
SAMEA6057640	2916	7	55	4	7	7	4
SAMEA6057617	2917	8	49	0	7	10	9
SAMEA6057929	2927	15	41	0	6	7	4
SAMEA6057621	2933	7	43	0	6	8	3
SAMEA6058297	2938	5	40	0	7	7	3
SAMEA6057928	2934	1	43	2	7	7	6
SAMEA5552156	2651	291	42	1	5	7	3
SAMEA6057682	2927	12	44	0	7	8	2
SAMEA6057939	2909	31	41	0	7	9	3
SAMEA6057967	2902	37	42	0	7	8	4
SAMEA6057473	2930	14	41	0	5	7	3
SAMEA6058422	2858	22	71	1	10	8	30
SAMEA6058356	2838	105	40	0	6	8	3
SAMEA6057571	2581	346	51	1	3	13	5
SAMEA6057963	2734	202	45	2	7	7	3
SAMEA6058177	2942	0	41	0	7	8	2
SAMEA6057970	2938	7	40	0	5	7	3
SAMEA6057513	2944	0	40	0	6	7	3
SAMEA6058462	2691	246	44	0	7	8	4
SAMEA6058306	2935	6	41	0	6	9	3
SAMEA6057691	2937	0	43	0	7	7	6
SAMEA6058258	2913	16	54	1	6	7	3
SAMEA6058458	2937	4	42	0	5	7	5
SAMEA6057488	2926	7	50	1	5	7	4
SAMEA6058238	2899	10	51	0	7	8	25
SAMEA6057491	2932	7	42	0	6	7	6
SAMEA6058434	2741	183	50	0	7	8	11
SAMEA6058509	2655	283	41	0	8	8	5
SAMEA6058603	2938	0	42	0	6	7	7
SAMEA6058316	2925	0	55	3	6	8	3
SAMEA6058261	2938	1	42	0	6	7	6
SAMEA6058255	2911	31	42	0	6	8	2
SAMEA6057916	2926	15	42	0	6	7	4
SAMEA6057894	2940	3	41	0	5	8	3
SAMEA6058551	2879	3	71	0	10	8	29
SAMEA6058439	2934	5	42	0	6	7	6
SAMEA6057677	2937	2	42	0	6	7	6
SAMEA6058218	2932	4	41	0	8	7	8
SAMEA6058067	2892	18	61	4	6	9	10
SAMEA6057495	2938	4	41	0	7	8	2
SAMEA6058419	2916	5	61	1	6	7	4
SAMEA5882647	2944	0	40	0	6	8	2
SAMEA6058021	2914	19	52	0	5	7	3
SAMEA6058020	2907	32	42	1	7	8	3
SAMEA6058268	2929	8	42	0	7	9	5
SAMEA6057814	2892	22	60	2	5	9	10
SAMEA6057869	2933	9	41	0	5	8	4
SAMEA6058577	2931	12	40	1	6	8	2
SAMEA6057737	2937	2	44	0	6	7	4
SAMEA6058582	2926	7	44	1	8	7	7
SAMEA6057469	2915	13	49	0	7	8	8
SAMEA6058362	2896	32	55	0	6	7	4
SAMEA6057465	2903	29	46	3	7	8	4
SAMEA6058254	2880	29	50	2	6	8	25
SAMEA6058323	2942	1	41	0	6	7	3
SAMEA6057676	2932	9	41	1	7	8	2
SAMEA6058071	2922	6	54	3	5	7	3
SAMEA6057792	2914	12	52	0	7	9	6
SAMEA6057719	2938	4	41	0	6	8	3
SAMEA6058116	2939	5	40	0	6	8	2
SAMEA5552151	2789	151	41	0	6	9	4
SAMEA6058132	1859	1045	48	0	30	9	9
SAMEA6058621	2935	3	42	0	7	7	6
SAMEA5552154	2935	7	43	0	5	7	3
SAMEA6058243	2649	280	49	5	6	7	4
SAMEA6058421	2937	5	40	0	7	8	3
SAMEA6057644	2923	17	42	1	7	7	3
SAMEA6057730	2938	3	42	0	6	7	4
SAMEA6057568	2940	0	42	0	7	7	4
SAMEA6058098	2938	3	42	0	7	7	3
SAMEA6057907	2939	4	40	1	6	7	3
SAMEA6058289	2919	22	41	0	7	7	4
SAMEA6058189	2900	11	61	2	6	9	11
SAMEA6057818	2895	11	53	0	7	8	26
SAMEA6057899	2913	25	42	0	6	8	6
SAMEA6057857	2929	2	51	1	6	7	4
SAMEA6057977	2817	125	40	0	7	8	3
SAMEA6058269	2926	1	59	0	4	7	3
SAMEA6058605	2939	0	42	0	6	7	6
SAMEA6058000	2939	5	40	0	5	8	3
SAMEA6057819	2724	217	42	1	5	7	4
SAMEA6057586	2390	529	54	0	12	9	6
SAMEA6058446	2935	5	41	0	6	7	6
SAMEA6058141	2934	3	43	0	7	7	6
SAMEA6057761	2881	1	71	0	10	8	29
SAMEA6058309	2939	1	42	0	6	7	5
SAMEA6057654	2921	20	41	0	6	7	5
SAMEA6058394	2879	14	68	2	6	9	22
SAMEA6058281	2939	2	43	0	5	8	3
SAMEA5737696	2924	13	45	1	6	8	3
SAMEA6057910	2942	0	41	0	7	8	2
SAMEA6058534	2939	1	42	0	6	7	5
SAMEA6057672	2932	0	50	1	7	7	3
SAMEA6058470	2676	263	44	1	5	7	4
SAMEA6058452	2932	2	43	0	7	9	7
SAMEA6057421	2934	9	40	0	7	8	2
SAMEA6057662	2928	8	43	0	7	9	5
SAMEA6057998	2917	17	44	0	7	9	6
SAMEA6058514	2602	272	74	0	10	8	34
SAMEA6058476	2934	3	45	0	5	8	5
SAMEA5737701	2919	6	55	3	6	8	3
SAMEA6058474	2937	1	41	0	6	7	8
SAMEA6057705	2917	22	44	1	6	8	2
SAMEA6058424	2929	3	45	2	7	7	7
SAMEA5533802	2688	249	44	4	5	7	3
SAMEA6058152	2911	26	41	0	8	9	5
SAMEA6057641	2932	7	42	0	7	7	5
SAMEA6058492	2876	2	102	0	6	7	7
SAMEA6057867	2633	307	43	0	6	7	4
SAMEA6057496	2908	31	42	0	8	7	4
SAMEA6057799	2937	1	42	1	6	7	6
SAMEA6058299	2935	0	43	0	8	7	7
SAMEA6057865	2944	0	40	0	6	7	3
SAMEA6058538	2936	4	41	0	7	7	5
SAMEA6058355	2898	3	70	5	5	9	10
SAMEA6058093	2944	0	40	0	6	7	3
SAMEA6058543	2917	15	52	0	6	7	3
SAMEA6058232	2723	219	39	0	6	8	5
SAMEA6057620	2940	2	41	0	7	8	2
SAMEA6058198	2935	9	40	0	5	8	3
SAMEA6058147	2911	3	60	2	5	9	10
SAMEA6058533	2939	0	42	0	6	7	6
SAMEA6057826	2926	1	54	0	6	7	6
SAMEA6057810	2921	6	48	3	7	9	6
SAMEA6057944	2937	1	44	0	6	7	5
SAMEA6057636	2920	18	43	0	7	8	4
SAMEA6058061	2922	20	41	0	5	8	4
SAMEA6057806	2938	1	44	1	6	8	2
SAMEA5737703	2932	8	44	0	5	8	3
SAMEA6058498	2940	0	42	0	6	7	5
SAMEA6058196	2932	8	42	0	6	7	5
SAMEA6057665	2929	13	41	0	7	7	3
SAMEA6057651	2936	3	44	0	5	8	4
SAMEA6057558	2691	216	66	4	4	9	10
SAMEA6058229	2938	1	42	0	6	7	6
SAMEA6058547	2927	12	43	0	6	9	3
SAMEA6058108	2928	15	41	0	6	8	2
SAMEA5552152	2912	2	70	0	6	7	3
SAMEA6057953	2930	10	42	0	7	7	4
SAMEA6057830	2940	0	43	0	6	8	3
SAMEA6057464	2934	4	44	0	6	7	5
SAMEA6058591	2940	0	42	0	6	7	5
SAMEA6057749	2927	11	45	0	6	7	4
SAMEA6058417	2914	24	43	0	6	9	4
SAMEA6057739	2937	2	42	0	6	7	6
SAMEA6058193	2930	6	43	2	7	7	5
SAMEA6058344	2938	2	43	0	6	7	4
SAMEA6058174	2931	7	41	0	7	7	7
SAMEA6058223	2681	233	57	0	4	8	17
SAMEA6057471	2938	1	42	0	6	7	6
SAMEA6058460	2627	315	39	0	8	8	3
SAMEA6058487	2932	11	41	0	7	7	2
SAMEA6058248	2941	0	41	0	6	8	4
SAMEA6057563	2935	4	44	0	5	8	4
SAMEA6057603	2785	158	40	0	5	8	4
SAMEA6057680	2939	4	41	0	6	7	3
SAMEA6057919	2945	1	40	0	4	7	3
SAMEA6057579	2935	8	41	0	5	7	4
SAMEA6057431	2926	14	42	0	7	8	3
SAMEA6058005	2908	34	40	0	6	8	4
SAMEA6058016	2934	4	45	1	5	8	3
SAMEA6058601	2937	2	42	0	6	7	6
SAMEA6058553	2722	202	48	0	10	9	9
SAMEA6058237	2893	19	50	0	6	9	23
SAMEA6057954	2938	0	43	1	6	7	5
SAMEA5552159	2937	2	46	0	5	7	3
SAMEA6058307	2925	15	41	0	6	7	6
SAMEA6057611	2894	11	53	3	6	8	25
SAMEA6057958	2606	333	41	0	9	8	3
SAMEA6057734	2930	9	43	2	5	8	3
SAMEA6057502	2934	6	44	0	5	8	3
SAMEA6058604	2875	8	71	0	10	8	28
SAMEA6057706	2934	1	43	0	7	9	6
SAMEA6058381	2938	6	40	0	6	8	2
SAMEA6058398	2936	3	42	1	6	7	5
SAMEA6058318	2923	20	42	0	5	7	3
SAMEA6058609	2943	0	41	0	6	7	3
SAMEA6058622	2934	4	43	0	6	7	6
SAMEA6058409	2898	16	60	2	5	9	10
SAMEA6057580	2925	3	51	2	6	7	6
SAMEA5552146	2928	15	41	1	5	7	3
SAMEA6057744	2939	0	42	0	6	7	6
SAMEA6058432	2916	23	43	0	6	8	4
SAMEA6058077	2915	12	51	3	6	7	6
SAMEA6057597	2674	262	49	0	5	7	3
SAMEA6057833	2934	4	43	1	6	7	5
SAMEA6058181	2933	7	43	0	5	7	5
SAMEA6057917	2912	27	41	0	6	7	7
SAMEA6058611	2854	18	88	1	5	8	26
SAMEA6058383	2905	20	51	0	8	8	8
SAMEA6058359	2936	4	42	0	6	7	5
SAMEA6057499	2904	11	59	8	6	8	4
SAMEA6057808	2912	7	59	4	6	7	5
SAMEA6057536	2928	3	53	0	6	7	3
SAMEA6057550	2931	3	46	1	7	7	5
SAMEA6057525	2926	19	40	1	4	7	3
SAMEA6057981	2901	9	63	2	5	9	11
SAMEA6057463	2937	4	41	1	6	7	4
SAMEA6057984	2930	6	49	0	5	7	3
SAMEA6057451	2942	0	41	0	7	8	2
SAMEA6058084	2932	8	41	0	6	9	4
SAMEA6057530	2882	55	43	0	8	9	3
SAMEA6058497	2936	4	42	0	6	7	5
SAMEA6057851	2936	8	40	0	6	8	2
SAMEA6058602	2932	12	40	0	6	8	2
SAMEA6057615	2944	0	40	0	6	7	3
SAMEA6058518	2936	3	42	0	6	7	6
SAMEA6057812	2919	11	54	0	5	8	3
SAMEA6057544	2852	30	72	0	10	8	28
SAMEA6058279	2927	14	41	0	6	8	4
SAMEA6057729	2936	3	45	0	5	8	3
SAMEA6058567	2940	1	41	0	8	8	2
SAMEA5552155	2913	3	66	1	5	8	4
SAMEA6058391	2740	194	47	2	7	7	3
SAMEA6057855	2940	1	41	0	8	8	2
SAMEA6057936	2932	3	44	0	8	7	6
SAMEA6057733	2943	0	40	0	7	7	3
SAMEA6058007	2878	26	68	4	5	9	10
SAMEA6058060	2935	0	50	0	5	7	3
SAMEA6058539	2936	6	40	0	6	8	4
SAMEA6058118	2934	0	46	1	8	7	4
SAMEA6057868	2920	15	43	0	7	9	6
SAMEA6057498	2940	1	42	1	5	7	4
SAMEA6057769	2936	6	40	0	7	8	3
SAMEA6057576	2643	298	44	0	5	7	3
SAMEA6057844	2938	3	40	3	6	7	3
SAMEA6058341	2929	10	41	0	8	7	5
SAMEA6057479	2937	1	42	0	9	7	4
SAMEA6058353	2932	11	41	0	6	7	3
SAMEA6058058	2932	6	42	0	8	7	5
SAMEA6057801	2918	4	50	6	7	9	6
SAMEA6057481	2939	0	41	0	8	7	5
SAMEA6057658	2927	9	41	1	8	7	7
SAMEA6058138	2921	13	50	0	5	7	4
SAMEA5552166	2747	191	41	0	7	9	5
SAMEA5737699	2923	18	42	0	6	7	4
SAMEA6058350	2940	2	40	0	6	8	4
SAMEA6057647	2925	14	41	3	7	7	3
SAMEA6058082	2920	14	44	2	7	9	4
SAMEA6057999	2922	12	51	0	5	7	3
SAMEA6057490	2938	7	41	0	4	7	3
SAMEA5552165	2875	68	41	0	5	8	3
SAMEA6058040	2926	8	47	1	6	9	3
SAMEA6057713	2925	5	46	1	7	9	7
SAMEA6058467	2919	20	42	0	6	8	5
SAMEA6058252	2939	2	41	0	8	8	2
SAMEA6057821	2934	7	41	0	6	8	4
SAMEA6057618	2930	1	48	0	8	7	6
SAMEA6058121	2931	6	43	3	7	8	2
SAMEA6057487	2935	2	42	0	8	7	6
SAMEA6058076	2931	9	43	1	5	8	3
SAMEA6058260	2940	0	42	1	7	7	3
SAMEA6058464	2933	5	44	1	5	8	4
SAMEA6058227	2932	10	40	0	7	8	3
SAMEA6058035	2944	0	40	0	5	7	4
SAMEA6058283	2940	1	42	0	7	7	3
SAMEA6058028	2940	1	41	0	8	8	2
SAMEA6058094	2662	278	43	1	6	7	3
SAMEA6058324	2890	3	64	4	6	9	24
SAMEA6057945	2928	4	45	3	8	7	5
SAMEA6058313	2937	2	43	1	7	8	2
SAMEA6057743	2721	223	41	0	5	7	3
SAMEA6058018	2655	280	45	3	6	7	4
SAMEA6057666	2937	2	44	1	5	8	3
SAMEA6058031	2933	5	42	0	8	9	3
SAMEA6057854	2918	5	51	9	5	7	5
SAMEA6058570	2931	4	42	0	9	7	7
SAMEA6057624	2921	18	42	0	8	7	4
SAMEA6058052	2693	239	44	3	6	8	7
SAMEA6057874	1949	971	42	1	27	8	2
SAMEA6058214	2925	12	45	2	5	8	3
SAMEA6057850	2073	845	49	0	18	10	5
SAMEA6058459	2919	21	42	0	6	8	4
SAMEA6058587	2930	10	41	0	7	9	3
SAMEA6058444	2922	19	43	0	5	8	3
SAMEA6057494	2921	19	42	1	7	8	2
SAMEA6058526	2936	1	42	0	8	7	6
SAMEA6058370	2934	4	42	0	8	7	5
SAMEA6058455	2922	14	42	0	8	7	7
SAMEA6057429	2918	22	41	1	8	8	2
SAMEA6057659	2937	0	42	0	8	7	6
SAMEA6057752	2933	1	43	0	7	9	7
SAMEA6057533	2941	2	41	0	5	7	4
SAMEA6057996	2941	0	42	0	8	7	2
SAMEA6058566	2887	9	85	0	6	7	6
SAMEA6058275	2936	5	41	0	8	7	3
SAMEA6058478	2658	276	43	0	7	9	7
SAMEA6057695	2891	40	47	1	9	7	5
SAMEA6058475	2886	25	62	2	4	9	12
SAMEA6058081	2940	1	43	0	5	8	3
SAMEA6057864	2902	10	61	3	3	10	11
SAMEA6057554	2934	4	43	0	8	8	3
SAMEA6058523	2852	77	48	0	9	7	7
SAMEA6057443	2874	6	99	1	7	9	4
SAMEA6057775	2929	14	40	0	5	7	5
SAMEA6058049	2939	0	42	0	8	7	4
SAMEA6058216	2932	3	41	0	9	7	8
SAMEA6057866	2912	24	44	2	8	7	3
SAMEA6058175	2939	0	42	0	8	7	4
SAMEA6058510	2893	39	46	0	8	7	7
SAMEA5533800	2654	282	46	1	7	7	3
SAMEA6057817	2925	1	52	0	7	9	6
SAMEA6057478	2935	1	42	0	8	7	7
SAMEA6058062	2926	7	44	1	7	9	6
SAMEA6057901	2945	0	41	0	4	7	3
SAMEA6058051	2904	34	41	1	8	8	4
SAMEA6057798	2919	8	52	3	7	8	3
SAMEA6058541	2941	0	41	0	8	8	2
SAMEA6058374	2935	7	41	0	6	7	4
SAMEA6057815	2889	15	70	4	3	9	10
SAMEA6058624	2938	0	42	0	9	7	4
SAMEA6058420	2938	0	42	0	8	7	5
SAMEA6057693	2915	24	41	0	8	7	5
SAMEA6057937	2930	0	49	1	8	7	5
SAMEA6058629	2923	10	52	0	5	7	3
SAMEA6057510	2932	5	41	0	8	7	7
SAMEA6057671	2919	13	41	3	9	7	8
SAMEA6058301	2937	0	42	0	8	7	6
SAMEA6058549	2912	11	51	0	7	8	11
SAMEA6057599	2933	4	42	0	8	7	6
SAMEA6058088	2939	4	41	0	7	7	2
SAMEA6057527	2903	15	56	1	8	8	9
SAMEA6057858	2911	1	49	1	6	8	24
SAMEA6058528	2928	11	41	1	7	9	3
SAMEA5552157	2709	230	43	0	6	8	4
SAMEA6058352	2929	6	49	0	5	7	4
SAMEA6057753	2933	1	44	0	7	9	6
SAMEA6058241	2938	0	42	0	9	7	4
SAMEA6057686	2943	0	40	0	7	7	3
SAMEA6058211	2934	6	42	0	7	8	3
SAMEA6057820	2704	235	42	0	8	7	4
SAMEA6058103	2919	6	50	3	7	9	6
SAMEA6058325	2935	4	41	0	8	7	5
SAMEA6057649	2935	8	40	0	7	8	2
SAMEA6057539	2934	7	43	0	5	8	3
SAMEA6058192	2922	5	51	4	8	7	3
SAMEA6058008	2916	6	54	5	6	7	6
SAMEA6057461	2937	2	42	0	8	7	4
SAMEA6057787	2937	3	41	0	8	7	4
SAMEA6058298	2924	12	46	2	5	8	3
SAMEA6058527	2936	3	42	0	8	7	4
SAMEA6058490	2642	297	44	1	5	8	3
SAMEA5882646	2907	32	40	0	8	9	4
SAMEA6057781	2928	9	45	0	6	8	4
SAMEA6058180	2937	0	42	0	8	7	6
SAMEA6057697	2778	156	45	0	6	8	7
SAMEA6057715	2927	7	47	0	6	9	4
SAMEA6058537	2935	6	40	0	9	8	2
SAMEA6058085	2920	14	43	5	6	8	4
SAMEA6058102	2930	5	44	2	6	9	4
SAMEA6058178	2936	5	43	0	5	8	3
SAMEA6058331	2925	10	43	0	8	7	7
SAMEA6057526	2740	204	40	0	7	7	2
SAMEA6058479	2904	31	43	0	10	9	3
SAMEA6057458	2902	42	40	0	6	7	3
SAMEA6058546	2938	0	42	0	8	7	5
SAMEA6058465	2597	282	74	0	10	8	29
SAMEA6057908	2913	22	49	0	6	7	3
SAMEA6057714	2903	5	71	2	7	8	4
SAMEA6057523	2926	12	42	0	5	8	7
SAMEA6058393	2936	2	42	0	8	7	5
SAMEA6058395	2920	3	52	4	8	7	6
SAMEA6058469	2937	3	42	0	6	9	3
SAMEA6057519	2904	32	42	0	9	7	6
SAMEA6058377	2937	1	42	0	8	7	5
SAMEA6057961	2868	45	61	2	5	9	10
SAMEA6058334	2922	10	49	2	5	8	4
SAMEA6058130	2935	3	42	0	8	7	5
SAMEA6058426	2922	14	44	0	8	8	4
SAMEA6058585	2935	3	42	0	9	7	4
SAMEA6057983	2886	20	50	0	7	8	29
SAMEA5737706	2689	228	57	2	8	8	8
SAMEA6058451	2941	4	41	0	4	7	3
SAMEA6058219	2938	0	42	0	9	7	4
SAMEA6058221	2936	1	42	0	8	7	6
SAMEA6058449	2927	12	41	0	8	8	4
SAMEA6058044	2915	23	43	1	7	8	3
SAMEA6058205	2930	6	45	0	9	7	3
SAMEA6057906	2918	1	58	2	8	7	6
SAMEA6058025	2931	9	42	1	7	8	2
SAMEA6058429	2934	2	42	0	9	7	6
SAMEA6057988	2885	25	62	7	8	7	6
SAMEA6057925	2935	3	42	0	7	7	6
SAMEA6058155	2744	198	40	1	6	8	3
SAMEA6058134	2932	8	41	0	8	7	4
SAMEA6057727	2905	16	52	4	9	7	7
SAMEA6058312	2940	4	41	0	5	7	3
SAMEA6058489	2936	2	42	0	9	7	4
SAMEA6058351	2745	188	48	1	8	8	2
SAMEA6058349	2922	14	41	1	8	7	7
SAMEA6057800	2931	12	40	0	7	7	3
SAMEA6057876	2885	21	66	1	8	9	10
SAMEA6057774	2894	46	41	0	7	9	3
SAMEA6058099	2912	13	49	0	7	8	11
SAMEA6058042	2931	8	43	1	7	7	3
SAMEA6058387	2925	15	41	0	8	7	4
SAMEA6058293	2591	331	60	0	3	8	7
SAMEA6058048	2929	2	47	1	8	7	6
SAMEA6058482	2936	1	42	0	8	7	6
SAMEA5737695	2939	3	41	1	6	7	3
SAMEA5533803	2650	280	47	0	13	7	3
SAMEA6057684	2924	3	50	0	7	8	8
SAMEA6057780	2740	205	38	0	6	8	3
SAMEA6057546	2912	16	52	0	5	10	5
SAMEA6058023	2936	1	42	0	8	7	6
SAMEA6057572	2915	3	61	0	8	7	6
SAMEA6058245	2935	8	42	0	6	7	2
SAMEA6058003	2931	7	41	0	9	7	5
SAMEA6057432	2937	6	41	0	7	7	2
SAMEA6058011	2666	267	50	1	6	7	3
SAMEA6057632	2933	5	41	0	9	7	5
SAMEA6058503	2639	299	43	0	5	8	6
SAMEA6058022	2902	36	43	0	7	8	4
SAMEA6058179	2725	217	39	0	7	8	4
SAMEA6058433	2926	7	44	2	9	7	5
SAMEA6058063	2921	11	46	2	8	7	5
SAMEA6058086	2920	22	41	0	6	7	4
SAMEA6057731	2937	0	42	0	8	7	6
SAMEA6057630	2931	5	41	0	9	7	7
SAMEA6058412	2746	182	49	0	7	8	8
SAMEA6058072	2937	6	40	0	7	8	2
SAMEA6057778	2938	6	40	0	6	7	3
SAMEA6058030	2922	16	42	0	7	9	4
SAMEA6057962	2911	27	42	0	8	7	5
SAMEA6058506	2933	8	43	0	5	8	3
SAMEA6058013	2931	12	40	0	6	8	3
SAMEA6057475	2918	14	45	0	7	8	8
SAMEA6057991	2937	0	43	0	8	7	5
SAMEA6057725	2939	5	40	0	6	7	3
SAMEA6058403	2941	1	40	0	6	8	4
SAMEA6058411	2700	243	40	0	5	8	4
SAMEA6058209	2938	2	41	0	7	9	3
SAMEA6057616	2916	22	44	0	8	7	3
SAMEA6057822	2943	1	40	0	6	7	3
SAMEA6057975	2934	2	44	0	6	8	6
SAMEA6058483	2941	0	42	0	8	7	2
SAMEA6057882	2900	18	55	7	9	7	4
SAMEA6057613	2920	22	41	0	6	7	4
SAMEA6057921	2923	8	47	0	7	9	6
SAMEA6057445	2875	7	72	0	10	8	28
SAMEA6058584	2938	0	42	0	7	7	6
SAMEA6058113	2940	0	42	1	8	7	2
SAMEA6058473	2935	3	43	0	7	8	4
SAMEA6057823	2924	14	42	0	8	7	5
SAMEA6058002	2941	0	42	0	8	7	2
SAMEA6057935	2932	3	43	2	8	7	5
SAMEA6058308	2937	2	41	0	8	7	5
SAMEA6057845	2928	15	40	0	7	8	2
SAMEA6057773	2937	0	42	0	9	7	5
SAMEA6057913	2939	2	42	0	6	8	3
SAMEA6057904	2903	19	57	4	7	8	2
SAMEA6057690	2926	13	42	0	8	7	4
SAMEA6058235	2729	211	42	0	5	8	5
SAMEA6058194	2910	25	50	0	5	7	3
SAMEA6058184	2839	103	41	0	6	8	3
SAMEA6057965	2933	3	49	0	5	7	3
SAMEA6057551	2936	1	44	0	8	7	4
SAMEA6057683	2930	7	43	2	8	8	2
SAMEA6058630	2591	339	51	0	5	9	5
SAMEA6058056	2925	8	44	1	7	9	6
SAMEA6058376	2934	1	41	0	9	7	8
SAMEA6057660	2928	12	41	0	8	7	4
SAMEA6057504	2939	1	43	0	7	7	3
SAMEA6057710	2929	9	42	0	8	7	5
SAMEA6057735	2934	4	42	0	8	7	5
SAMEA6058406	2861	51	61	3	5	9	10
SAMEA6057422	2933	6	42	0	8	7	4
SAMEA6058364	2921	20	40	0	7	8	4
SAMEA6057888	2934	5	42	0	8	7	4
SAMEA6057968	2940	0	42	0	6	8	4
SAMEA6057466	2932	4	42	1	8	7	6
SAMEA6058327	2920	16	42	0	8	9	5
SAMEA6057565	2632	275	54	2	6	8	23
SAMEA6058247	2921	19	42	0	7	7	4
SAMEA5552161	2921	19	43	0	6	8	3
SAMEA6057485	2885	20	52	3	6	9	25
SAMEA6057555	2939	2	43	0	5	8	3
SAMEA6058608	2925	14	43	2	5	8	3
SAMEA6058512	2881	56	42	0	7	7	7
SAMEA6058068	2928	7	43	2	8	7	5
SAMEA6058520	2935	6	40	0	8	8	3
SAMEA6058332	2889	25	60	2	4	9	11
SAMEA6058500	2942	0	41	0	7	7	3
SAMEA6057703	2943	0	40	0	7	7	3
SAMEA6058239	2932	2	42	0	9	7	8
SAMEA6058513	2720	225	41	0	4	7	3
SAMEA6058296	2925	10	43	0	7	9	6
SAMEA6057979	2941	0	39	0	8	8	4
SAMEA6057914	2905	8	50	0	6	8	23
SAMEA6057740	2938	3	42	0	6	8	3
SAMEA6058127	2898	11	51	1	6	8	25
SAMEA6057638	2912	20	46	0	6	9	7
SAMEA6058363	2612	327	41	0	9	8	3
SAMEA6058354	2927	9	41	0	9	7	7
SAMEA6058614	2936	1	42	0	8	7	6
SAMEA6057482	2937	0	44	0	8	7	4
SAMEA6058083	2941	0	42	0	7	7	3
SAMEA6057941	2932	5	42	3	7	7	4
SAMEA6057853	2926	6	44	1	7	9	7
SAMEA6058105	2928	10	42	0	8	8	4
SAMEA6058322	2936	0	42	1	8	7	6
SAMEA6057765	2627	310	45	1	6	8	3
SAMEA6057938	2918	19	42	0	7	9	5
SAMEA6057646	2728	212	41	0	8	7	4
SAMEA6057890	2919	14	48	2	5	8	4
SAMEA6057497	2916	22	41	0	8	7	6
SAMEA6057836	2931	7	41	0	9	7	5
SAMEA6058573	2931	7	41	0	9	7	5
SAMEA6057920	2937	0	42	0	8	7	6
SAMEA6058242	2933	5	42	0	8	7	5
SAMEA6058521	2929	8	42	0	8	7	6
SAMEA6057852	2891	46	44	0	8	9	2
SAMEA6057747	2940	1	41	0	8	8	2
SAMEA6058373	2942	1	41	0	6	7	3
SAMEA6057623	2883	29	63	5	7	7	6
SAMEA6058628	2930	1	52	0	6	7	4
SAMEA6058310	2937	1	42	0	8	7	5
SAMEA6058226	2940	4	40	0	6	8	2
SAMEA6058001	2942	1	40	0	7	8	2
SAMEA6057467	2676	263	42	1	6	9	3
SAMEA6057849	2936	8	41	0	6	7	2
SAMEA6058505	2940	4	41	0	6	7	2
SAMEA6057590	2936	1	42	0	9	7	5
SAMEA6058125	2903	34	41	0	9	7	6
SAMEA6058153	2915	22	43	0	8	7	5
SAMEA6057509	2925	12	44	2	5	8	4
SAMEA6057605	2931	9	42	0	7	8	3
SAMEA6058477	2939	0	42	0	7	7	5
SAMEA6057957	2925	11	49	0	5	7	3
SAMEA6058314	2922	8	53	1	6	7	3
SAMEA6058222	2910	15	50	0	7	8	10
SAMEA6058195	2920	19	42	0	8	7	4
SAMEA6057441	2936	5	42	0	7	7	3
SAMEA6057549	2927	7	43	0	7	9	7
SAMEA6058053	2920	15	50	0	5	7	3
SAMEA5552163	2679	260	46	0	5	7	3
SAMEA6057493	2936	5	41	0	8	8	2
SAMEA6057918	2693	248	42	0	6	8	3
SAMEA6058225	2937	3	41	0	6	8	5
SAMEA6057837	2678	261	42	1	7	7	4
SAMEA6058207	2930	11	40	0	8	8	3
SAMEA6057484	2926	1	50	0	7	8	8
SAMEA6057569	2912	27	41	0	8	7	5
SAMEA6057570	2920	6	50	0	8	8	8
SAMEA6058231	2725	217	39	0	6	8	5
SAMEA6057948	2946	0	40	0	4	7	3
SAMEA6058357	2931	6	42	0	9	7	5
SAMEA6058148	2918	18	44	2	6	8	4
SAMEA6057974	2910	21	51	1	7	7	3
SAMEA6058548	2930	13	40	0	7	8	2
SAMEA6058532	2928	12	42	0	6	7	5
SAMEA6058386	2745	188	46	3	8	7	3
SAMEA6057911	2916	16	47	0	8	7	6
SAMEA6057847	2901	37	41	0	7	8	6
SAMEA6058204	2936	2	44	0	9	7	2
SAMEA6057552	2941	1	40	0	7	7	4
SAMEA5757422	2940	2	40	1	6	8	3
SAMEA6058064	2929	6	50	0	5	7	3
SAMEA6058286	2929	8	43	0	8	7	5
SAMEA6057783	2934	2	42	0	9	7	6
SAMEA6058360	2929	8	45	2	5	8	3
SAMEA6058037	2945	0	41	0	4	7	3
SAMEA6058107	2921	8	48	0	7	8	8
SAMEA6058612	2919	2	58	4	5	8	4
SAMEA6058123	2921	19	42	0	6	8	4
SAMEA6058484	2924	2	50	0	7	8	9
SAMEA6058586	2930	9	41	0	9	7	4
SAMEA6058369	2874	32	52	2	7	8	25
SAMEA6057612	2844	33	72	0	11	8	32
SAMEA6058256	2930	1	44	1	9	7	8
SAMEA6057966	2943	1	40	0	6	7	3
SAMEA6058190	2932	7	44	0	5	8	4
SAMEA6058408	2940	1	41	0	8	8	2
SAMEA6057708	2908	30	42	0	10	8	2
SAMEA6058430	2926	9	43	1	7	9	5
SAMEA6058405	2941	0	42	0	8	7	2
SAMEA6057724	2764	178	42	0	6	7	3
SAMEA6057631	2943	0	41	0	6	7	3
SAMEA6058335	2922	10	50	1	7	7	3
SAMEA6058224	2909	2	62	2	4	9	12
SAMEA6057754	2933	4	42	0	8	7	6
SAMEA6058435	2919	16	42	0	8	7	8
SAMEA6058014	2928	6	46	0	8	7	5
SAMEA6057745	2930	4	44	0	7	9	6
SAMEA6057442	2939	0	42	0	8	7	4
SAMEA6057514	2939	0	44	1	5	8	3
SAMEA6058436	2923	23	40	0	4	7	3
SAMEA6058365	2917	21	45	0	6	7	4
SAMEA6057483	2663	279	42	0	5	7	4
SAMEA6057803	2933	6	42	0	8	7	4
SAMEA6058564	2932	6	44	1	6	8	3
SAMEA6057788	2661	248	64	1	7	9	10
SAMEA6058039	2825	117	40	0	7	8	3
SAMEA6058249	2930	4	41	0	9	7	9
SAMEA6058271	2933	8	40	0	6	8	5
SAMEA6057518	2934	4	43	0	6	8	5
SAMEA6057741	2721	222	41	0	5	7	4
SAMEA6057634	2923	9	46	0	7	9	6
SAMEA6058169	2687	237	55	3	6	7	5
SAMEA6057759	2930	2	45	1	7	9	6
SAMEA6057805	2896	17	60	3	3	10	11
SAMEA6058576	2887	22	62	4	5	9	11
SAMEA6057449	2894	16	62	4	4	9	11
SAMEA6057790	2893	47	42	0	6	9	3
SAMEA6058501	2935	8	40	0	7	8	2
SAMEA6058162	2876	6	71	0	11	8	28
SAMEA6058133	2941	0	42	0	8	7	2
SAMEA6057875	2909	10	55	3	10	7	6
SAMEA6058347	2929	1	48	4	8	8	2
SAMEA6058627	2931	7	41	0	7	9	5
SAMEA6057912	2932	3	43	0	7	9	6
SAMEA6057895	2932	5	42	0	7	9	5
SAMEA6058114	2934	4	42	0	8	7	5
SAMEA6058294	2873	58	46	0	8	8	7
SAMEA6057486	2235	688	48	0	18	8	3
SAMEA6057416	2923	19	41	0	7	7	3
SAMEA6057702	2851	59	61	3	5	9	12
SAMEA6058485	2934	2	45	0	8	7	4
SAMEA6058625	2690	250	44	0	6	7	3
SAMEA6057577	2920	16	43	0	8	7	6
SAMEA6058199	2931	12	41	0	5	7	4
SAMEA6058385	2923	17	41	1	8	8	2
SAMEA6057997	2932	6	41	0	9	7	5
SAMEA6057993	2926	9	50	0	5	7	3
SAMEA6058545	2936	3	41	0	8	7	5
SAMEA6057973	2929	4	44	0	9	7	7
SAMEA6058230	2938	0	42	0	9	7	4
SAMEA5533804	2796	140	47	0	6	7	4
