sample	cluster_name
SAMEA5552150	CT_0001
SAMEA5552152	CT_0001
SAMEA5552154	CT_0001
SAMEA5552155	CT_0002
SAMEA5552157	CT_0002
SAMEA5552159	CT_0003
SAMEA5552160	CT_0003
SAMEA5737695	CT_0004
SAMEA5737696	CT_0004
SAMEA5737697	CT_0005
SAMEA5737698	CT_0005
SAMEA5737699	CT_0006
SAMEA5737700	CT_0007
SAMEA5737701	CT_0008
SAMEA5737702	CT_0009
SAMEA5737703	CT_0008
SAMEA5737704	CT_0010
SAMEA5737705	CT_0011
SAMEA5737706	CT_0012
SAMEA5757422	CT_0004
SAMEA5882642	CT_0007
SAMEA5882644	CT_0013
SAMEA5882645	CT_0014
SAMEA5882646	CT_0015
SAMEA5882647	CT_0016
SAMEA5882648	CT_0017
SAMEA6057416	CT_0018
SAMEA6057417	CT_0019
SAMEA6057419	CT_0020
SAMEA6057420	CT_0021
SAMEA6057422	CT_0022
SAMEA6057423	CT_0023
SAMEA6057424	CT_0024
SAMEA6057426	CT_0025
SAMEA6057427	CT_0026
SAMEA6057428	CT_0027
SAMEA6057430	CT_0028
SAMEA6057432	CT_0029
SAMEA6057435	CT_0030
SAMEA6057436	CT_0031
SAMEA6057438	CT_0032
SAMEA6057439	CT_0033
SAMEA6057440	CT_0034
SAMEA6057441	CT_0035
SAMEA6057444	CT_0036
SAMEA6057445	CT_0037
SAMEA6057446	CT_0038
SAMEA6057447	CT_0039
SAMEA6057448	CT_0025
SAMEA6057450	CT_0033
SAMEA6057451	CT_0027
SAMEA6057454	CT_0040
SAMEA6057455	CT_0041
SAMEA6057459	CT_0042
SAMEA6057460	CT_0043
SAMEA6057461	CT_0022
SAMEA6057463	CT_0034
SAMEA6057464	CT_0034
SAMEA6057466	CT_0036
SAMEA6057468	CT_0004
SAMEA6057469	CT_0044
SAMEA6057470	CT_0045
SAMEA6057471	CT_0036
SAMEA6057472	CT_0046
SAMEA6057474	CT_0019
SAMEA6057477	CT_0024
SAMEA6057478	CT_0036
SAMEA6057479	CT_0046
SAMEA6057481	CT_0047
SAMEA6057482	CT_0048
SAMEA6057483	CT_0049
SAMEA6057484	CT_0044
SAMEA6057485	CT_0050
SAMEA6057487	CT_0019
SAMEA6057489	CT_0051
SAMEA6057490	CT_0025
SAMEA6057491	CT_0052
SAMEA6057493	CT_0027
SAMEA6057494	CT_0005
SAMEA6057495	CT_0029
SAMEA6057497	CT_0053
SAMEA6057498	CT_0054
SAMEA6057499	CT_0055
SAMEA6057502	CT_0008
SAMEA6057503	CT_0052
SAMEA6057506	CT_0055
SAMEA6057508	CT_0032
SAMEA6057513	CT_0056
SAMEA6057514	CT_0008
SAMEA6057516	CT_0031
SAMEA6057518	CT_0057
SAMEA6057520	CT_0049
SAMEA6057525	CT_0025
SAMEA6057528	CT_0041
SAMEA6057529	CT_0058
SAMEA6057531	CT_0059
SAMEA6057532	CT_0026
SAMEA6057533	CT_0049
SAMEA6057535	CT_0060
SAMEA6057539	CT_0061
SAMEA6057541	CT_0039
SAMEA6057542	CT_0056
SAMEA6057543	CT_0036
SAMEA6057544	CT_0037
SAMEA6057545	CT_0062
SAMEA6057547	CT_0055
SAMEA6057548	CT_0063
SAMEA6057549	CT_0033
SAMEA6057551	CT_0048
SAMEA6057552	CT_0064
SAMEA6057555	CT_0055
SAMEA6057556	CT_0065
SAMEA6057557	CT_0031
SAMEA6057558	CT_0066
SAMEA6057560	CT_0053
SAMEA6057561	CT_0067
SAMEA6057563	CT_0008
SAMEA6057568	CT_0046
SAMEA6057570	CT_0044
SAMEA6057572	CT_0068
SAMEA6057575	CT_0069
SAMEA6057576	CT_0051
SAMEA6057579	CT_0049
SAMEA6057580	CT_0036
SAMEA6057582	CT_0008
SAMEA6057583	CT_0070
SAMEA6057585	CT_0071
SAMEA6057587	CT_0072
SAMEA6057590	CT_0073
SAMEA6057592	CT_0025
SAMEA6057593	CT_0074
SAMEA6057599	CT_0036
SAMEA6057600	CT_0052
SAMEA6057603	CT_0043
SAMEA6057604	CT_0075
SAMEA6057605	CT_0076
SAMEA6057606	CT_0077
SAMEA6057607	CT_0046
SAMEA6057609	CT_0078
SAMEA6057610	CT_0022
SAMEA6057613	CT_0063
SAMEA6057614	CT_0033
SAMEA6057615	CT_0056
SAMEA6057618	CT_0036
SAMEA6057620	CT_0027
SAMEA6057622	CT_0058
SAMEA6057623	CT_0074
SAMEA6057624	CT_0059
SAMEA6057626	CT_0079
SAMEA6057627	CT_0074
SAMEA6057630	CT_0067
SAMEA6057631	CT_0056
SAMEA6057633	CT_0037
SAMEA6057634	CT_0060
SAMEA6057635	CT_0076
SAMEA6057637	CT_0030
SAMEA6057639	CT_0036
SAMEA6057641	CT_0073
SAMEA6057643	CT_0036
SAMEA6057644	CT_0018
SAMEA6057648	CT_0046
SAMEA6057651	CT_0008
SAMEA6057652	CT_0061
SAMEA6057653	CT_0080
SAMEA6057656	CT_0081
SAMEA6057657	CT_0040
SAMEA6057659	CT_0036
SAMEA6057661	CT_0082
SAMEA6057662	CT_0083
SAMEA6057663	CT_0084
SAMEA6057664	CT_0048
SAMEA6057665	CT_0085
SAMEA6057666	CT_0008
SAMEA6057668	CT_0021
SAMEA6057670	CT_0036
SAMEA6057672	CT_0023
SAMEA6057673	CT_0086
SAMEA6057674	CT_0085
SAMEA6057675	CT_0087
SAMEA6057676	CT_0087
SAMEA6057677	CT_0036
SAMEA6057678	CT_0088
SAMEA6057679	CT_0087
SAMEA6057681	CT_0089
SAMEA6057683	CT_0087
SAMEA6057684	CT_0044
SAMEA6057685	CT_0089
SAMEA6057686	CT_0085
SAMEA6057687	CT_0087
SAMEA6057688	CT_0087
SAMEA6057689	CT_0008
SAMEA6057691	CT_0090
SAMEA6057692	CT_0091
SAMEA6057694	CT_0092
SAMEA6057696	CT_0087
SAMEA6057697	CT_0007
SAMEA6057698	CT_0093
SAMEA6057699	CT_0094
SAMEA6057701	CT_0008
SAMEA6057703	CT_0085
SAMEA6057706	CT_0094
SAMEA6057708	CT_0087
SAMEA6057709	CT_0087
SAMEA6057712	CT_0087
SAMEA6057713	CT_0033
SAMEA6057714	CT_0071
SAMEA6057716	CT_0036
SAMEA6057717	CT_0019
SAMEA6057719	CT_0095
SAMEA6057720	CT_0096
SAMEA6057721	CT_0063
SAMEA6057724	CT_0097
SAMEA6057725	CT_0098
SAMEA6057728	CT_0099
SAMEA6057729	CT_0055
SAMEA6057730	CT_0022
SAMEA6057731	CT_0036
SAMEA6057732	CT_0100
SAMEA6057733	CT_0085
SAMEA6057734	CT_0055
SAMEA6057735	CT_0019
SAMEA6057736	CT_0027
SAMEA6057737	CT_0101
SAMEA6057739	CT_0036
SAMEA6057740	CT_0102
SAMEA6057741	CT_0054
SAMEA6057742	CT_0103
SAMEA6057743	CT_0104
SAMEA6057744	CT_0036
SAMEA6057745	CT_0105
SAMEA6057746	CT_0106
SAMEA6057747	CT_0027
SAMEA6057748	CT_0078
SAMEA6057749	CT_0048
SAMEA6057750	CT_0107
SAMEA6057752	CT_0108
SAMEA6057753	CT_0105
SAMEA6057754	CT_0036
SAMEA6057756	CT_0046
SAMEA6057759	CT_0030
SAMEA6057761	CT_0037
SAMEA6057763	CT_0109
SAMEA6057765	CT_0004
SAMEA6057766	CT_0006
SAMEA6057769	CT_0071
SAMEA6057771	CT_0033
SAMEA6057773	CT_0110
SAMEA6057776	CT_0040
SAMEA6057777	CT_0109
SAMEA6057780	CT_0111
SAMEA6057781	CT_0008
SAMEA6057782	CT_0084
SAMEA6057783	CT_0079
SAMEA6057785	CT_0036
SAMEA6057786	CT_0112
SAMEA6057787	CT_0084
SAMEA6057788	CT_0100
SAMEA6057790	CT_0113
SAMEA6057791	CT_0082
SAMEA6057793	CT_0067
SAMEA6057796	CT_0046
SAMEA6057797	CT_0056
SAMEA6057799	CT_0036
SAMEA6057800	CT_0085
SAMEA6057801	CT_0033
SAMEA6057803	CT_0026
SAMEA6057804	CT_0043
SAMEA6057806	CT_0114
SAMEA6057807	CT_0008
SAMEA6057810	CT_0033
SAMEA6057811	CT_0087
SAMEA6057813	CT_0036
SAMEA6057814	CT_0115
SAMEA6057816	CT_0114
SAMEA6057817	CT_0033
SAMEA6057819	CT_0054
SAMEA6057821	CT_0057
SAMEA6057822	CT_0056
SAMEA6057824	CT_0110
SAMEA6057825	CT_0027
SAMEA6057826	CT_0036
SAMEA6057828	CT_0046
SAMEA6057830	CT_0040
SAMEA6057831	CT_0116
SAMEA6057832	CT_0117
SAMEA6057833	CT_0019
SAMEA6057835	CT_0040
SAMEA6057836	CT_0109
SAMEA6057837	CT_0013
SAMEA6057838	CT_0088
SAMEA6057840	CT_0084
SAMEA6057841	CT_0071
SAMEA6057843	CT_0116
SAMEA6057844	CT_0098
SAMEA6057845	CT_0086
SAMEA6057846	CT_0019
SAMEA6057847	CT_0118
SAMEA6057848	CT_0083
SAMEA6057852	CT_0107
SAMEA6057853	CT_0108
SAMEA6057854	CT_0117
SAMEA6057855	CT_0027
SAMEA6057856	CT_0098
SAMEA6057857	CT_0048
SAMEA6057858	CT_0119
SAMEA6057861	CT_0120
SAMEA6057862	CT_0110
SAMEA6057865	CT_0098
SAMEA6057866	CT_0082
SAMEA6057867	CT_0014
SAMEA6057868	CT_0094
SAMEA6057870	CT_0052
SAMEA6057872	CT_0084
SAMEA6057873	CT_0121
SAMEA6057874	CT_0122
SAMEA6057878	CT_0085
SAMEA6057879	CT_0031
SAMEA6057880	CT_0123
SAMEA6057882	CT_0124
SAMEA6057883	CT_0079
SAMEA6057884	CT_0008
SAMEA6057886	CT_0115
SAMEA6057887	CT_0035
SAMEA6057888	CT_0125
SAMEA6057893	CT_0046
SAMEA6057894	CT_0126
SAMEA6057895	CT_0096
SAMEA6057896	CT_0036
SAMEA6057898	CT_0015
SAMEA6057899	CT_0118
SAMEA6057900	CT_0071
SAMEA6057901	CT_0025
SAMEA6057905	CT_0036
SAMEA6057906	CT_0036
SAMEA6057909	CT_0037
SAMEA6057910	CT_0027
SAMEA6057911	CT_0036
SAMEA6057912	CT_0094
SAMEA6057913	CT_0040
SAMEA6057916	CT_0084
SAMEA6057917	CT_0127
SAMEA6057918	CT_0120
SAMEA6057919	CT_0025
SAMEA6057920	CT_0036
SAMEA6057921	CT_0121
SAMEA6057922	CT_0040
SAMEA6057923	CT_0094
SAMEA6057924	CT_0011
SAMEA6057925	CT_0036
SAMEA6057926	CT_0094
SAMEA6057928	CT_0079
SAMEA6057929	CT_0128
SAMEA6057930	CT_0019
SAMEA6057931	CT_0015
SAMEA6057934	CT_0079
SAMEA6057935	CT_0019
SAMEA6057936	CT_0036
SAMEA6057937	CT_0019
SAMEA6057939	CT_0015
SAMEA6057940	CT_0036
SAMEA6057941	CT_0129
SAMEA6057942	CT_0025
SAMEA6057943	CT_0130
SAMEA6057944	CT_0019
SAMEA6057945	CT_0110
SAMEA6057947	CT_0023
SAMEA6057948	CT_0025
SAMEA6057949	CT_0025
SAMEA6057950	CT_0079
SAMEA6057952	CT_0036
SAMEA6057953	CT_0062
SAMEA6057954	CT_0019
SAMEA6057955	CT_0071
SAMEA6057958	CT_0131
SAMEA6057959	CT_0063
SAMEA6057960	CT_0132
SAMEA6057963	CT_0133
SAMEA6057964	CT_0023
SAMEA6057966	CT_0098
SAMEA6057968	CT_0040
SAMEA6057969	CT_0019
SAMEA6057971	CT_0118
SAMEA6057973	CT_0067
SAMEA6057974	CT_0023
SAMEA6057975	CT_0007
SAMEA6057977	CT_0093
SAMEA6057979	CT_0132
SAMEA6057980	CT_0045
SAMEA6057982	CT_0134
SAMEA6057985	CT_0012
SAMEA6057986	CT_0033
SAMEA6057987	CT_0049
SAMEA6057988	CT_0079
SAMEA6057989	CT_0033
SAMEA6057990	CT_0027
SAMEA6057991	CT_0135
SAMEA6057992	CT_0134
SAMEA6057993	CT_0103
SAMEA6057994	CT_0106
SAMEA6057995	CT_0071
SAMEA6057996	CT_0027
SAMEA6057997	CT_0028
SAMEA6057998	CT_0094
SAMEA6058000	CT_0043
SAMEA6058001	CT_0071
SAMEA6058002	CT_0027
SAMEA6058003	CT_0028
SAMEA6058005	CT_0132
SAMEA6058006	CT_0133
SAMEA6058008	CT_0036
SAMEA6058014	CT_0046
SAMEA6058015	CT_0114
SAMEA6058016	CT_0017
SAMEA6058018	CT_0034
SAMEA6058019	CT_0136
SAMEA6058023	CT_0036
SAMEA6058024	CT_0084
SAMEA6058027	CT_0098
SAMEA6058028	CT_0027
SAMEA6058029	CT_0031
SAMEA6058030	CT_0091
SAMEA6058032	CT_0071
SAMEA6058033	CT_0137
SAMEA6058034	CT_0097
SAMEA6058035	CT_0054
SAMEA6058036	CT_0031
SAMEA6058037	CT_0025
SAMEA6058038	CT_0019
SAMEA6058039	CT_0138
SAMEA6058045	CT_0067
SAMEA6058046	CT_0071
SAMEA6058047	CT_0025
SAMEA6058048	CT_0036
SAMEA6058049	CT_0026
SAMEA6058050	CT_0056
SAMEA6058051	CT_0132
SAMEA6058054	CT_0139
SAMEA6058055	CT_0037
SAMEA6058056	CT_0094
SAMEA6058057	CT_0108
SAMEA6058058	CT_0019
SAMEA6058059	CT_0025
SAMEA6058060	CT_0025
SAMEA6058062	CT_0030
SAMEA6058063	CT_0135
SAMEA6058065	CT_0026
SAMEA6058066	CT_0018
SAMEA6058068	CT_0092
SAMEA6058069	CT_0032
SAMEA6058070	CT_0085
SAMEA6058071	CT_0140
SAMEA6058072	CT_0009
SAMEA6058073	CT_0048
SAMEA6058074	CT_0036
SAMEA6058078	CT_0025
SAMEA6058081	CT_0008
SAMEA6058082	CT_0141
SAMEA6058083	CT_0035
SAMEA6058085	CT_0057
SAMEA6058087	CT_0010
SAMEA6058090	CT_0123
SAMEA6058091	CT_0071
SAMEA6058093	CT_0098
SAMEA6058094	CT_0142
SAMEA6058095	CT_0040
SAMEA6058099	CT_0143
SAMEA6058100	CT_0079
SAMEA6058101	CT_0055
SAMEA6058102	CT_0123
SAMEA6058103	CT_0134
SAMEA6058104	CT_0048
SAMEA6058105	CT_0137
SAMEA6058106	CT_0036
SAMEA6058112	CT_0114
SAMEA6058113	CT_0027
SAMEA6058117	CT_0027
SAMEA6058118	CT_0031
SAMEA6058119	CT_0086
SAMEA6058121	CT_0071
SAMEA6058122	CT_0033
SAMEA6058124	CT_0049
SAMEA6058126	CT_0141
SAMEA6058127	CT_0119
SAMEA6058128	CT_0079
SAMEA6058129	CT_0069
SAMEA6058130	CT_0019
SAMEA6058133	CT_0027
SAMEA6058134	CT_0128
SAMEA6058135	CT_0078
SAMEA6058137	CT_0106
SAMEA6058138	CT_0139
SAMEA6058140	CT_0144
SAMEA6058141	CT_0090
SAMEA6058142	CT_0035
SAMEA6058144	CT_0142
SAMEA6058147	CT_0066
SAMEA6058148	CT_0145
SAMEA6058149	CT_0140
SAMEA6058150	CT_0144
SAMEA6058151	CT_0025
SAMEA6058156	CT_0033
SAMEA6058157	CT_0146
SAMEA6058160	CT_0023
SAMEA6058162	CT_0037
SAMEA6058164	CT_0122
SAMEA6058165	CT_0132
SAMEA6058167	CT_0065
SAMEA6058171	CT_0137
SAMEA6058173	CT_0025
SAMEA6058174	CT_0067
SAMEA6058177	CT_0027
SAMEA6058178	CT_0055
SAMEA6058180	CT_0036
SAMEA6058181	CT_0068
SAMEA6058182	CT_0071
SAMEA6058183	CT_0019
SAMEA6058186	CT_0147
SAMEA6058187	CT_0027
SAMEA6058188	CT_0079
SAMEA6058190	CT_0008
SAMEA6058191	CT_0086
SAMEA6058192	CT_0136
SAMEA6058193	CT_0148
SAMEA6058194	CT_0140
SAMEA6058196	CT_0019
SAMEA6058198	CT_0149
SAMEA6058203	CT_0056
SAMEA6058204	CT_0072
SAMEA6058205	CT_0072
SAMEA6058206	CT_0008
SAMEA6058208	CT_0097
SAMEA6058209	CT_0123
SAMEA6058211	CT_0123
SAMEA6058212	CT_0117
SAMEA6058215	CT_0130
SAMEA6058216	CT_0067
SAMEA6058218	CT_0067
SAMEA6058219	CT_0046
SAMEA6058220	CT_0027
SAMEA6058221	CT_0036
SAMEA6058224	CT_0150
SAMEA6058225	CT_0117
SAMEA6058226	CT_0071
SAMEA6058228	CT_0151
SAMEA6058229	CT_0036
SAMEA6058230	CT_0046
SAMEA6058232	CT_0152
SAMEA6058233	CT_0138
SAMEA6058234	CT_0025
SAMEA6058235	CT_0117
SAMEA6058236	CT_0071
SAMEA6058237	CT_0153
SAMEA6058239	CT_0067
SAMEA6058241	CT_0046
SAMEA6058242	CT_0081
SAMEA6058243	CT_0049
SAMEA6058244	CT_0027
SAMEA6058245	CT_0114
SAMEA6058246	CT_0027
SAMEA6058247	CT_0064
SAMEA6058248	CT_0095
SAMEA6058249	CT_0067
SAMEA6058250	CT_0070
SAMEA6058251	CT_0152
SAMEA6058252	CT_0027
SAMEA6058253	CT_0099
SAMEA6058256	CT_0067
SAMEA6058258	CT_0069
SAMEA6058260	CT_0035
SAMEA6058261	CT_0036
SAMEA6058262	CT_0153
SAMEA6058264	CT_0067
SAMEA6058265	CT_0055
SAMEA6058267	CT_0023
SAMEA6058269	CT_0025
SAMEA6058270	CT_0154
SAMEA6058271	CT_0154
SAMEA6058272	CT_0056
SAMEA6058273	CT_0033
SAMEA6058274	CT_0035
SAMEA6058275	CT_0155
SAMEA6058276	CT_0031
SAMEA6058277	CT_0070
SAMEA6058278	CT_0154
SAMEA6058280	CT_0043
SAMEA6058281	CT_0055
SAMEA6058282	CT_0122
SAMEA6058283	CT_0035
SAMEA6058285	CT_0031
SAMEA6058290	CT_0016
SAMEA6058295	CT_0152
SAMEA6058297	CT_0155
SAMEA6058299	CT_0021
SAMEA6058300	CT_0133
SAMEA6058301	CT_0036
SAMEA6058303	CT_0048
SAMEA6058304	CT_0067
SAMEA6058307	CT_0053
SAMEA6058308	CT_0047
SAMEA6058309	CT_0019
SAMEA6058310	CT_0019
SAMEA6058311	CT_0035
SAMEA6058312	CT_0104
SAMEA6058313	CT_0071
SAMEA6058316	CT_0008
SAMEA6058318	CT_0126
SAMEA6058319	CT_0019
SAMEA6058321	CT_0156
SAMEA6058322	CT_0019
SAMEA6058323	CT_0035
SAMEA6058324	CT_0050
SAMEA6058325	CT_0047
SAMEA6058326	CT_0017
SAMEA6058329	CT_0042
SAMEA6058333	CT_0071
SAMEA6058336	CT_0138
SAMEA6058338	CT_0019
SAMEA6058339	CT_0126
SAMEA6058340	CT_0019
SAMEA6058341	CT_0047
SAMEA6058342	CT_0008
SAMEA6058343	CT_0157
SAMEA6058344	CT_0022
SAMEA6058346	CT_0153
SAMEA6058347	CT_0072
SAMEA6058348	CT_0055
SAMEA6058349	CT_0127
SAMEA6058350	CT_0157
SAMEA6058353	CT_0056
SAMEA6058355	CT_0066
SAMEA6058357	CT_0073
SAMEA6058358	CT_0071
SAMEA6058359	CT_0019
SAMEA6058360	CT_0055
SAMEA6058361	CT_0057
SAMEA6058362	CT_0158
SAMEA6058363	CT_0131
SAMEA6058364	CT_0147
SAMEA6058365	CT_0159
SAMEA6058366	CT_0027
SAMEA6058368	CT_0044
SAMEA6058370	CT_0019
SAMEA6058373	CT_0056
SAMEA6058374	CT_0077
SAMEA6058375	CT_0079
SAMEA6058376	CT_0067
SAMEA6058377	CT_0019
SAMEA6058379	CT_0160
SAMEA6058380	CT_0027
SAMEA6058383	CT_0075
SAMEA6058386	CT_0136
SAMEA6058387	CT_0084
SAMEA6058388	CT_0019
SAMEA6058389	CT_0146
SAMEA6058390	CT_0124
SAMEA6058393	CT_0019
SAMEA6058395	CT_0019
SAMEA6058397	CT_0090
SAMEA6058398	CT_0019
SAMEA6058399	CT_0102
SAMEA6058400	CT_0149
SAMEA6058401	CT_0125
SAMEA6058402	CT_0080
SAMEA6058403	CT_0157
SAMEA6058405	CT_0027
SAMEA6058407	CT_0019
SAMEA6058408	CT_0027
SAMEA6058410	CT_0161
SAMEA6058412	CT_0044
SAMEA6058413	CT_0078
SAMEA6058415	CT_0162
SAMEA6058416	CT_0025
SAMEA6058418	CT_0163
SAMEA6058419	CT_0158
SAMEA6058420	CT_0046
SAMEA6058421	CT_0164
SAMEA6058422	CT_0037
SAMEA6058423	CT_0027
SAMEA6058424	CT_0163
SAMEA6058425	CT_0043
SAMEA6058426	CT_0031
SAMEA6058428	CT_0036
SAMEA6058429	CT_0079
SAMEA6058430	CT_0165
SAMEA6058431	CT_0165
SAMEA6058433	CT_0110
SAMEA6058434	CT_0143
SAMEA6058436	CT_0025
SAMEA6058437	CT_0080
SAMEA6058438	CT_0019
SAMEA6058439	CT_0036
SAMEA6058440	CT_0008
SAMEA6058442	CT_0019
SAMEA6058445	CT_0035
SAMEA6058447	CT_0094
SAMEA6058448	CT_0035
SAMEA6058449	CT_0166
SAMEA6058451	CT_0025
SAMEA6058452	CT_0094
SAMEA6058453	CT_0026
SAMEA6058455	CT_0160
SAMEA6058457	CT_0025
SAMEA6058458	CT_0117
SAMEA6058459	CT_0040
SAMEA6058461	CT_0005
SAMEA6058463	CT_0167
SAMEA6058465	CT_0168
SAMEA6058466	CT_0169
SAMEA6058469	CT_0159
SAMEA6058471	CT_0025
SAMEA6058472	CT_0052
SAMEA6058473	CT_0141
SAMEA6058474	CT_0067
SAMEA6058475	CT_0150
SAMEA6058477	CT_0019
SAMEA6058478	CT_0033
SAMEA6058480	CT_0019
SAMEA6058482	CT_0036
SAMEA6058483	CT_0027
SAMEA6058484	CT_0044
SAMEA6058485	CT_0031
SAMEA6058488	CT_0046
SAMEA6058489	CT_0046
SAMEA6058490	CT_0055
SAMEA6058491	CT_0046
SAMEA6058492	CT_0036
SAMEA6058494	CT_0019
SAMEA6058495	CT_0129
SAMEA6058496	CT_0159
SAMEA6058497	CT_0019
SAMEA6058498	CT_0019
SAMEA6058499	CT_0044
SAMEA6058500	CT_0035
SAMEA6058502	CT_0166
SAMEA6058506	CT_0008
SAMEA6058508	CT_0019
SAMEA6058512	CT_0161
SAMEA6058513	CT_0167
SAMEA6058514	CT_0038
SAMEA6058515	CT_0162
SAMEA6058516	CT_0008
SAMEA6058517	CT_0068
SAMEA6058518	CT_0036
SAMEA6058519	CT_0117
SAMEA6058520	CT_0164
SAMEA6058521	CT_0052
SAMEA6058522	CT_0111
SAMEA6058524	CT_0111
SAMEA6058526	CT_0036
SAMEA6058527	CT_0101
SAMEA6058530	CT_0110
SAMEA6058533	CT_0036
SAMEA6058534	CT_0019
SAMEA6058535	CT_0020
SAMEA6058536	CT_0036
SAMEA6058538	CT_0028
SAMEA6058539	CT_0157
SAMEA6058541	CT_0027
SAMEA6058544	CT_0063
SAMEA6058545	CT_0047
SAMEA6058546	CT_0019
SAMEA6058550	CT_0026
SAMEA6058551	CT_0037
SAMEA6058555	CT_0168
SAMEA6058556	CT_0167
SAMEA6058557	CT_0025
SAMEA6058558	CT_0035
SAMEA6058559	CT_0037
SAMEA6058560	CT_0168
SAMEA6058561	CT_0112
SAMEA6058562	CT_0046
SAMEA6058564	CT_0145
SAMEA6058565	CT_0169
SAMEA6058566	CT_0156
SAMEA6058567	CT_0027
SAMEA6058569	CT_0043
SAMEA6058571	CT_0153
SAMEA6058572	CT_0052
SAMEA6058573	CT_0148
SAMEA6058574	CT_0025
SAMEA6058575	CT_0026
SAMEA6058578	CT_0021
SAMEA6058579	CT_0046
SAMEA6058580	CT_0046
SAMEA6058581	CT_0044
SAMEA6058582	CT_0021
SAMEA6058583	CT_0170
SAMEA6058584	CT_0019
SAMEA6058585	CT_0046
SAMEA6058588	CT_0036
SAMEA6058589	CT_0046
SAMEA6058590	CT_0025
SAMEA6058591	CT_0019
SAMEA6058593	CT_0054
SAMEA6058595	CT_0046
SAMEA6058596	CT_0037
SAMEA6058597	CT_0025
SAMEA6058598	CT_0019
SAMEA6058599	CT_0028
SAMEA6058600	CT_0054
SAMEA6058601	CT_0036
SAMEA6058602	CT_0016
SAMEA6058603	CT_0032
SAMEA6058604	CT_0037
SAMEA6058605	CT_0036
SAMEA6058606	CT_0028
SAMEA6058608	CT_0170
SAMEA6058609	CT_0035
SAMEA6058610	CT_0027
SAMEA6058612	CT_0055
SAMEA6058613	CT_0038
SAMEA6058614	CT_0036
SAMEA6058615	CT_0113
SAMEA6058617	CT_0036
SAMEA6058618	CT_0112
SAMEA6058619	CT_0068
SAMEA6058620	CT_0133
SAMEA6058621	CT_0079
SAMEA6058622	CT_0036
SAMEA6058623	CT_0071
SAMEA6058624	CT_0046
SAMEA6058626	CT_0151
SAMEA6058627	CT_0096
SAMEA6058628	CT_0049
