sample	cluster_number
SAMEA5533800	Orphan_1
SAMEA5533801	Orphan_2
SAMEA5533802	Orphan_3
SAMEA5533803	Orphan_4
SAMEA5533804	Orphan_5
SAMEA5533805	Orphan_6
SAMEA5552146	Orphan_7
SAMEA5552147	Orphan_8
SAMEA5552148	Orphan_9
SAMEA5552149	Orphan_10
SAMEA5552151	Orphan_12
SAMEA5552153	Orphan_13
SAMEA5552156	Orphan_15
SAMEA5552158	Orphan_16
SAMEA5552161	Orphan_18
SAMEA5552162	Orphan_19
SAMEA5552163	Orphan_20
SAMEA5552164	Orphan_21
SAMEA5552165	Orphan_22
SAMEA5552166	Orphan_23
SAMEA5552167	Orphan_24
SAMEA5552168	Orphan_25
SAMEA5552169	Orphan_26
SAMEA5882643	Orphan_36
SAMEA6057421	Orphan_46
SAMEA6057425	Orphan_50
SAMEA6057429	Orphan_54
SAMEA6057431	Orphan_56
SAMEA6057433	Orphan_58
SAMEA6057434	Orphan_59
SAMEA6057437	Orphan_62
SAMEA6057442	Orphan_67
SAMEA6057443	Orphan_68
SAMEA6057449	Orphan_73
SAMEA6057452	Orphan_74
SAMEA6057453	Orphan_75
SAMEA6057456	Orphan_78
SAMEA6057457	Orphan_79
SAMEA6057458	Orphan_80
SAMEA6057462	Orphan_83
SAMEA6057465	Orphan_84
SAMEA6057467	Orphan_85
SAMEA6057473	Orphan_89
SAMEA6057475	Orphan_90
SAMEA6057476	Orphan_91
SAMEA6057480	Orphan_92
SAMEA6057486	Orphan_97
SAMEA6057488	Orphan_98
SAMEA6057492	Orphan_101
SAMEA6057496	Orphan_102
SAMEA6057500	Orphan_106
SAMEA6057501	Orphan_107
SAMEA6057504	Orphan_108
SAMEA6057505	Orphan_109
SAMEA6057507	Orphan_110
SAMEA6057509	Orphan_111
SAMEA6057510	Orphan_112
SAMEA6057511	Orphan_113
SAMEA6057512	Orphan_114
SAMEA6057515	Orphan_116
SAMEA6057517	Orphan_117
SAMEA6057519	Orphan_119
SAMEA6057521	Orphan_120
SAMEA6057522	Orphan_121
SAMEA6057523	Orphan_122
SAMEA6057524	Orphan_123
SAMEA6057526	Orphan_124
SAMEA6057527	Orphan_125
SAMEA6057530	Orphan_127
SAMEA6057534	Orphan_129
SAMEA6057536	Orphan_131
SAMEA6057537	Orphan_132
SAMEA6057538	Orphan_133
SAMEA6057540	Orphan_135
SAMEA6057546	Orphan_137
SAMEA6057550	Orphan_139
SAMEA6057553	Orphan_141
SAMEA6057554	Orphan_142
SAMEA6057559	Orphan_145
SAMEA6057562	Orphan_147
SAMEA6057564	Orphan_148
SAMEA6057565	Orphan_149
SAMEA6057566	Orphan_150
SAMEA6057567	Orphan_151
SAMEA6057569	Orphan_152
SAMEA6057571	Orphan_153
SAMEA6057573	Orphan_155
SAMEA6057574	Orphan_156
SAMEA6057577	Orphan_158
SAMEA6057578	Orphan_159
SAMEA6057581	Orphan_160
SAMEA6057584	Orphan_162
SAMEA6057586	Orphan_164
SAMEA6057588	Orphan_166
SAMEA6057589	Orphan_167
SAMEA6057591	Orphan_169
SAMEA6057594	Orphan_171
SAMEA6057595	Orphan_172
SAMEA6057596	Orphan_173
SAMEA6057597	Orphan_174
SAMEA6057598	Orphan_175
SAMEA6057601	Orphan_176
SAMEA6057602	Orphan_177
SAMEA6057608	Orphan_181
SAMEA6057611	Orphan_183
SAMEA6057612	Orphan_184
SAMEA6057616	Orphan_185
SAMEA6057617	Orphan_186
SAMEA6057619	Orphan_187
SAMEA6057621	Orphan_188
SAMEA6057625	Orphan_189
SAMEA6057628	Orphan_191
SAMEA6057629	Orphan_192
SAMEA6057632	Orphan_193
SAMEA6057636	Orphan_194
SAMEA6057638	Orphan_195
SAMEA6057640	Orphan_196
SAMEA6057642	Orphan_197
SAMEA6057645	Orphan_198
SAMEA6057646	Orphan_199
SAMEA6057647	Orphan_200
SAMEA6057649	Orphan_201
SAMEA6057650	Orphan_202
SAMEA6057654	Orphan_204
SAMEA6057655	Orphan_205
SAMEA6057658	Orphan_207
SAMEA6057660	Orphan_208
SAMEA6057667	Orphan_213
SAMEA6057669	Orphan_214
SAMEA6057671	Orphan_215
SAMEA6057680	Orphan_219
SAMEA6057682	Orphan_221
SAMEA6057690	Orphan_222
SAMEA6057693	Orphan_225
SAMEA6057695	Orphan_227
SAMEA6057700	Orphan_230
SAMEA6057702	Orphan_231
SAMEA6057704	Orphan_232
SAMEA6057705	Orphan_233
SAMEA6057707	Orphan_234
SAMEA6057710	Orphan_235
SAMEA6057711	Orphan_236
SAMEA6057715	Orphan_237
SAMEA6057718	Orphan_238
SAMEA6057722	Orphan_241
SAMEA6057723	Orphan_242
SAMEA6057726	Orphan_245
SAMEA6057727	Orphan_246
SAMEA6057738	Orphan_250
SAMEA6057751	Orphan_257
SAMEA6057755	Orphan_259
SAMEA6057757	Orphan_260
SAMEA6057758	Orphan_261
SAMEA6057760	Orphan_262
SAMEA6057762	Orphan_263
SAMEA6057764	Orphan_265
SAMEA6057767	Orphan_266
SAMEA6057768	Orphan_267
SAMEA6057770	Orphan_268
SAMEA6057772	Orphan_269
SAMEA6057774	Orphan_271
SAMEA6057775	Orphan_272
SAMEA6057778	Orphan_273
SAMEA6057779	Orphan_274
SAMEA6057784	Orphan_276
SAMEA6057789	Orphan_278
SAMEA6057792	Orphan_280
SAMEA6057794	Orphan_281
SAMEA6057795	Orphan_282
SAMEA6057798	Orphan_283
SAMEA6057802	Orphan_284
SAMEA6057805	Orphan_285
SAMEA6057808	Orphan_287
SAMEA6057809	Orphan_288
SAMEA6057812	Orphan_289
SAMEA6057815	Orphan_291
SAMEA6057818	Orphan_292
SAMEA6057820	Orphan_293
SAMEA6057823	Orphan_294
SAMEA6057827	Orphan_295
SAMEA6057829	Orphan_296
SAMEA6057834	Orphan_299
SAMEA6057839	Orphan_300
SAMEA6057842	Orphan_301
SAMEA6057849	Orphan_303
SAMEA6057850	Orphan_304
SAMEA6057851	Orphan_305
SAMEA6057859	Orphan_307
SAMEA6057860	Orphan_308
SAMEA6057863	Orphan_310
SAMEA6057864	Orphan_311
SAMEA6057869	Orphan_312
SAMEA6057871	Orphan_313
SAMEA6057875	Orphan_316
SAMEA6057876	Orphan_317
SAMEA6057877	Orphan_318
SAMEA6057881	Orphan_320
SAMEA6057885	Orphan_322
SAMEA6057889	Orphan_324
SAMEA6057890	Orphan_325
SAMEA6057891	Orphan_326
SAMEA6057892	Orphan_327
SAMEA6057897	Orphan_329
SAMEA6057902	Orphan_330
SAMEA6057903	Orphan_331
SAMEA6057904	Orphan_332
SAMEA6057907	Orphan_333
SAMEA6057908	Orphan_334
SAMEA6057914	Orphan_335
SAMEA6057915	Orphan_336
SAMEA6057927	Orphan_338
SAMEA6057932	Orphan_340
SAMEA6057933	Orphan_341
SAMEA6057938	Orphan_342
SAMEA6057946	Orphan_345
SAMEA6057951	Orphan_346
SAMEA6057956	Orphan_347
SAMEA6057957	Orphan_348
SAMEA6057961	Orphan_351
SAMEA6057962	Orphan_352
SAMEA6057965	Orphan_354
SAMEA6057967	Orphan_355
SAMEA6057970	Orphan_356
SAMEA6057972	Orphan_357
SAMEA6057976	Orphan_358
SAMEA6057978	Orphan_359
SAMEA6057981	Orphan_360
SAMEA6057983	Orphan_362
SAMEA6057984	Orphan_363
SAMEA6057999	Orphan_365
SAMEA6058004	Orphan_366
SAMEA6058007	Orphan_367
SAMEA6058009	Orphan_368
SAMEA6058010	Orphan_369
SAMEA6058011	Orphan_370
SAMEA6058012	Orphan_371
SAMEA6058013	Orphan_372
SAMEA6058017	Orphan_373
SAMEA6058020	Orphan_375
SAMEA6058021	Orphan_376
SAMEA6058022	Orphan_377
SAMEA6058025	Orphan_378
SAMEA6058026	Orphan_379
SAMEA6058031	Orphan_380
SAMEA6058040	Orphan_383
SAMEA6058041	Orphan_384
SAMEA6058042	Orphan_385
SAMEA6058043	Orphan_386
SAMEA6058044	Orphan_387
SAMEA6058052	Orphan_388
SAMEA6058053	Orphan_389
SAMEA6058061	Orphan_391
SAMEA6058064	Orphan_392
SAMEA6058067	Orphan_393
SAMEA6058075	Orphan_395
SAMEA6058076	Orphan_396
SAMEA6058077	Orphan_397
SAMEA6058079	Orphan_398
SAMEA6058080	Orphan_399
SAMEA6058084	Orphan_401
SAMEA6058086	Orphan_402
SAMEA6058088	Orphan_403
SAMEA6058089	Orphan_404
SAMEA6058092	Orphan_405
SAMEA6058096	Orphan_407
SAMEA6058097	Orphan_408
SAMEA6058098	Orphan_409
SAMEA6058107	Orphan_411
SAMEA6058108	Orphan_412
SAMEA6058109	Orphan_413
SAMEA6058110	Orphan_414
SAMEA6058111	Orphan_415
SAMEA6058114	Orphan_416
SAMEA6058115	Orphan_417
SAMEA6058116	Orphan_418
SAMEA6058120	Orphan_419
SAMEA6058123	Orphan_420
SAMEA6058125	Orphan_421
SAMEA6058131	Orphan_422
SAMEA6058132	Orphan_423
SAMEA6058136	Orphan_424
SAMEA6058139	Orphan_425
SAMEA6058143	Orphan_427
SAMEA6058145	Orphan_428
SAMEA6058146	Orphan_429
SAMEA6058152	Orphan_431
SAMEA6058153	Orphan_432
SAMEA6058154	Orphan_433
SAMEA6058155	Orphan_434
SAMEA6058158	Orphan_436
SAMEA6058159	Orphan_437
SAMEA6058161	Orphan_438
SAMEA6058163	Orphan_439
SAMEA6058166	Orphan_440
SAMEA6058169	Orphan_441
SAMEA6058170	Orphan_442
SAMEA6058172	Orphan_443
SAMEA6058175	Orphan_444
SAMEA6058176	Orphan_445
SAMEA6058179	Orphan_446
SAMEA6058184	Orphan_447
SAMEA6058185	Orphan_448
SAMEA6058189	Orphan_450
SAMEA6058195	Orphan_452
SAMEA6058197	Orphan_453
SAMEA6058199	Orphan_455
SAMEA6058200	Orphan_456
SAMEA6058201	Orphan_457
SAMEA6058202	Orphan_458
SAMEA6058207	Orphan_459
SAMEA6058210	Orphan_460
SAMEA6058213	Orphan_461
SAMEA6058214	Orphan_462
SAMEA6058217	Orphan_463
SAMEA6058222	Orphan_464
SAMEA6058223	Orphan_465
SAMEA6058227	Orphan_467
SAMEA6058231	Orphan_469
SAMEA6058238	Orphan_472
SAMEA6058240	Orphan_473
SAMEA6058254	Orphan_474
SAMEA6058255	Orphan_475
SAMEA6058257	Orphan_476
SAMEA6058259	Orphan_477
SAMEA6058263	Orphan_478
SAMEA6058266	Orphan_479
SAMEA6058268	Orphan_480
SAMEA6058279	Orphan_483
SAMEA6058284	Orphan_484
SAMEA6058286	Orphan_485
SAMEA6058287	Orphan_486
SAMEA6058288	Orphan_487
SAMEA6058289	Orphan_488
SAMEA6058291	Orphan_489
SAMEA6058292	Orphan_490
SAMEA6058293	Orphan_491
SAMEA6058294	Orphan_492
SAMEA6058296	Orphan_493
SAMEA6058298	Orphan_494
SAMEA6058302	Orphan_495
SAMEA6058305	Orphan_496
SAMEA6058306	Orphan_497
SAMEA6058314	Orphan_498
SAMEA6058315	Orphan_499
SAMEA6058317	Orphan_500
SAMEA6058320	Orphan_501
SAMEA6058327	Orphan_503
SAMEA6058328	Orphan_504
SAMEA6058330	Orphan_505
SAMEA6058331	Orphan_506
SAMEA6058332	Orphan_507
SAMEA6058334	Orphan_508
SAMEA6058335	Orphan_509
SAMEA6058337	Orphan_510
SAMEA6058345	Orphan_512
SAMEA6058351	Orphan_513
SAMEA6058352	Orphan_514
SAMEA6058354	Orphan_515
SAMEA6058356	Orphan_516
SAMEA6058367	Orphan_519
SAMEA6058369	Orphan_520
SAMEA6058371	Orphan_521
SAMEA6058372	Orphan_522
SAMEA6058378	Orphan_523
SAMEA6058381	Orphan_525
SAMEA6058382	Orphan_526
SAMEA6058384	Orphan_527
SAMEA6058385	Orphan_528
SAMEA6058391	Orphan_529
SAMEA6058392	Orphan_530
SAMEA6058394	Orphan_531
SAMEA6058396	Orphan_532
SAMEA6058404	Orphan_533
SAMEA6058406	Orphan_534
SAMEA6058409	Orphan_535
SAMEA6058411	Orphan_537
SAMEA6058414	Orphan_538
SAMEA6058417	Orphan_540
SAMEA6058427	Orphan_543
SAMEA6058432	Orphan_545
SAMEA6058435	Orphan_546
SAMEA6058441	Orphan_547
SAMEA6058443	Orphan_548
SAMEA6058444	Orphan_549
SAMEA6058446	Orphan_550
SAMEA6058450	Orphan_552
SAMEA6058454	Orphan_553
SAMEA6058456	Orphan_554
SAMEA6058460	Orphan_555
SAMEA6058462	Orphan_556
SAMEA6058464	Orphan_558
SAMEA6058467	Orphan_561
SAMEA6058468	Orphan_562
SAMEA6058470	Orphan_563
SAMEA6058476	Orphan_564
SAMEA6058479	Orphan_565
SAMEA6058481	Orphan_566
SAMEA6058486	Orphan_567
SAMEA6058487	Orphan_568
SAMEA6058493	Orphan_569
SAMEA6058501	Orphan_570
SAMEA6058503	Orphan_571
SAMEA6058504	Orphan_572
SAMEA6058505	Orphan_573
SAMEA6058507	Orphan_574
SAMEA6058509	Orphan_575
SAMEA6058510	Orphan_576
SAMEA6058511	Orphan_577
SAMEA6058523	Orphan_578
SAMEA6058525	Orphan_579
SAMEA6058528	Orphan_580
SAMEA6058529	Orphan_581
SAMEA6058531	Orphan_582
SAMEA6058532	Orphan_583
SAMEA6058537	Orphan_584
SAMEA6058540	Orphan_585
SAMEA6058542	Orphan_586
SAMEA6058543	Orphan_587
SAMEA6058547	Orphan_588
SAMEA6058548	Orphan_589
SAMEA6058549	Orphan_590
SAMEA6058552	Orphan_591
SAMEA6058553	Orphan_592
SAMEA6058554	Orphan_593
SAMEA6058563	Orphan_594
SAMEA6058568	Orphan_595
SAMEA6058570	Orphan_596
SAMEA6058576	Orphan_597
SAMEA6058577	Orphan_598
SAMEA6058586	Orphan_600
SAMEA6058587	Orphan_601
SAMEA6058592	Orphan_602
SAMEA6058594	Orphan_603
SAMEA6058607	Orphan_604
SAMEA6058611	Orphan_605
SAMEA6058616	Orphan_606
SAMEA6058625	Orphan_607
SAMEA6058629	Orphan_608
SAMEA6058630	Orphan_609
