sample	date	sender	cluster_name	cluster_name_3	cluster_code
SAMEA6057963	2020-09-25	partner2	CT_0133	Alpha	CT_0133.Alpha
SAMEA6058006	2020-09-26	partner1	CT_0133	Alpha	CT_0133.Alpha
SAMEA6058300	2020-09-26	partner1	CT_0133	Alpha	CT_0133.Alpha
SAMEA6058620	2020-09-26	partner1	CT_0133	Alpha	CT_0133.Alpha
