sample	date	sender	cluster_name	cluster_name_3	cluster_code
SAMEA6057483	2020-09-26	partner3	CT_0049	Alpha	CT_0049.Alpha
SAMEA6057520	2020-09-25	partner2	CT_0049	Beta	CT_0049.Beta
SAMEA6057533	2020-09-26	partner3	CT_0049	Gamma	CT_0049.Gamma
SAMEA6057579	2020-09-25	partner2	CT_0049	Delta	CT_0049.Delta
SAMEA6057987	2020-09-26	partner1	CT_0049	Alpha	CT_0049.Alpha
SAMEA6058124	2020-09-26	partner1	CT_0049	Epsilon	CT_0049.Epsilon
SAMEA6058243	2020-09-25	partner2	CT_0049	Zeta	CT_0049.Zeta
SAMEA6058628	2020-09-26	partner3	CT_0049	Alpha	CT_0049.Alpha
