sample	date	sender	cluster_name	cluster_name_3	cluster_code
SAMEA5882647	2020-09-25	partner2	CT_0016	Alpha	CT_0016.Alpha
SAMEA6058290	2020-09-26	partner1	CT_0016	Alpha	CT_0016.Alpha
SAMEA6058602	2020-09-25	partner2	CT_0016	Alpha	CT_0016.Alpha
