sample	date	sender	cluster_name	cluster_name_3	cluster_code
SAMEA6057691	2020-09-25	partner2	CT_0090	Alpha	CT_0090.Alpha
SAMEA6058141	2020-09-25	partner2	CT_0090	Alpha	CT_0090.Alpha
SAMEA6058397	2020-09-26	partner1	CT_0090	Alpha	CT_0090.Alpha
