	SAMEA6057854	SAMEA6057832	SAMEA6058458	SAMEA6058225	SAMEA6058235	SAMEA6058212	SAMEA6058519
SAMEA6057854	0	3	5	7	7	7	8
SAMEA6057832	3	0	2	5	4	4	5
SAMEA6058458	5	2	0	7	6	6	7
SAMEA6058225	7	5	7	0	5	4	6
SAMEA6058235	7	4	6	5	0	4	5
SAMEA6058212	7	4	6	4	4	0	3
SAMEA6058519	8	5	7	6	5	3	0
