sample	date	sender	cluster_name	cluster_name_3	cluster_code
SAMEA5552150	2020-09-25	partner2	CT_0001	Alpha	CT_0001.Alpha
SAMEA5552152	2020-09-25	partner2	CT_0001	Beta	CT_0001.Beta
SAMEA5552154	2020-09-25	partner2	CT_0001	Beta	CT_0001.Beta
